Division,Sex,Equipment,Event,WeightClassKg,Name,Best3SquatKg,Squat4Kg,Best3BenchKg,Bench4Kg,Best3DeadliftKg,Deadlift4Kg,TotalKg,BirthDate,Place
Amateur Teen 18-19,M,Multi-ply,SBD,82.5,Billy Cappalonga,285.76,,183.7,,204.12,,673.58,1993-12-17,1
Amateur Teen 16-17,M,Wraps,SBD,60,Zachary Appelbaum,115.67,,97.52,,158.76,,371.95,1994-12-19,1
Amateur Teen 16-17,M,Wraps,SBD,67.5,Tyler Newcomb,129.27,,90.72,,199.58,206.38,419.57,1994-12-21,1
Amateur Teen 16-17,M,Wraps,SBD,82.5,Jake Sears,190.51,,92.99,,215.46,,498.95,1996-01-30,1
Amateur Teen 18-19,M,Wraps,SBD,82.5,Collin Koser,158.76,,104.33,,231.33,,494.42,1994-07-29,1
Amateur Teen 18-19,M,Wraps,SBD,82.5,Zach Cutler,129.27,,83.91,,183.7,,396.89,1993-01-13,2
Amateur Teen 18-19,M,Wraps,SBD,125,Kevin Staley,181.44,,115.67,,167.83,,464.93,1993-03-16,1
Amateur Teen 18-19,F,Wraps,SBD,56,Elizabeth Cooley,72.57,,63.5,64.64,108.86,,244.94,1993-12-03,1
Amateur Juniors 20-23,F,Wraps,SBD,67.5,Roshonda Ware,68.04,,63.5,,124.74,137.21,256.28,1991-10-09,1
Amateur Open,F,Wraps,SBD,56,Cristie Shull,102.06,107.73,58.97,,117.93,,278.96,1985-12-27,1
Amateur Open,F,Wraps,SBD,67.5,Tifany Ness,77.11,,45.36,,90.72,,213.19,1980-10-07,1
Amateur Masters 50-54,F,Wraps,SBD,67.5,Marlene Cosner,83.91,,63.5,,113.4,120.2,260.82,1960-04-09,1
Pro Open,F,Multi-ply,SBD,48,Elaine Grimwood,161.03,,95.25,,167.83,170.1,424.11,1970-12-06,1
Pro Masters 40-44,F,Multi-ply,SBD,48,Elaine Grimwood,161.03,,95.25,,167.83,170.1,424.11,1970-12-06,1
Amateur Juniors 20-23,M,Multi-ply,SBD,100,Michael Bedwell,249.48,,165.56,,249.48,,664.51,1990-09-04,1
Amateur Juniors 20-23,M,Wraps,SBD,100,Joseph Ratenni,154.22,,106.59,,195.04,,455.86,1991-08-19,1
Amateur Juniors 20-23,M,Wraps,SBD,82.5,Sean New,156.49,,115.67,,231.33,,503.49,1991-02-28,1
Amateur Juniors 20-23,M,Wraps,SBD,90,Ryan Higgins,192.78,,147.42,,244.94,,585.13,1990-11-01,1
Amateur Juniors 20-23,M,Wraps,SBD,90,Charles Malewski,174.63,,142.88,,199.58,,517.1,1991-12-26,2
Amateur Juniors 20-23,M,Wraps,SBD,110,Anthony Esquerdo,254.01,,161.03,,301.64,,716.68,1989-04-23,1
Amateur Open,M,Multi-ply,SBD,90,Joey Alessandro,331.12,,165.56,,249.48,,746.16,1966-01-02,1
Amateur Open,M,Wraps,SBD,75,Dan Shull,165.56,,99.79,,217.72,,483.08,1987-10-29,1
Amateur Open,M,Wraps,SBD,82.5,Chad Toffolo,235.87,,156.49,,283.5,,675.85,1976-01-10,1
Amateur Open,M,Wraps,SBD,100,Casey Williams #1,299.37,317.51,192.78,,310.71,,802.86,1987-12-13,1
Amateur Open,M,Wraps,SBD,100,Paul Oneid,272.16,,165.56,,256.28,,694,1987-11-11,2
Elite Amateur Open,M,Multi-ply,SBD,82.5,Larry Dyles,274.42,,158.76,,251.74,,684.92,1983-08-16,1
Amateur Submasters 33-39,M,Multi-ply,SBD,82.5,Chad Toffolo,235.87,,156.49,,283.5,,675.85,1976-01-10,1
Amateur Submasters 33-39,M,Multi-ply,SBD,110,Justin Ladas,224.53,,174.63,,265.35,,664.51,1979-11-08,1
Amateur Masters 45-49,M,Multi-ply,SBD,67.5,Timothy Kingure,206.38,,111.13,,206.38,,523.9,1966-03-23,1
Amateur Masters 45-49,M,Multi-ply,SBD,90,Joey Alessandro,331.12,,165.56,,249.48,,746.16,1966-01-02,1
Amateur Masters 55-59,M,Multi-ply,SBD,125,Ronald Krout,267.62,,172.37,,204.12,,644.1,1956-01-28,1
Amateur Masters 60-64,M,Multi-ply,SBD,125,Fred Fischer,244.94,,,,,,,1951-06-05,DQ
Amateur Masters 70-74,M,Multi-ply,SBD,82.5,Ted Shull,138.35,147.42,104.33,,142.88,,385.55,1942-03-29,1
Amateur Masters 65-69,M,Wraps,SBD,67.5,James Burge,147.42,,102.06,,192.78,,442.25,1947-01-25,1
Amateur Masters 75-79,M,Wraps,SBD,75,George Christman,136.08,147.42,95.25,,172.37,,403.7,1934-11-15,1
Pro Juniors 20-23,M,Multi-ply,SBD,60,Jordan Syatt,181.44,188.24,106.59,,190.51,,478.54,1991-05-08,1
Pro Juniors 20-23,M,Wraps,SBD,75,Damian Colletti,190.51,,136.08,,238.14,,564.72,1991-08-23,1
Pro Open,M,Multi-ply,SBD,100,Mark Bailey,308.44,,233.6,,229.06,,771.11,1987-04-29,1
Pro Open,M,Multi-ply,SBD,100,Michael Bratton,249.48,,249.48,,226.8,,725.75,1988-09-25,2
Pro Open,M,Multi-ply,SBD,110,Sean Green,367.41,,226.8,,344.73,,938.94,1987-05-23,1
Pro Open,M,Multi-ply,SBD,125,Kyle Decker,399.16,,238.14,,285.76,,923.06,1985-06-15,1
Pro Open,M,Wraps,SBD,110,Dave Smiley,272.16,,185.97,,283.5,,741.62,1969-06-16,1
Pro Open,M,Wraps,SBD,125,Darren Hess,233.6,,154.22,,272.16,,659.98,1986-07-12,1
Pro Open,M,Wraps,SBD,140+,Dan Kovacs,347,,278.96,,376.48,,1002.44,1970-03-06,1
Pro Masters 50-54,M,Multi-ply,SBD,100,Paul Bruno,215.46,,136.08,,226.8,,578.33,1961-08-15,1
Pro Masters 60-64,M,Multi-ply,SBD,125,Denis Dreher,181.44,,113.4,,238.14,,532.97,1951-07-02,1
Pro Masters 65-69,M,Multi-ply,SBD,140,Bob O'Brien,161.03,174.63,147.42,,163.29,,471.74,1947-08-24,1
Pro Masters 40-44,M,Wraps,SBD,110,Dave Smiley,272.16,,185.97,,283.5,,741.62,1969-06-16,1
Pro Submasters 33-39,M,Wraps,SBD,140+,David Murray,265.35,,147.42,,238.14,,650.91,1972-11-24,1
Pro Masters 45-49,M,Wraps,SBD,100,James Howell,274.42,,154.22,,272.16,,700.8,1965-01-23,1
Pro Masters 50-54,M,Wraps,SBD,140,Tim Albanese,238.14,,206.38,210.92,215.46,,659.98,1958-05-15,1
Pro Masters 60-64,M,Wraps,SBD,100,James Cash,145.15,,131.54,136.08,238.14,,514.83,1949-11-06,1
Amateur Open,F,Raw,B,56,Meghann Salafia,,,77.11,,,,77.11,1981-10-10,1
Amateur Open,F,Raw,B,90+,Jessica Read,,,120.2,,,,120.2,1977-05-30,1
Amateur Submasters 33-39,F,Raw,B,90+,Jessica Read,,,120.2,,,,120.2,1977-05-30,1
Amateur Open,F,Multi-ply,B,60,Jules Furniss,,,108.86,,,,108.86,1983-03-21,1
Amateur Open,M,Multi-ply,B,110,Deon Brauer,,,215.46,,,,215.46,1979-01-21,2
Pro Masters 55-59,F,Raw,B,82.5,Bonnie Graube,,,106.59,108.86,,,106.59,1954-10-22,1
Pro Open,M,Multi-ply,B,82.5,Adam Harshbarger,,,158.76,,,,158.76,1986-01-01,1
Pro Open,M,Multi-ply,B,100,Josh Stottlemire,,,306.17,,,,306.17,1980-12-04,1
Pro Open,M,Multi-ply,B,110,David Poole,,,340.19,,,,340.19,1987-05-23,1
Pro Open,M,Raw,B,125,Robert Gunn,,,195.04,,,,195.04,1953-05-13,1
Pro Masters 45-49,M,Multi-ply,B,125,Gregory Murray,,,265.35,,,,265.35,1966-10-16,1
Pro Masters 45-49,M,Raw,B,110,Todd Willow,,,183.7,,,,183.7,1965-03-18,1
Pro Masters 55-59,M,Raw,B,125,Robert Gunn,,,195.04,,,,195.04,1953-05-13,1
Pro Masters 60-64,M,Raw,B,125,Raymond Barth,,,154.22,,,,154.22,1952-01-01,1
Amateur Open,F,Raw,BD,90,Amy Ladas,,,56.7,,142.88,145.15,199.58,,1
Pro Open,M,Multi-ply,BD,100,Ron Garvey,,,244.94,,294.84,,539.77,,1
Pro Masters 40-44,M,Raw,BD,140,Roscoe Ware,,,219.99,,333.39,,553.38,,1
