Division,WeightClassKg,Place,Name,Team,BodyweightKg,Best3SquatKg,Best3BenchKg,Best3DeadliftKg,TotalKg,Equipment,Event,Sex
Boys,51.71,1,Carter McFadden,Anna,49.44,122.47,65.77,127.01,315.25,Single-ply,SBD,M
Boys,51.71,2,Conner Gressett,Frisco Wakeland,50.26,92.99,43.09,97.52,233.6,Single-ply,SBD,M
Boys,55.79,1,Rolando Guajardo,Frisco Centennial,54.98,106.59,61.23,138.35,306.17,Single-ply,SBD,M
Boys,55.79,2,Calvin Sall,Frisco Reedy,55.02,106.59,72.57,122.47,301.64,Single-ply,SBD,M
Boys,55.79,3,Jared Banda,Frisco Reedy,55.79,92.99,65.77,124.74,283.5,Single-ply,SBD,M
Boys,55.79,DQ,Blayze Ferguson,Frisco Heritage,51.8,,,,,Single-ply,SBD,M
Boys,59.87,1,Will Best,Frisco Wakeland,58.51,142.88,61.23,151.95,356.07,Single-ply,SBD,M
Boys,67.13,1,Mike Acevedo,Anna,64.5,188.24,108.86,174.63,471.74,Single-ply,SBD,M
Boys,67.13,2,Edward Zeng,Frisco Liberty,64.95,188.24,77.11,206.38,471.74,Single-ply,SBD,M
Boys,67.13,3,Josh Fieferik,Frisco Reedy,66.32,170.1,106.59,174.63,451.32,Single-ply,SBD,M
Boys,67.13,4,Gavin Carroll,Frisco Wakeland,66.86,158.76,81.65,136.08,376.48,Single-ply,SBD,M
Boys,67.13,5,Noah Woodward,McKinney,65.23,136.08,86.18,136.08,358.34,Single-ply,SBD,M
Boys,67.13,6,Anthony Thomas,Frisco Centennial,64.23,133.81,86.18,136.08,356.07,Single-ply,SBD,M
Boys,67.13,7,Alex Taylor,McKinney Boyd,67.13,113.4,72.57,151.95,337.93,Single-ply,SBD,M
Boys,74.84,1,Charlie Burkhart,Frisco Wakeland,73.94,174.63,111.13,165.56,451.32,Single-ply,SBD,M
Boys,74.84,2,Justin Smith,Frisco Centennial,72.94,197.31,95.25,190.51,483.08,Single-ply,SBD,M
Boys,74.84,3,Mac Landeau,Frisco Wakeland,74.57,174.63,102.06,179.17,455.86,Single-ply,SBD,M
Boys,74.84,4,Victor Martinez,Anna,72.57,170.1,99.79,183.7,453.59,Single-ply,SBD,M
Boys,74.84,5,Jonathan Lis,Frisco Liberty,73.57,161.03,92.99,188.24,442.25,Single-ply,SBD,M
Boys,74.84,6,Adam Washington,Frisco Heritage,70.31,163.29,102.06,174.63,439.98,Single-ply,SBD,M
Boys,74.84,7,Fabrizio Perez,Frisco Centennial,73.39,151.95,97.52,183.7,433.18,Single-ply,SBD,M
Boys,74.84,8,Vincent Rivera,McKinney North,71.58,154.22,106.59,154.22,415.04,Single-ply,SBD,M
Boys,74.84,9,Jaxon Holloman,Frisco Heritage,73.03,161.03,95.25,145.15,401.43,Single-ply,SBD,M
Boys,74.84,10,Zach Erlewein,Frisco Reedy,73.21,138.35,88.45,158.76,385.55,Single-ply,SBD,M
Boys,74.84,11,Gireesh Daggvpati,Frisco Heritage,67.95,113.4,68.04,142.88,324.32,Single-ply,SBD,M
Boys,74.84,12,Gunner Vestal,Frisco Liberty,73.03,90.72,54.43,111.13,256.28,Single-ply,SBD,M
Boys,74.84,13,Jace Lamb,Frisco Wakeland,67.31,83.91,74.84,88.45,247.21,Single-ply,SBD,M
Boys,82.1,1,Amyri Cox,Anna,77.2,192.78,124.74,201.85,519.36,Single-ply,SBD,M
Boys,82.1,2,Jonathan Vaquera,Frisco Wakeland,80.74,181.44,104.33,190.51,476.27,Single-ply,SBD,M
Boys,82.1,3,Josh Flauding,Anna,75.75,165.56,106.59,183.7,455.86,Single-ply,SBD,M
Boys,82.1,4,Austin Wildman,Anna,80.29,172.37,92.99,185.97,451.32,Single-ply,SBD,M
Boys,82.1,5,Connor Wolfe,Frisco Heritage,77.66,154.22,104.33,190.51,449.06,Single-ply,SBD,M
Boys,82.1,6,Olique Kirksey,McKinney Boyd,78.2,142.88,102.06,199.58,444.52,Single-ply,SBD,M
Boys,82.1,7,Cannon Roeder,Frisco Wakeland,78.2,179.17,102.06,163.29,444.52,Single-ply,SBD,M
Boys,82.1,8,Andrew Nguyen,McKinney North,79.56,165.56,92.99,174.63,433.18,Single-ply,SBD,M
Boys,82.1,9,Michael Ferrara,Frisco Reedy,76.02,138.35,97.52,170.1,405.97,Single-ply,SBD,M
Boys,82.1,10,Ty Martin,Frisco Reedy,78.2,154.22,95.25,151.95,401.43,Single-ply,SBD,M
Boys,82.1,11,Jared Musser,Frisco Reedy,81.01,145.15,104.33,149.69,399.16,Single-ply,SBD,M
Boys,82.1,12,Woodson Andrews,McKinney Boyd,81.92,136.08,99.79,154.22,390.09,Single-ply,SBD,M
Boys,82.1,DQ,Hunter Chae,McKinney North,76.02,172.37,,,,Single-ply,SBD,M
Boys,82.1,DQ,Hassan Khaled,Frisco Liberty,79.38,115.67,74.84,,,Single-ply,SBD,M
Boys,82.1,DQ,Trey Varnell,Frisco Centennial,78.83,149.69,,,,Single-ply,SBD,M
Boys,89.81,1,Jacob Veres,Frisco Wakeland,88.81,204.12,136.08,206.38,546.58,Single-ply,SBD,M
Boys,89.81,2,Jaden Ramey,McKinney Boyd,87.45,204.12,124.74,206.38,535.24,Single-ply,SBD,M
Boys,89.81,3,Spencer May,Anna,87.72,183.7,131.54,210.92,526.17,Single-ply,SBD,M
Boys,89.81,4,Jd Stephens,Frisco Centennial,87.45,188.24,104.33,183.7,476.27,Single-ply,SBD,M
Boys,89.81,5,Tre Roberts,McKinney North,89.63,181.44,111.13,183.7,476.27,Single-ply,SBD,M
Boys,89.81,6,Troy Parker,Frisco Centennial,89.54,176.9,106.59,174.63,458.13,Single-ply,SBD,M
Boys,89.81,7,Hudson Halbert,Frisco Reedy,84.01,161.03,115.67,174.63,451.32,Single-ply,SBD,M
Boys,89.81,8,Sam Sabotino,Frisco Wakeland,85.91,174.63,106.59,163.29,444.52,Single-ply,SBD,M
Boys,99.79,1,Matt Hawk,Frisco Independence,99.16,272.16,140.61,244.94,657.71,Single-ply,SBD,M
Boys,99.79,2,Harrison Cornelius,Anna,97.61,235.87,158.76,215.46,610.08,Single-ply,SBD,M
Boys,99.79,3,Mel Readus,Anna,98.97,217.72,154.22,229.06,601.01,Single-ply,SBD,M
Boys,99.79,4,Cameron Maddox,McKinney Boyd,92.53,181.44,115.67,219.99,517.1,Single-ply,SBD,M
Boys,99.79,5,T Lang,Anna,95.25,206.38,117.93,183.7,508.02,Single-ply,SBD,M
Boys,99.79,6,Matt Kyzlik,McKinney,98.25,199.58,90.72,192.78,483.08,Single-ply,SBD,M
Boys,99.79,7,Cody Gonzales,Frisco Heritage,98.79,190.51,122.47,167.83,480.81,Single-ply,SBD,M
Boys,99.79,8,Trey Schlink,Frisco Wakeland,94.89,190.51,104.33,181.44,476.27,Single-ply,SBD,M
Boys,99.79,9,Zach McMahon,McKinney North,92.08,156.49,90.72,219.99,467.2,Single-ply,SBD,M
Boys,99.79,10,James Ogbeide,Frisco Centennial,99.25,165.56,108.86,158.76,433.18,Single-ply,SBD,M
Boys,99.79,11,Noah Jackson,Frisco Reedy,91.44,156.49,104.33,161.03,421.84,Single-ply,SBD,M
Boys,99.79,12,Mason Terry,Frisco Liberty,93.26,133.81,81.65,136.08,351.53,Single-ply,SBD,M
Boys,99.79,DQ,Brandon Kim,Frisco Heritage,99.25,,,,,Single-ply,SBD,M
Boys,99.79,DQ,Joe Miller,Frisco Independence,97.07,156.49,,,,Single-ply,SBD,M
Boys,109.77,1,Jeremy LaFoucade,McKinney,108.68,226.8,115.67,231.33,573.79,Single-ply,SBD,M
Boys,109.77,2,Rasheed Readus,Anna,101.6,215.46,124.74,231.33,571.53,Single-ply,SBD,M
Boys,109.77,3,Cesar Sandoval,Frisco Reedy,109.68,226.8,138.35,206.38,571.53,Single-ply,SBD,M
Boys,109.77,4,Ben Perry,Frisco Independence,108.95,201.85,120.2,179.17,501.22,Single-ply,SBD,M
Boys,109.77,5,Brayden Hughes,Frisco Centennial,108.95,195.04,115.67,172.37,483.08,Single-ply,SBD,M
Boys,109.77,6,Austin Markiewicz,McKinney North,109.59,147.42,99.79,151.95,399.16,Single-ply,SBD,M
Boys,109.77,DQ,Cameron R,Frisco Heritage,102.51,,,,,Single-ply,SBD,M
Boys,124.74,1,Cameron Coker,McKinney North,119.75,192.78,138.35,185.97,517.1,Single-ply,SBD,M
Boys,124.74,2,Wesley Thrasher,Frisco Centennial,124.65,183.7,108.86,183.7,476.27,Single-ply,SBD,M
Boys,124.74,3,Juan Verdenes,McKinney,118.12,158.76,108.86,192.78,460.4,Single-ply,SBD,M
Boys,124.74,4,Adrian Gallegos,McKinney,115.39,174.63,113.4,158.76,446.79,Single-ply,SBD,M
Boys,124.74,5,Ethan Lane,McKinney,112.67,151.95,92.99,170.1,415.04,Single-ply,SBD,M
Boys,124.74,DQ,Marcus Ramsey,McKinney,124.65,,,,,Single-ply,SBD,M
Boys,124.74+,1,Izeya Floyd,Frisco Reedy,144.33,249.48,158.76,249.48,657.71,Single-ply,SBD,M
Boys,124.74+,2,Justin Stewart,McKinney Boyd,143.97,249.48,136.08,183.7,569.26,Single-ply,SBD,M
Boys,124.74+,3,Joe Crane,Frisco Centennial,137.53,206.38,106.59,192.78,505.76,Single-ply,SBD,M
Boys,124.74+,4,Kris Estep,McKinney,151.41,170.1,120.2,210.92,501.22,Single-ply,SBD,M
Boys,124.74+,DQ,Kaleb Arnold,Frisco Heritage,143.7,213.19,,,,Single-ply,SBD,M
