Division,WeightClassKg,Place,Name,Team,BodyweightKg,Best3SquatKg,Best3BenchKg,Best3DeadliftKg,TotalKg,Equipment,Event,Sex
Boys,51.71,1,Matt Perez,Ralls,47.63,92.99,52.16,117.93,263.08,Single-ply,SBD,M
Boys,51.71,2,Kelton Johnson,Levelland,27.85,40.82,29.48,61.23,131.54,Single-ply,SBD,M
Boys,55.79,1,Jaime Luz,Levelland,53.52,79.38,70.31,111.13,260.82,Single-ply,SBD,M
Boys,55.79,2,Antonio Arreola,Seminole,55.43,83.91,47.63,115.67,247.21,Single-ply,SBD,M
Boys,59.87,1,Raymon Aranda,Seagraves,59.87,215.46,127.01,226.8,569.26,Single-ply,SBD,M
Boys,59.87,2,Dominic Longoria,Levelland,59.33,172.37,99.79,174.63,446.79,Single-ply,SBD,M
Boys,59.87,3,Miguel Vasquez,Farwell,59.42,149.69,104.33,158.76,412.77,Single-ply,SBD,M
Boys,59.87,4,Zavian Florez,Kermit,59.51,163.29,92.99,156.49,412.77,Single-ply,SBD,M
Boys,59.87,5,Luke Krueger,Snyder,58.33,174.63,77.11,158.76,410.5,Single-ply,SBD,M
Boys,59.87,6,Bryan Fuentes,Kermit,59.6,138.35,95.25,151.95,385.55,Single-ply,SBD,M
Boys,59.87,7,Isaiah Zavala,Ralls,59.78,138.35,86.18,138.35,362.87,Single-ply,SBD,M
Boys,59.87,8,Isaac Hernandez,Sundown,59.69,136.08,79.38,129.27,344.73,Single-ply,SBD,M
Boys,59.87,9,Frank Mata,Sundown,56.79,77.11,54.43,102.06,233.6,Single-ply,SBD,M
Boys,67.13,1,Abel Burciaga,Denver City,66.95,181.44,124.74,181.44,487.61,Single-ply,SBD,M
Boys,67.13,2,John Lugo,Ralls,67.13,163.29,95.25,156.49,415.04,Single-ply,SBD,M
Boys,67.13,3,Culiar Ricky,Lockney,63.87,149.69,70.31,167.83,387.82,Single-ply,SBD,M
Boys,67.13,4,Joshua Trevino,Kermit,64.23,149.69,83.91,151.95,385.55,Single-ply,SBD,M
Boys,67.13,5,George Barker,Lamesa Klondike,62.05,129.27,79.38,167.83,376.48,Single-ply,SBD,M
Boys,67.13,6,Justin Greenlee,Plains,67.13,140.61,86.18,136.08,362.87,Single-ply,SBD,M
Boys,67.13,7,Ali Mata,Snyder,60.69,120.2,70.31,147.42,337.93,Single-ply,SBD,M
Boys,67.13,8,Austin White,Levelland,64.86,115.67,65.77,142.88,324.32,Single-ply,SBD,M
Boys,67.13,9,Hayden Gray,Seminole,61.69,104.33,70.31,111.13,285.76,Single-ply,SBD,M
Boys,67.13,DQ,Michael Salinas,Ralls,65.32,124.74,81.65,,,Single-ply,SBD,M
Boys,74.84,1,Jerry Simental,Seagraves,72.39,170.1,111.13,181.44,462.66,Single-ply,SBD,M
Boys,74.84,2,Adrian Alvidrez,Seminole,74.84,181.44,99.79,172.37,453.59,Single-ply,SBD,M
Boys,74.84,3,Taylor Hobbs,Denver City,74.48,172.37,92.99,181.44,446.79,Single-ply,SBD,M
Boys,74.84,4,Steven Anna,Plains,71.21,158.76,111.13,174.63,444.52,Single-ply,SBD,M
Boys,74.84,5,Jesus Villarreal,Ralls,73.39,145.15,117.93,170.1,433.18,Single-ply,SBD,M
Boys,74.84,6,Cristian Cortez,Denver City,72.76,142.88,102.06,161.03,405.97,Single-ply,SBD,M
Boys,74.84,7,Matt Lopez,Ralls,71.94,151.95,88.45,158.76,399.16,Single-ply,SBD,M
Boys,74.84,8,Ivan Valverde,Denver City,70.4,147.42,88.45,161.03,396.89,Single-ply,SBD,M
Boys,74.84,9,Felipe Rodriguez,Kermit,72.85,145.15,81.65,145.15,371.95,Single-ply,SBD,M
Boys,74.84,10,Hunter Stanley,Sundown,71.4,138.35,79.38,149.69,367.41,Single-ply,SBD,M
Boys,74.84,11,Zeke Bermea,Levelland,71.4,136.08,79.38,129.27,344.73,Single-ply,SBD,M
Boys,74.84,12,Matt Conder,Levelland,68.58,111.13,70.31,151.95,333.39,Single-ply,SBD,M
Boys,74.84,13,Logan Wright,Levelland,72.57,117.93,68.04,145.15,331.12,Single-ply,SBD,M
Boys,74.84,DQ,Ryan Walters,Lockney,74.84,,,,,Single-ply,SBD,M
Boys,82.1,1,Michael Key,Lamesa Klondike,75.02,208.65,108.86,238.14,555.65,Single-ply,SBD,M
Boys,82.1,2,Fernando Vazquez,Denver City,80.2,226.8,136.08,192.78,555.65,Single-ply,SBD,M
Boys,82.1,3,Alex Quinonez,Seagraves,82.1,183.7,102.06,226.8,512.56,Single-ply,SBD,M
Boys,82.1,4,Jesse Flores,Levelland,80.2,183.7,138.35,181.44,503.49,Single-ply,SBD,M
Boys,82.1,5,Dillon Hibbitts,Seagraves,82.1,172.37,111.13,204.12,487.61,Single-ply,SBD,M
Boys,82.1,6,Daniel Olivias,Hart,82.1,204.12,113.4,149.69,467.2,Single-ply,SBD,M
Boys,82.1,7,Omar Soto,Farwell,81.19,158.76,102.06,183.7,444.52,Single-ply,SBD,M
Boys,82.1,8,Pedro Villarreal,Ralls,77.38,163.29,108.86,167.83,439.98,Single-ply,SBD,M
Boys,82.1,9,Brody Black,Sundown,81.01,124.74,79.38,138.35,342.46,Single-ply,SBD,M
Boys,82.1,10,Josue Vasquez,Kermit,81.28,136.08,68.04,127.01,331.12,Single-ply,SBD,M
Boys,82.1,11,Mark Hartman,Plains,78.83,74.84,68.04,129.27,272.16,Single-ply,SBD,M
Boys,89.81,1,Cris Stallings,Kermit,88.09,238.14,188.24,254.01,680.39,Single-ply,SBD,M
Boys,89.81,2,Jose Juarez,Snyder,82.74,244.94,127.01,222.26,594.21,Single-ply,SBD,M
Boys,89.81,3,Caleb Thomas,Snyder,85,235.87,127.01,222.26,585.13,Single-ply,SBD,M
Boys,89.81,4,Enrique Barron,Snyder,83.19,229.06,131.54,222.26,582.87,Single-ply,SBD,M
Boys,89.81,5,Cade Barkowsky,Lamesa Klondike,87.09,156.49,115.67,167.83,439.98,Single-ply,SBD,M
Boys,89.81,6,Josh Garcia,Hart,84.82,156.49,102.06,176.9,435.45,Single-ply,SBD,M
Boys,89.81,7,David Cox,Sundown,83.73,138.35,81.65,165.56,385.55,Single-ply,SBD,M
Boys,89.81,8,Chandler Shillig,Sundown,82.37,147.42,81.65,154.22,383.29,Single-ply,SBD,M
Boys,89.81,9,Christian Barrett,Farwell,85,136.08,79.38,142.88,358.34,Single-ply,SBD,M
Boys,89.81,10,Zach Harris,Plains,87.54,104.33,86.18,136.08,326.59,Single-ply,SBD,M
Boys,89.81,DQ,Ariel Delgado,Seminole,85.28,,,,,Single-ply,SBD,M
Boys,89.81,DQ,Eduardo Hernandez,Denver City,88.9,,,,,Single-ply,SBD,M
Boys,99.79,1,Paul Mata,Snyder,99.7,249.48,149.69,217.72,616.89,Single-ply,SBD,M
Boys,99.79,2,Isaiah Marquez,Kermit,97.79,219.99,147.42,222.26,589.67,Single-ply,SBD,M
Boys,99.79,3,Isaiah Lira,Plains,93.62,201.85,108.86,188.24,498.95,Single-ply,SBD,M
Boys,99.79,4,Matthew Leyva,Kermit,94.98,192.78,108.86,192.78,494.42,Single-ply,SBD,M
Boys,99.79,5,Steven Bazan,Lockney,96.52,172.37,86.18,149.69,408.23,Single-ply,SBD,M
Boys,99.79,6,Edgar Carrasco,Kermit,97.7,142.88,72.57,156.49,371.95,Single-ply,SBD,M
Boys,99.79,7,Austin Kelly,Seminole,94.8,138.35,88.45,131.54,358.34,Single-ply,SBD,M
Boys,99.79,8,Alexis Nunez,Farwell,99.79,151.95,70.31,131.54,353.8,Single-ply,SBD,M
Boys,99.79,DQ,Joshua Modesto,Kermit,96.16,129.27,,,,Single-ply,SBD,M
Boys,109.77,1,Marco Martínez,Kermit,108.41,222.26,138.35,222.26,582.87,Single-ply,SBD,M
Boys,109.77,2,Alexis Gonzales,Denver City,102.87,226.8,142.88,192.78,562.45,Single-ply,SBD,M
Boys,109.77,3,Raziel Burrola,Kermit,108.59,154.22,95.25,183.7,433.18,Single-ply,SBD,M
Boys,109.77,4,Caleb Reynoso,Ralls,101.15,181.44,77.11,158.76,417.3,Single-ply,SBD,M
Boys,124.74,1,Israel Rosalez,Seagraves,117.66,283.5,181.44,222.26,687.19,Single-ply,SBD,M
Boys,124.74,2,Zane Sorrells,Snyder,120.47,272.16,151.95,226.8,650.91,Single-ply,SBD,M
Boys,124.74,3,Ivan Esquivel,Denver City,113.04,226.8,124.74,192.78,544.31,Single-ply,SBD,M
Boys,124.74,4,Justin Perez,Farwell,124.74,192.78,136.08,188.24,517.1,Single-ply,SBD,M
Boys,124.74,DQ,Derek Woods,Kermit,118.12,199.58,133.81,,,Single-ply,SBD,M
Boys,124.74+,1,Sean Humphrey,Snyder,127.73,263.08,174.63,217.72,655.44,Single-ply,SBD,M
Boys,124.74+,2,Price Cooper,Lamesa Klondike,139.98,217.72,138.35,231.33,587.4,Single-ply,SBD,M
Boys,124.74+,3,Zathan McIntosh,Kermit,149.32,226.8,117.93,185.97,530.7,Single-ply,SBD,M
Boys,124.74+,4,Johnny Fehr,Seminole,127.91,195.04,127.01,188.24,510.29,Single-ply,SBD,M
