Name,Sex,Event,Equipment,Division,WeightClassKg,BodyweightKg,Bench1Kg,Bench2Kg,Bench3Kg,Bench4Kg,Best3BenchKg,Deadlift1Kg,Deadlift2Kg,Deadlift3Kg,Deadlift4Kg,Best3DeadliftKg,TotalKg,Place
Aki Tuulaniemi,M,B,Multi-ply,Juniors,125,118.1,220,240,-262.5,,240,,,,,,240,1
Juha Märsylä,M,B,Multi-ply,Open,117.5,114.7,300,-312.5,-312.5,,300,,,,,,300,1
Jouni Paija,M,B,Multi-ply,Open,100,98.9,-200,200,-210,,200,,,,,,200,2
Veli-Matti Salmi,M,B,Multi-ply,Open,100,96.9,-220,220,-235,,220,,,,,,220,1
Heikki Tyrväinen,M,B,Multi-ply,Open,110,103,240,-255,-255,,240,,,,,,240,2
Jakke Rajala,M,B,Multi-ply,Masters,125,123.5,255.5,265,275,,275,,,,,,275,1
Rami Eerikäinen,M,B,Multi-ply,Masters,90,90,220,-232.5,-232.5,,220,,,,,,220,1
Kim Päivöke,M,B,Multi-ply,Masters,100,93.6,230,240,245,,245,,,,,,245,1
Jarkko Forss,M,B,Multi-ply,Teen,82.5,82.5,195,,,,195,,,,,,195,2
Lasse Peltoniemi,M,B,Raw,Teen,,,,,,,,,,,,,,DQ
Matias Laukkanen,M,B,Raw,Juniors,67.5,64.6,95,102.5,107.5,110,107.5,,,,,,107.5,1
Sami Harju,M,B,Raw,Juniors,110,103,-160,-160,-160,,,,,,,,,DQ
Heikki Soini,M,B,Raw,Juniors,110,106.6,170,180.5,-185,,180.5,,,,,,180.5,1
Andreas Ståhlberg,M,B,Raw,Juniors,140+,144.5,200,220,-230,,220,,,,,,220,1
Atte Poikonen,M,B,Raw,Open,100,98.9,220,226,227.5,,227.5,,,,,,227.5,1
Pauli Jussila,M,B,Raw,Open,117.5,117.5,200,210,-215,,210,,,,,,210,1
Topi Frifeldt,M,B,Raw,Open,110,106.2,200,-212.5,,,200,,,,,,200,1
Janne Lehto,M,B,Raw,Open,110,108.4,175,-182.5,-182.5,,175,,,,,,175,3
Christian Ahonen,M,B,Raw,Open,110,106.2,197.5,-210,,,197.5,,,,,,197.5,2
Mikko Korpeinen,M,B,Raw,Open,100,100,160,-170,-170,,160,,,,,,160,2
Matias Neuvonen,M,B,Raw,Open,117.5,112.9,175,-187.5,,,175,,,,,,175,2
Henri Raekallio,M,B,Raw,Open,100,98.7,135,145,150,,150,,,,,,150,3
Jan Lindqvist,M,B,Raw,Masters,82.5,82.2,150,160,165,,165,,,,,,165,1
Billy Haavisto,M,B,Raw,Masters,125,123.3,190,200,-205,,200,,,,,,200,1
Jean Routalammi,M,B,Raw,Masters,90,87.4,115,125,-132.5,,125,,,,,,125,1
Paavo Eskelinen,M,B,Raw,Masters,110,104.4,130,140,145,,145,,,,,,145,1
Allan Grönfors,M,B,Raw,Masters,117.5,115.4,185,192.5,-195,,192.5,,,,,,192.5,1
Kim Päivöke,M,B,Raw,Masters,100,93.6,145,162.5,172.5,,172.5,,,,,,172.5,1
Juha Pukkila,M,B,Raw,Masters,100,100,150,157.5,,,157.5,,,,,,157.5,2
Jarkko Forss,M,B,Multi-ply,Teen,82.5,82.5,-195,202.5,-212.5,212.5,202.5,,,,,,202.5,1
Kalle Räsänen,M,B,Multi-ply,Juniors,90,90,310,,,,310,,,,,,310,1
Samuli Ketola,M,B,Multi-ply,Juniors,117.5,114.5,-325,325,-340,,325,,,,,,325,1
Juha Someroja,M,B,Multi-ply,Open,110,108.5,300,-320,-327.5,,300,,,,,,300,1
Emma Ylitalo-James,F,B,Single-ply,Open,82.5,79.9,170,-180,-190,,170,,,,,,170,1
Kim Päivöke,M,B,Multi-ply,Masters,100,93.6,230,,,,230,,,,,,230,2
Toni Haaparanta,M,B,Multi-ply,Masters,75,74.8,-190,-190,-190,,,,,,,,,DQ
Jarkko Forss,M,D,Multi-ply,Teen,82.5,82.5,,,,,,190,210,215,,215,215,1
Aki Tuulaniemi,M,D,Multi-ply,Juniors,125,118.1,,,,,,230,,,,230,230,1
Miikka Joensuu,M,D,Multi-ply,Juniors,100,99.8,,,,,,-300,310,,,310,310,1
Petri Hietamäki,M,D,Multi-ply,Open,100,97.5,,,,,,-300,300,-315,,300,300,1
Jussi Tuomela,M,D,Multi-ply,Open,110,104.8,,,,,,280,-300,-300,,280,280,3
Marcus Saarikalle,M,D,Multi-ply,Open,110,101.7,,,,,,300,-310,-310,,300,300,2
Jari Kekolahti,M,D,Multi-ply,Open,110,104.9,,,,,,270,290,305,,305,305,1
Jakke Rajala,M,D,Multi-ply,Masters,125,123.5,,,,,,260,-280,,,260,260,2
Timo Maunuksela,M,D,Multi-ply,Masters,125,118.2,,,,,,-290,310,-320,,310,310,1
Toni Haaparanta,M,D,Multi-ply,Masters,75,74.8,,,,,,205,225,-240,,225,225,1
Pasi Koukkula,M,D,Multi-ply,Masters,90,89.1,,,,,,-285,285,300.5,305,300.5,300.5,1
Kari Pöntinen,M,D,Multi-ply,Masters,110,106.9,,,,,,290,305,-317.5,,305,305,1
Andreas Ståhlberg,M,D,Raw,Juniors,140+,144.5,,,,,,300,335,340,345,340,340,1
Otto Salminen,M,D,Raw,Juniors,75,74.6,,,,,,252.5,-260,260,,260,260,1
Miikka Joensuu,M,D,Raw,Juniors,100,99.8,,,,,,250,270,290,302.5,290,290,1
Samuli Pietiläinen,M,D,Raw,Juniors,110,106.6,,,,,,260,280,-290,,280,280,1
Christian Ahonen,M,D,Raw,Open,110,106.2,,,,,,280,-302.5,,,280,280,1
Mikko Korpeinen,M,D,Raw,Open,100,100,,,,,,315,325,-330,,325,325,1
Matias Neuvonen,M,D,Raw,Open,117.5,112.9,,,,,,270,290,-300,,290,290,2
Henri Raekallio,M,D,Raw,Open,100,98.7,,,,,,230,250,-260,,250,250,2
Teemu Alaharju,M,D,Raw,Open,90,89.8,,,,,,270,285,-295,,285,285,1
Pauli Jussila,M,D,Raw,Open,117.5,117.5,,,,,,290,310,,,310,310,1
Miika Ruuskanen,M,D,Raw,Open,125,123,,,,,,250,,,,250,250,1
Henri Valakoski,M,D,Raw,Open,117.5,113.5,,,,,,250,270,-290,,270,270,3
Jan Lindqvist,M,D,Raw,Masters,82.5,82.2,,,,,,270,280,-290,,280,280,1
Billy Haavisto,M,D,Raw,Masters,125,123.3,,,,,,270,280,-290,,280,280,1
Jean Routalammi,M,D,Raw,Masters,90,87.4,,,,,,215,225,230,,230,230,1
Paavo Eskelinen,M,D,Raw,Masters,110,104.4,,,,,,250,-262.5,,,250,250,1
Arto Selkee,M,D,Raw,Masters,75,74.4,,,,,,-170,,,,,,DQ
Jorma Mäki- Mantila,M,D,Raw,Masters,82.5,81.9,,,,,,170,190,200,,200,200,2
Markus Koivuniemi,M,D,Raw,Masters,100,100,,,,,,270,300,-315,,300,300,1
Kalle Räsänen,M,D,Multi-ply,Juniors,90,90,,,,,,325,-350.5,,,325,325,1
Samuli Ketola,M,D,Multi-ply,Juniors,117.5,114.5,,,,,,300,-320,,,300,300,1
Marianne Kosonen,F,B,Multi-ply,Juniors,56,56,-100,-100,-100,,,,,,,,,DQ
Kati Pasanen,F,B,Multi-ply,Open,67.5,65.2,70,75,80,,80,,,,,,80,1
Pauliina Länsman,F,B,Raw,Juniors,82.5,77.1,50,-55,-55,,50,,,,,,50,1
Jonna Haapala,F,B,Raw,Juniors,67.5,65.8,70,75,-80,,75,,,,,,75,1
Neea Räisänen,F,B,Raw,Juniors,60,58.2,70,75,80,,80,,,,,,80,1
Harriet Lönnqvist,F,B,Raw,Open,67.5,67.1,75,80,-85,,80,,,,,,80,1
Jenni Peltomaa,F,B,Raw,Open,75,74.8,85,-92.5,92.5,,92.5,,,,,,92.5,1
Minna Pajulahti,F,B,Raw,Open,90,87,102.5,107.5,115.5,120,115.5,,,,,,115.5,1
Marianne Kosonen,F,D,Multi-ply,Juniors,56,56,,,,,,155,-165,-165,,155,155,1
Kati Pasanen,F,D,Multi-ply,Open,67.5,65.2,,,,,,120,130,140,,140,140,1
Pauliina Länsman,F,D,Raw,Juniors,82.5,77.1,,,,,,105,115,125,130,125,125,1
Jonna Haapala,F,D,Raw,Juniors,67.5,65.8,,,,,,150,160,,,160,160,1
Neea Räisänen,F,D,Raw,Juniors,60,58.2,,,,,,105,130,-140,,130,130,1
Emma Phil,F,D,Raw,Juniors,67.5,66.6,,,,,,-125,140,147.5,150,147.5,147.5,2
Harriet Lönnqvist,F,D,Raw,Open,67.5,67.1,,,,,,155,160,-165,,160,160,1
Jenni Peltomaa,F,D,Raw,Open,75,74.8,,,,,,190.5,202.5,-207.5,,202.5,202.5,1
Maaret Kirjonen,F,D,Raw,Open,75,71.1,,,,,,140,160,,,160,160,2
Saija Kantola,F,D,Raw,Open,90+,102.6,,,,,,130,137.5,145,,145,145,1
Tiia Hakala,F,D,Raw,Open,75,72.8,,,,,,100,110,115,,115,115,3
Emma Ylitalo-James,F,D,Raw,Open,82.5,79.9,,,,,,160,172.5,-182.5,,172.5,172.5,1
Virpi Knuutila,F,D,Raw,Masters,82.5,82.5,,,,,,170,185,200,210,200,200,1
Maiju Hilander,F,D,Raw,Masters,,,,,,,,,,,,,,DQ
