Place,Sex,Name,CyrillicName,BodyweightKg,Bench1Kg,Bench2Kg,Bench3Kg,Best3BenchKg,Bench4Kg,TotalKg,WeightClassKg,Event,Equipment,Tested,Deadlift1Kg,Deadlift2Kg,Deadlift3Kg,Best3DeadliftKg,Deadlift4Kg,Division,Age,BirthDate
1,F,Galina Elchina,Галина Ельчина,47.9,40,45,47.5,47.5,,47.5,,B,Raw,No,,,,,,Pro Masters 50-59,,1968-06-08
1,F,Valeriya Sufiyanova,Валерия Суфиянова,51.4,45,47.5,50,50,,50,52,B,Raw,No,,,,,,Pro Girls,19,1999-02-01
1,F,Elena Kindirova,Елена Киндирова,51.8,40,-42.5,-42.5,40,,40,52,B,Raw,No,,,,,,Pro Open,33,1985-05-12
1,F,Anna Vishnyak,Анна Вишняк,55.3,90,95,-100,95,,95,56,B,Raw,No,,,,,,Pro Open,33,1984-12-12
1,F,Elena Belova,Елена Белова,55.5,40,45,50,50,,50,56,B,Raw,No,,,,,,Pro Masters 50-59,52,1966-03-12
1,F,Tamara Zazhigaeva,Тамара Зажигаева,54.2,42.5,-45,-45,42.5,,42.5,56,B,Raw,No,,,,,,Pro Girls,19,1999-03-02
1,F,Yuliya Storozhenko,Юлия Стороженко,60,55,57.5,60,60,,60,60,B,Raw,No,,,,,,Pro Open,26,1992-06-14
1,F,Elena Ikryannikova,Елена Икрянникова,64.2,70,75,77.5,77.5,,77.5,67.5,B,Raw,No,,,,,,Pro Open,30,1988-10-26
1,F,Olga Leyman,Ольга Лейман,74.4,70,75,77.5,77.5,,77.5,75,B,Raw,No,,,,,,Pro Open,31,1987-06-09
1,F,Yuliya Lidli,Юлия Лидли,83.1,40,42.5,-45,42.5,,42.5,90,B,Raw,No,,,,,,Pro Open,27,1991-08-30
1,M,Egor Zenkov,Егор Зенков,55.5,-55,55,70,70,,70,56,B,Raw,No,,,,,,Pro Teen 17-19,19,1999-02-19
1,M,Igor Potapov,Игорь Потапов,56.7,80,-87.5,-87.5,80,,80,60,B,Raw,No,,,,,,Pro Teen 17-19,19,1999-11-01
1,M,Ilya Gelgenberg,Илья Гельгенберг,65.3,50,-52.5,-52.5,50,,50,67.5,B,Raw,No,,,,,,Pro Juniors,20,1998-05-06
1,M,Andrey Kolbin,Андрей Колбин,67.5,105,115,-117.5,115,,115,67.5,B,Raw,No,,,,,,Pro Open,34,1984-07-22
1,M,Dmitriy Shevelev,Дмитрий Шевелев,74.1,125,-135,135,135,,135,75,B,Raw,No,,,,,,Pro Juniors,22,1996-10-05
2,M,Yaroslav Gusev,Ярослав Гусев,74.1,120,125,-130,125,,125,75,B,Raw,No,,,,,,Pro Juniors,23,1995-11-25
1,M,Dmitriy Komarov,Дмитрий Комаров,82.4,150,160,170,170,,170,82.5,B,Raw,No,,,,,,Pro Juniors,22,1996-11-08
1,M,Dmitriy Komarov,Дмитрий Комаров,82.4,150,160,170,170,,170,82.5,B,Raw,No,,,,,,Pro Open,22,1996-11-08
2,M,Vadim Babushkin,Вадим Бабушкин,82,135,140,145,145,,145,82.5,B,Raw,No,,,,,,Pro Open,30,1988-05-01
3,M,Anatoliy Nuraev,Анатолий Нураев,82.5,135,137.5,-140,137.5,,137.5,82.5,B,Raw,No,,,,,,Pro Open,24,1994-06-22
4,M,Ilya Tikhonov,Илья Тихонов,81.3,125,130,132.5,132.5,,132.5,82.5,B,Raw,No,,,,,,Pro Open,35,1983-05-14
5,M,Aleksandr Martynov,Александр Мартынов,80.1,120,-127.5,127.5,127.5,,127.5,82.5,B,Raw,No,,,,,,Pro Open,33,1985-03-07
1,M,Eduard Vorobev,Эдуард Воробьев,86.7,100,110,-122.5,110,,110,90,B,Raw,No,,,,,,Pro Teen 17-19,17,2001-04-20
1,M,Vladislav Davydov,Владислав Давыдов,87.8,125,-132.5,132.5,132.5,,132.5,90,B,Raw,No,,,,,,Pro Juniors,20,1998-06-11
1,M,Maksim Sagaydak,Максим Сагайдак,88.3,170,177.5,180,180,,180,90,B,Raw,No,,,,,,Pro Open,30,1988-07-29
2,M,Evgeniy Ikryannikov,Евгений Икрянников,83.9,145,150,-152.5,150,,150,90,B,Raw,No,,,,,,Pro Open,28,1990-03-24
3,M,Aleksey Anisyaev,Алексей Анисяев,83.3,-95,-97.5,97.5,97.5,,97.5,90,B,Raw,No,,,,,,Pro Open,36,1982-06-11
1,M,Viktor Brodskiy,Виктор Бродский,88.7,-120,120,-135,120,,120,90,B,Raw,No,,,,,,Pro Masters 40-49,44,1974-02-21
1,M,Dmitriy Sinelnikov,Дмитрий Синельников,95.3,110,115,-122.5,115,,115,100,B,Raw,No,,,,,,Pro Teen 17-19,19,1999-08-05
1,M,Valeriy Lebedev,Валерий Лебедев,96.5,142.5,155,160,160,,160,100,B,Raw,No,,,,,,Pro Open,25,1992-12-24
2,M,Andrey Fradkin,Андрей Фрадкин,99.7,150,160,-165,160,,160,100,B,Raw,No,,,,,,Pro Open,36,1982-02-02
1,M,Stepan Petrakov,Степан Петраков,104.7,135,147.5,160,160,,160,110,B,Raw,No,,,,,,Pro Teen 17-19,19,1999-11-24
1,M,Roman Avdeev,Роман Авдеев,102.9,105,110,115,115,,115,110,B,Raw,No,,,,,,Pro Juniors,20,1998-05-18
1,M,Oleg Zherdev,Олег Жердев,113.3,170,180,-190,180,,180,125,B,Raw,No,,,,,,Pro Masters 40-49,48,1970-05-12
1,F,Galina Elchina,Галина Ельчина,47.9,70,75,85,85,,85,48,B,Multi-ply,No,,,,,,Pro Open,50,1968-06-08
1,F,Valeriya Sufiyanova,Валерия Суфиянова,51.4,55,60,65,65,,65,52,B,Multi-ply,No,,,,,,Pro Girls,19,1999-02-01
1,F,Oksana Levenets,Оксана Левенец,51.2,65,75,-80,75,,75,52,B,Multi-ply,No,,,,,,Pro Open,43,1975-10-16
1,F,Anna Vishnyak,Анна Вишняк,55.3,120,-135,140.5,140.5,,140.5,56,B,Multi-ply,No,,,,,,Pro Open,33,1984-12-12
1,M,Aleksey Poltoranin,Алексей Полторанин,66.7,105,112.5,125,125,,125,67.5,B,Multi-ply,No,,,,,,Pro Teen 17-19,17,2000-12-17
1,M,Andrey Kolbin,Андрей Колбин,67.5,160,170,175,175,,175,67.5,B,Multi-ply,No,,,,,,Pro Open,34,1984-07-22
1,M,Vyacheslav Dementev,Вячеслав Дементьев,74.9,-140,-140,140,140,,140,75,B,Multi-ply,No,,,,,,Pro Open,35,1983-02-17
1,M,Sergey Fedoseev,Сергей Федосеев,81.3,190,202.5,-220,202.5,,202.5,82.5,B,Multi-ply,No,,,,,,Pro Open,36,1982-01-18
1,M,Dmitriy Savchenko,Дмитрий Савченко,88.9,200,220,230,230,235,230,90,B,Multi-ply,No,,,,,,Pro Open,37,1981-08-03
1,M,Aleksey Churkin,Алексей Чуркин,98.2,220,-230,230,230,-250,230,100,B,Multi-ply,No,,,,,,Pro Open,31,1987-07-06
2,M,Nikita Korablev,Никита Кораблев,93.5,200,210,220,220,230,220,100,B,Multi-ply,No,,,,,,Pro Open,35,1983-07-24
1,F,Larisa Nizhnikova,Лариса Нижникова,55.9,,,,,,80,56,D,Raw,No,70,80,-90,80,,Pro Open,35,1983-05-31
1,F,Tatyana Fradkina,Татьяна Фрадкина,59.7,,,,,,125,60,D,Raw,No,110,120,125,125,,Pro Open,36,1982-10-15
2,F,Yuliya Storozhenko,Юлия Стороженко,60,,,,,,115,60,D,Raw,No,100,,115,115,,Pro Open,26,1992-06-14
3,F,Tatyana Vetoshkina,Татьяна Ветошкина,58.5,,,,,,95,60,D,Raw,No,90,95,-100,95,,Pro Open,27,1991-11-09
1,F,Elena Gryaznova,Елена Грязнова,78,,,,,,120,82.5,D,Raw,No,110,120,-130,120,,Pro Masters 40-49,47,1971-01-13
1,M,Egor Zenkov,Егор Зенков,55.5,,,,,,130,56,D,Raw,No,110,120,130,130,,Pro Teen 17-19,19,1999-02-19
1,M,Igor Potapov,Игорь Потапов,56.7,,,,,,160,60,D,Raw,No,145,152.5,160,160,,Pro Teen 17-19,19,1999-11-01
1,M,Aleksey Poltoranin,Алексей Полторанин,66.7,,,,,,155,67.5,D,Raw,No,-155,155,-170,155,,Pro Teen 17-19,17,2000-12-17
1,M,Ilya Gelgenberg,Илья Гельгенберг,65.3,,,,,,120,67.5,D,Raw,No,110,120,-125,120,,Pro Juniors,20,1998-05-06
1,M,Vladislav Bliznyuk,Владислав Близнюк,81.5,,,,,,220,82.5,D,Raw,No,200,220,-235,220,,Pro Juniors,20,1998-03-03
2,M,Roman Rogozhkin,Роман Рогожкин,82.4,,,,,,220,82.5,D,Raw,No,200,220,-235,220,,Pro Juniors,21,1997-01-09
1,M,Eduard Vorobev,Эдуард Воробьев,86.7,,,,,,200,90,D,Raw,No,190,200,-207.5,200,,Pro Teen 17-19,17,2001-04-20
1,M,Sergey Polosin,Сергей Полосин,86,,,,,,250,90,D,Raw,No,240,-250,250,250,,Pro Open,35,1983-09-27
2,M,Andrey Vereshchagin,Андрей Верещагин,88.7,,,,,,222.5,90,D,Raw,No,205,215,222.5,222.5,,Pro Open,33,1985-07-08
1,M,Dmitriy Sinelnikov,Дмитрий Синельников,95.3,,,,,,225,100,D,Raw,No,200,210,225,225,,Pro Teen 17-19,19,1999-08-05
1,M,Valeriy Lebedev,Валерий Лебедев,96.5,,,,,,250,100,D,Raw,No,230,240,250,250,,Pro Open,25,1992-12-24
1,M,Stepan Petrakov,Степан Петраков,104.7,,,,,,227.5,110,D,Raw,No,215,227.5,-242.5,227.5,,Pro Teen 17-19,19,1999-11-24
1,M,Roman Avdeev,Роман Авдеев,102.9,,,,,,220,110,D,Raw,No,-205,205,220,220,,Pro Juniors,20,1998-05-18
1,M,Andrey Khomenko,Андрей Хоменко,119,,,,,,270,125,D,Raw,No,240,270,-290,270,,Pro Juniors,22,1996-09-14
1,M,Aleksandr Shestunov,Александр Шестунов,117.4,,,,,,300,125,D,Raw,No,280,300,,300,,Pro Open,37,1981-04-03
1,M,Vyacheslav Dementev,Вячеслав Дементьев,74.9,,,,,,180,75,D,Raw,No,160,180,-190,180,,Pro Open,35,1983-02-17
