Name,Age,Equipment,Sex,Division,BodyweightKg,WeightClassKg,Squat1Kg,Squat2Kg,Squat3Kg,Squat4Kg,Best3SquatKg,Bench1Kg,Bench2Kg,Bench3Kg,Bench4Kg,Best3BenchKg,Deadlift1Kg,Deadlift2Kg,Deadlift3Kg,Deadlift4Kg,Best3DeadliftKg,TotalKg,Place,Event
Minna Kousa,39,Multi-ply,F,F_OM_APF,73.4,75,190,205,-215,,205,107.5,115,-120,,115,150,165,170,,170,490,1,SBD
Vesa Nissilä,54,Multi-ply,M,M_M3_APF,110.9,125,-250,250,270,,270,165,175,185,,185,205,-225,225,,225,680,1,SBD
Pasi Koukkula,45,Multi-ply,M,M_M2_APF,87.8,90,200,,,,200,135,145,,,145,265,290.5,-300,,290.5,635.5,1,SBD
Antti Hämäläinen,43,Multi-ply,M,M_M1_APF,90,90,290,-310,-310,,290,185,-200,-200,,185,270,290,-305,,290,765,1,SBD
Jonne Fräntilä,29,Multi-ply,M,M_OM_APF,67.3,67.5,230,245,255,,255,170,180,-190,,180,200,215,230,,230,665,1,SBD
Janne Nissilä,25,Multi-ply,M,M_OM_APF,90,90,225,-255,267.5,,267.5,185,-200,-200,,185,220,-247.5,-247.5,,220,672.5,1,SBD
Oskari Lehtinen,27,Multi-ply,M,M_OM_APF,99.5,100,415,435,-450,,435,-300,300,,,300,310,330,-335,,330,1065,1,SBD
Jani Lantiainen,30,Multi-ply,M,M_OM_APF,93.2,100,375,400,-420,,400,-260,260,-270,,260,310,340,-350,,340,1000,2,SBD
Pauli Rahkonen,30,Multi-ply,M,M_OM_APF,124.1,125,400,420,440,,440,330,345,,,345,-315,315,335,,335,1120,1,SBD
Outi Myllykoski,26,Raw,F,F_OR_APF,59.9,60,95,-102.5,107.5,,107.5,72.5,80,-82.5,,80,110,115,122.5,,122.5,310,1,SBD
Raimo Sjögren,72,Raw,M,M_MR_7_APF,101.6,110,120,130,140,,140,70,75,-80,,75,140,155,170,,170,385,1,SBD
Billy Haavisto,51,Raw,M,M_MR_3_APF,113,125,210,230,-240,,230,180,192.5,,,192.5,270,275,,,275,697.5,1,SBD
Ilpo Liikala,41,Raw,M,M_MR_1_APF,95.9,100,200,222.5,-230,,222.5,150,162.5,165,,165,280,295,302.5,,302.5,690,1,SBD
Eemeli Salomäki,29,Raw,M,M_OR_APF,73.2,75,110,125,-140,,125,110,-125,-125,,110,120,,,,120,355,1,SBD
Juha Inkinen,35,Raw,M,M_OR_APF,81.1,82.5,155,-160,-160,,155,90,100,-105,,100,160,170,180,,180,435,1,SBD
Jani Soininen,32,Raw,M,M_OR_APF,95.1,100,220,235,-242.5,,235,145,-150,,,145,260,280,-292.5,,280,660,1,SBD
Petteri Ahola,31,Raw,M,M_OR_APF,107.8,110,230,250,265,,265,180,200,210,,210,280,300,310,,310,785,1,SBD
Juuso Paunonen,31,Raw,M,M_OR_APF,108.7,110,192.5,212.5,-232.5,,212.5,157.5,167.5,-177.5,,167.5,222.5,242.5,262.5,,262.5,642.5,2,SBD
Vesa Vesterinen,31,Raw,M,M_OR_APF,117.3,125,200,220,,,220,200,210,,,210,250,270,,,270,700,1,SBD
Leena Stålstedt,48,Wraps,F,F_MCR_2_APF,79.9,82.5,110,125,-135,,125,80,85,-90,,85,120,140,150,,150,360,1,SBD
Jonna Korte,22,Wraps,F,F_JCR_APF,66.9,67.5,125,130,135,-140,135,75,-80,80,,80,130,140,145,,145,360,1,SBD
Miia Keränen,22,Wraps,F,F_JCR_APF,88.9,90,165,175,185,,185,82.5,90,-92.5,,90,165,-175,175,,175,450,1,SBD
Vanessa Torres,30,Wraps,F,F_OCR_APF,55.7,56,120,-135,140,,140,90,95,-97.5,,95,145,155,167.5,-170,167.5,402.5,1,SBD
Minna Ilmolahti,33,Wraps,F,F_OCR_APF,60.7,67.5,85,90,-95,,90,52.5,-57.5,-57.5,,52.5,120,-127.5,-127.5,,120,262.5,1,SBD
Anna Khudayarov,29,Wraps,F,F_OCR_APF,80.4,82.5,212.5,232.5,242.5,-251,242.5,120,132.5,140,-145,140,220,232.5,-240,,232.5,615,1,SBD
Leena Stålstedt,48,Wraps,F,F_OCR_APF,79.9,82.5,110,125,-135,,125,80,85,-90,,85,120,140,150,,150,360,2,SBD
Vilho Määttä,64,Wraps,M,M_MCR_5_APF,93.9,100,160,170,180,,180,115,120,125,,125,190,200,210,,210,515,1,SBD
Ari Salmi,45,Wraps,M,M_MCR_2_APF,85.9,90,150,160,-170,,160,100,110,-120,,110,150,160,170,,170,440,1,SBD
Raimo Hiisiö,48,Wraps,M,M_MCR_2_APF,120.1,125,-220,230,240,,240,160,-170,170,,170,220,230,245,,245,655,1,SBD
Petri Salonen,41,Wraps,M,M_MCR_1_APF,109.8,110,210,225,,,225,180,-190,,,180,250,265,,,265,670,1,SBD
Väinö Kivistö,19,Wraps,M,M_TCR_3_APF,77.4,82.5,190,-205,205,,205,130,,,,130,200,,,,200,535,1,SBD
Jukka Matikainen,22,Wraps,M,M_JCR_APF,90,90,150,-160,165,,165,100,105,110,,110,160,180,200,,200,475,1,SBD
Topi Innanen,21,Wraps,M,M_JCR_APF,88,90,240,255,-262.5,,255,160,165,-170,,165,-255,-265,-265,,,,DQ,SBD
Pentti Liukkonen,21,Wraps,M,M_JCR_APF,100,100,-240,-260,262.5,,262.5,150,-160,-160,,150,245,-260,260,,260,672.5,1,SBD
Simo Mäkelä,29,Wraps,M,M_OCR_APF,72.5,75,150,180,-200,,180,90,-100,,,90,200,215,,,215,485,1,SBD
Henri Vauto,30,Wraps,M,M_OCR_APF,80.7,82.5,205,220,232.5,,232.5,130,140,-145,,140,205,230,250,,250,622.5,1,SBD
Santeri Asikainen,25,Wraps,M,M_OCR_APF,82.2,82.5,180,192.5,200,,200,155,165,-170,,165,190,210,225,,225,590,2,SBD
Teemu Laaksonen,30,Wraps,M,M_OCR_APF,89.5,90,280,300,,,300,150,160,-170,,160,280,300,-315,,300,760,1,SBD
Samppa Nyman,34,Wraps,M,M_OCR_APF,89,90,235,255,265,,265,150,155,162.5,,162.5,240,260,272.5,,272.5,700,2,SBD
Pentti Liukkonen,21,Wraps,M,M_OCR_APF,100,100,-240,-260,262.5,,262.5,150,-160,-160,,150,245,-260,260,,260,672.5,1,SBD
Mika Kallio,30,Wraps,M,M_OCR_APF,91.9,100,220,230,-240,,230,160,165,-170,,165,220,240,260,,260,655,2,SBD
Vesa Taavitsainen,32,Wraps,M,M_OCR_APF,94.2,100,180,200,210,,210,150,160,-165,,160,-260,275,-285,,275,645,3,SBD
Jouko Laine,32,Wraps,M,M_OCR_APF,95.4,100,170,180,185,,185,115,120,125,,125,190,200,210,,210,520,4,SBD
Eduard Khanjyan,31,Wraps,M,M_OCR_APF,108.4,110,380,400,-410,,400,210,-217.5,,,210,320,-340,-342.5,,320,930,1,SBD
Ville Suominen,34,Wraps,M,M_OCR_APF,107.9,110,310,330,-335,,330,175,180,185,,185,305,315,320,,320,835,2,SBD
Samuli Ketola,24,Wraps,M,M_OCR_APF,119.8,125,-300,,,,,,,,,,,,,,,,DQ,SBD
Tapio Laine,64,Multi-ply,M,M_MM_5_APF,123.3,125,,,,,,-240,-240,240,,240,,,,,,240,1,B
Reijo Marin,57,Multi-ply,M,M_MM_4_APF,109.6,110,,,,,,-200,200,,,200,,,,,,200,1,B
Jarno Rajala,43,Multi-ply,M,M_MM_1_APF,140.2,140+,,,,,,275,285,,,285,,,,,,285,1,B
Arttu Wahlström,30,Multi-ply,M,M_OM_APF,81.2,82.5,,,,,,200,-210,-218,,200,,,,,,200,1,B
Mikko Matikainen,27,Multi-ply,M,M_OM_APF,100,100,,,,,,210,217.5,-225,,217.5,,,,,,217.5,1,B
Janne Nissilä,25,Multi-ply,M,M_OM_APF,92.9,100,,,,,,-190,190,-202.5,,190,,,,,,190,2,B
Petteri Hosio Henrik,37,Multi-ply,M,M_OM_APF,108.9,110,,,,,,-342.5,-342.5,-342.5,,,,,,,,,DQ,B
Maiju Hilander,59,Raw,F,F_MR_4_APF,73.6,75,,,,,,60,70,75,,75,,,,,,75,1,B
Johanna Bies,45,Raw,F,F_MR_2_APF,59,60,,,,,,-100.5,-100.5,-100.5,,,,,,,,,DQ,B
Mira Mustonen,46,Raw,F,F_MR_2_APF,74.4,75,,,,,,85,95,100,,100,,,,,,100,1,B
Leena Stålstedt,48,Raw,F,F_MR_2_APF,78.8,82.5,,,,,,80,90,-95,,90,,,,,,90,1,B
Virpi Knuutila,49,Raw,F,F_MR_2_APF,87.2,90,,,,,,112.5,120,125,127.5,125,,,,,,125,1,B
Satu Lampikari-Olli,44,Raw,F,F_MR_1_APF,74.2,75,,,,,,82.5,-85,-85,,82.5,,,,,,82.5,1,B
Elina Kulmala,41,Raw,F,F_MR_1_APF,88.4,90,,,,,,100,115,-125,,115,,,,,,115,1,B
Hanna Turtiainen,31,Raw,F,F_OR_APF,58,60,,,,,,95,100,-102.5,,100,,,,,,100,1,B
Vanessa Torres,30,Raw,F,F_OR_APF,59.2,60,,,,,,95,-97.5,-97.5,,95,,,,,,95,2,B
Carolina Aftab,33,Raw,F,F_OR_APF,58.7,60,,,,,,50,55,-60,,55,,,,,,55,3,B
Johanna Bies,45,Raw,F,F_OR_APF,59,60,,,,,,-100.5,-100.5,-100.5,,,,,,,,,DQ,B
Krista Pellikka,29,Raw,F,F_OR_APF,67.2,67.5,,,,,,-90,90,-100,,90,,,,,,90,1,B
Leena Stålstedt,48,Raw,F,F_OR_APF,78.8,82.5,,,,,,80,90,-95,,90,,,,,,90,1,B
Virpi Knuutila,49,Raw,F,F_OR_APF,87.2,90,,,,,,112.5,120,125,127.5,125,,,,,,125,1,B
Elina Kulmala,41,Raw,F,F_OR_APF,88.4,90,,,,,,100,115,-125,,115,,,,,,115,2,B
Aimo Mursu,74,Raw,M,M_MR_7_APF,81.7,82.5,,,,,,70,80,,,80,,,,,,80,1,B
Raimo Aulis Sipiläinen,67,Raw,M,M_MR_6_APF,110.9,125,,,,,,155,160,-162.5,,160,,,,,,160,1,B
Jere Marttila,55,Raw,M,M_MR_4_APF,96.7,100,,,,,,120,130,137.5,,137.5,,,,,,137.5,1,B
Reijo Marin,57,Raw,M,M_MR_4_APF,109.6,110,,,,,,160,170,-175,,170,,,,,,170,1,B
Vladlen Astaptsev,52,Raw,M,M_MR_3_APF,75,75,,,,,,80,,,,80,,,,,,80,1,B
Marcus Young,52,Raw,M,M_MR_3_APF,86.3,90,,,,,,125,130,135,,135,,,,,,135,1,B
Petri Mäkinen,53,Raw,M,M_MR_3_APF,89.3,90,,,,,,120,-127.5,-127.5,,120,,,,,,120,2,B
Billy Haavisto,51,Raw,M,M_MR_3_APF,113.6,125,,,,,,180,-190,190,,190,,,,,,190,1,B
Marko Brusila,47,Raw,M,M_MR_2_APF,88.5,90,,,,,,175,-180,180,,180,,,,,,180,1,B
Mikko Mäntymäki,45,Raw,M,M_MR_2_APF,98.9,100,,,,,,145,150,-155,,150,,,,,,150,1,B
Kimmo Nevala,45,Raw,M,M_MR_2_APF,96.5,100,,,,,,-160,-160,-160,,,,,,,,,DQ,B
Sami Salonen,47,Raw,M,M_MR_2_APF,138.2,140,,,,,,170,180,-190,,180,,,,,,180,1,B
Klaus Renfors,44,Raw,M,M_MR_1_APF,98.1,100,,,,,,157.5,162.5,165.5,167.5,165.5,,,,,,165.5,1,B
Jorma Mäkeläinen,40,Raw,M,M_MR_1_APF,96.5,100,,,,,,150,155,-160,,155,,,,,,155,2,B
Timo Seppänen,41,Raw,M,M_MR_1_APF,115.2,125,,,,,,200,-215,215,-220,215,,,,,,215,1,B
Pasi Mehtälä,43,Raw,M,M_MR_1_APF,134.1,140,,,,,,192.5,205,212.5,215,212.5,,,,,,212.5,1,B
Maks Lairionov,21,Raw,M,M_JR_APF,78.2,82.5,,,,,,105,112.5,117.5,,117.5,,,,,,117.5,1,B
Miiko Kyöttinen,20,Raw,M,M_JR_APF,93,100,,,,,,160,172.5,-180,,172.5,,,,,,172.5,1,B
Jani Virtanen,21,Raw,M,M_JR_APF,96.2,100,,,,,,-165,165,172.5,,172.5,,,,,,172.5,2,B
Kalle Ryhtä,39,Raw,M,M_OR_APF,49.2,52,,,,,,60,-65,65,,65,,,,,,65,1,B
Eemeli Salomäki,29,Raw,M,M_OR_APF,73.1,75,,,,,,110,117.5,-122.5,,117.5,,,,,,117.5,1,B
Jouni Rautio,26,Raw,M,M_OR_APF,76.2,82.5,,,,,,-145,150,-160,,150,,,,,,150,1,B
Ville Sieppi,29,Raw,M,M_OR_APF,89.7,90,,,,,,195,207.5,212.5,,212.5,,,,,,212.5,1,B
Tuomas Mononen,26,Raw,M,M_OR_APF,89.9,90,,,,,,160,170,-175,,170,,,,,,170,2,B
Hannu Koskinen,35,Raw,M,M_OR_APF,98.1,100,,,,,,185,195,-205,,195,,,,,,195,1,B
Klaus Renfors,44,Raw,M,M_OR_APF,98.1,100,,,,,,157.5,162.5,165.5,167.5,165.5,,,,,,165.5,2,B
Mikko Mäntymäki,45,Raw,M,M_OR_APF,98.9,100,,,,,,145,150,-155,,150,,,,,,150,3,B
Jani Turtiainen,36,Raw,M,M_OR_APF,100.9,110,,,,,,200,210,215,,215,,,,,,215,1,B
Eduard Khanjyan,31,Raw,M,M_OR_APF,113.5,125,,,,,,205,215,-220,,215,,,,,,215,1,B
Timo Seppänen,41,Raw,M,M_OR_APF,115.2,125,,,,,,200,-215,215,-220,215,,,,,,215,2,B
Tero Vuorio,36,Raw,M,M_OR_APF,123.9,125,,,,,,150,165,-180,,165,,,,,,165,3,B
Jussi Kananen,32,Raw,M,M_OR_APF,150.6,140+,,,,,,180,190,-192.5,,190,,,,,,190,1,B
Seppo Laukkanen,54,Single-ply,M,M_MS_3_APF,105.3,110,,,,,,,,,,,280,290,-296,,290,290,1,D
Miikka Heikkinen,41,Single-ply,M,M_MS_1_APF,110.8,125,,,,,,,,,,,305.5,320,-325,,320,320,1,D
Maiju Hilander,59,Raw,F,F_MR_4_APF,73.6,75,,,,,,,,,,,150,160,170,,170,170,1,D
Leena Stålstedt,48,Raw,F,F_MR_2_APF,78.8,82.5,,,,,,,,,,,120,-155,,,120,120,1,D
Natalia Gadolin,23,Raw,F,F_JR_APF,93.5,90+,,,,,,,,,,,150,170,-175,,170,170,1,D
Carolina Aftab,33,Raw,F,F_OR_APF,58.7,60,,,,,,,,,,,115,125,-135,,125,125,1,D
Sanna Purhonen,31,Raw,F,F_OR_APF,65,67.5,,,,,,,,,,,160,170,-182.5,,170,170,1,D
Leena Stålstedt,48,Raw,F,F_OR_APF,78.8,82.5,,,,,,,,,,,120,-155,,,120,120,1,D
Kauko Viitala,78,Raw,M,M_M8_R_APF,80.9,82.5,,,,,,,,,,,140,150,-155,,150,150,1,D
Aimo Mursu,74,Raw,M,M_MR_7_APF,81.7,82.5,,,,,,,,,,,160,175,185,,185,185,1,D
Rane Ovaska,56,Raw,M,M_MR_4_APF,81,82.5,,,,,,,,,,,200,215,-222.5,,215,215,1,D
Jere Marttila,55,Raw,M,M_MR_4_APF,96.7,100,,,,,,,,,,,170,190,200,,200,200,1,D
Petri Mäkinen,53,Raw,M,M_MR_3_APF,89.3,90,,,,,,,,,,,150,160,165,,165,165,1,D
Billy Haavisto,51,Raw,M,M_MR_3_APF,113.6,125,,,,,,,,,,,265,-277.5,,,265,265,1,D
Antti Lamponen,50,Raw,M,M_MR_3_APF,120.3,125,,,,,,,,,,,230,250,260,,260,260,2,D
Mikko Mäntymäki,45,Raw,M,M_MR_2_APF,98.9,100,,,,,,,,,,,235,250,-262.5,,250,250,1,D
Ahti Korkea,47,Raw,M,M_MR_2_APF,100.6,110,,,,,,,,,,,200,240,265,273,265,265,1,D
Jyrki Virtanen,43,Raw,M,M_MR_1_APF,91,100,,,,,,,,,,,190,210,-225,,210,210,1,D
Pasi Mehtälä,43,Raw,M,M_MR_1_APF,134.1,140,,,,,,,,,,,240,250,262.5,270,262.5,262.5,1,D
Miiko Kyöttinen,20,Raw,M,M_JR_APF,93,100,,,,,,,,,,,-200,225,250,,250,250,1,D
Kalle Ryhtä,39,Raw,M,M_OR_APF,49.2,52,,,,,,,,,,,100,105,110,,110,110,1,D
Ilkka Mäkelä,33,Raw,M,M_OR_APF,89.7,90,,,,,,,,,,,245,260,-275,,260,260,1,D
Janne Rissanen,31,Raw,M,M_OR_APF,92.2,100,,,,,,,,,,,302.5,315,-322.5,,315,315,1,D
Mikko Mäntymäki,45,Raw,M,M_OR_APF,98.9,100,,,,,,,,,,,235,250,-262.5,,250,250,2,D
Eduard Khanjyan,31,Raw,M,M_OR_APF,113.5,125,,,,,,,,,,,325,-342.5,,,325,325,1,D
Tero Vuorio,36,Raw,M,M_OR_APF,123.9,125,,,,,,,,,,,200,230,240,,240,240,2,D
