Division,WeightClassKg,Place,Name,Team,BodyweightKg,Best3SquatKg,Best3BenchKg,Best3DeadliftKg,TotalKg,Equipment,Event,Sex
Boys,51.71,1,Johnny Adair,Sealy,49.62,147.42,81.65,174.63,403.7,Single-ply,SBD,M
Boys,51.71,2,Joey Adair,Sealy,48.72,115.67,72.57,156.49,344.73,Single-ply,SBD,M
Boys,51.71,3,Luis Rios,Geronimo Navarro,45.36,86.18,65.77,102.06,254.01,Single-ply,SBD,M
Boys,51.71,4,Jordan Elizando,San Marcos Baptist,50.53,56.7,47.63,65.77,170.1,Single-ply,SBD,M
Boys,55.79,1,Mario Leos,Seguin,55.61,131.54,97.52,181.44,410.5,Single-ply,SBD,M
Boys,55.79,2,Josh Fantauzzi,Buda Hays,55.52,138.35,77.11,142.88,358.34,Single-ply,SBD,M
Boys,55.79,3,Joshua Estrada,Gonzales,54.52,117.93,74.84,124.74,317.51,Single-ply,SBD,M
Boys,55.79,4,Oliver Oliveras,Lockhart,55.43,97.52,54.43,113.4,265.35,Single-ply,SBD,M
Boys,59.87,1,Daniel Zamora,Seguin,59.33,151.95,88.45,176.9,417.3,Single-ply,SBD,M
Boys,59.87,2,Pedro Carreon,Geronimo Navarro,59.42,149.69,102.06,163.29,415.04,Single-ply,SBD,M
Boys,59.87,3,Mitchell Classen,Buda Hays,59.87,142.88,92.99,165.56,401.43,Single-ply,SBD,M
Boys,59.87,4,Chris Jackson,Lockhart,59.51,151.95,83.91,163.29,399.16,Single-ply,SBD,M
Boys,59.87,5,Eli Arzola,Seguin,59.87,142.88,88.45,142.88,374.21,Single-ply,SBD,M
Boys,59.87,6,Gabe Casares,Gonzales,59.33,136.08,86.18,149.69,371.95,Single-ply,SBD,M
Boys,59.87,7,Adam Adair,Buda Hays,57.79,102.06,68.04,131.54,301.64,Single-ply,SBD,M
Boys,59.87,8,John Anzualda,Lockhart,58.79,83.91,54.43,113.4,251.74,Single-ply,SBD,M
Boys,59.87,DQ,Daniel Callahan,Johnson City,58.24,,,,,Single-ply,SBD,M
Boys,67.13,1,Andy Rivera,Universal City Randolph,65.68,138.35,92.99,170.1,401.43,Single-ply,SBD,M
Boys,67.13,2,Zach Konieczny,Sealy,65.05,129.27,102.06,151.95,383.29,Single-ply,SBD,M
Boys,67.13,3,Chris Marchi,Universal City Randolph,64.77,133.81,92.99,142.88,369.68,Single-ply,SBD,M
Boys,67.13,4,Chris Ruff,Geronimo Navarro,62.6,136.08,90.72,136.08,362.87,Single-ply,SBD,M
Boys,67.13,5,James Malone,Johnson City,63.59,102.06,95.25,122.47,319.78,Single-ply,SBD,M
Boys,74.84,6,Baily Bartch,Lockhart,67.31,106.59,83.91,120.2,310.71,Single-ply,SBD,M
Boys,67.13,7,Brandon Evans,Johnson City,66.95,106.59,79.38,120.2,306.17,Single-ply,SBD,M
Boys,67.13,8,Jose Mesa,Johnson City,64.77,115.67,74.84,113.4,303.91,Single-ply,SBD,M
Boys,67.13,DQ,Collin Lybarger,Karnes City,61.33,,,,,Single-ply,SBD,M
Boys,67.13,DQ,Juan Lopez,Lockhart,64.95,,,,,Single-ply,SBD,M
Boys,67.13,DQ,Mike Trejo,San Marcos Baptist,65.14,124.74,83.91,,,Single-ply,SBD,M
Boys,74.84,1,Daniel Riviera,Gonzales,72.94,190.51,88.45,188.24,467.2,Single-ply,SBD,M
Boys,74.84,2,Will Perrin,Universal City Randolph,72.21,167.83,77.11,197.31,442.25,Single-ply,SBD,M
Boys,74.84,3,Hayden Eskew,Buda Hays,73.75,151.95,120.2,170.1,442.25,Single-ply,SBD,M
Boys,74.84,4,Jacob Rodriguez,Geronimo Navarro,70.31,142.88,97.52,170.1,410.5,Single-ply,SBD,M
Boys,74.84,5,Jay Leal,Geronimo Navarro,68.49,149.69,88.45,170.1,408.23,Single-ply,SBD,M
Boys,74.84,6,Richard Smith,San Marcos Baptist,70.49,136.08,97.52,165.56,399.16,Single-ply,SBD,M
Boys,74.84,7,Mike Castillo,Geronimo Navarro,70.76,142.88,97.52,154.22,394.63,Single-ply,SBD,M
Boys,74.84,8,Eddie Gonzales,Gonzales,74.48,145.15,72.57,136.08,353.8,Single-ply,SBD,M
Boys,82.1,9,Marcus Johnson,Lockhart,75.02,108.86,70.31,136.08,315.25,Single-ply,SBD,M
Boys,74.84,DQ,Holton Dickerson,Buda Hays,73.48,102.06,,,,Single-ply,SBD,M
Boys,74.84,DQ,Colton Odell,Buda Hays,67.68,,,,,Single-ply,SBD,M
Boys,82.1,1,Hunter Noack,Gonzales,79.83,188.24,102.06,222.26,512.56,Single-ply,SBD,M
Boys,82.1,2,Javier Garcia,Seguin,80.47,174.63,106.59,201.85,483.08,Single-ply,SBD,M
Boys,82.1,3,Antonio Cantu,Poth,76.38,179.17,102.06,188.24,469.47,Single-ply,SBD,M
Boys,82.1,4,Shaq Henry,Universal City Randolph,81.65,176.9,102.06,185.97,464.93,Single-ply,SBD,M
Boys,82.1,5,VIncent Moraida,Buda Hays,82.1,192.78,104.33,158.76,455.86,Single-ply,SBD,M
Boys,82.1,6,Shane DeLeon,Seguin,82.01,140.61,111.13,176.9,428.64,Single-ply,SBD,M
Boys,82.1,7,Sean Hancock,Geronimo Navarro,77.11,142.88,127.01,151.95,421.84,Single-ply,SBD,M
Boys,82.1,8,Tanner Brown,Lockhart,81.56,154.22,97.52,158.76,410.5,Single-ply,SBD,M
Boys,82.1,9,Larry Jones,Gonzales,78.56,147.42,86.18,158.76,392.36,Single-ply,SBD,M
Boys,82.1,10,Christopher Ramirez,Lockhart,81.56,136.08,81.65,136.08,353.8,Single-ply,SBD,M
Boys,82.1,11,John Ferguson,San Marcos Baptist,77.02,117.93,92.99,138.35,349.27,Single-ply,SBD,M
Boys,82.1,12,Anthony Capra,Johnson City,77.29,102.06,74.84,136.08,312.98,Single-ply,SBD,M
Boys,82.1,13,Nick Quintanilla,Karnes City,76.38,102.06,72.57,136.08,310.71,Single-ply,SBD,M
Boys,82.1,14,Austin Hay,San Marcos Baptist,75.57,102.06,61.23,142.88,306.17,Single-ply,SBD,M
Boys,82.1,DQ,Nathan Jester,Buda Hays,78.02,108.86,,,,Single-ply,SBD,M
Boys,89.81,1,Landon Lock,Gonzales,88.36,256.28,136.08,254.01,646.37,Single-ply,SBD,M
Boys,89.81,2,Miles Dixon,Seguin,87.82,204.12,115.67,235.87,555.65,Single-ply,SBD,M
Boys,89.81,3,Cole Thompson,Universal City Randolph,83.64,190.51,113.4,206.38,510.29,Single-ply,SBD,M
Boys,89.81,4,Weston Block,Karnes City,87.63,174.63,102.06,170.1,446.79,Single-ply,SBD,M
Boys,89.81,5,Garrett Deike,Johnson City,87.72,147.42,102.06,172.37,421.84,Single-ply,SBD,M
Boys,89.81,6,Tyler Morgan,Gonzales,86.82,136.08,102.06,181.44,419.57,Single-ply,SBD,M
Boys,89.81,7,Jd Miller,Gonzales,88.09,154.22,77.11,181.44,412.77,Single-ply,SBD,M
Boys,89.81,8,Micah Jones,Universal City Randolph,86.73,142.88,90.72,158.76,392.36,Single-ply,SBD,M
Boys,89.81,9,Austin Isaac,Geronimo Navarro,87.09,147.42,81.65,154.22,383.29,Single-ply,SBD,M
Boys,89.81,10,Sam Jones,Universal City Randolph,88.99,140.61,61.23,172.37,374.21,Single-ply,SBD,M
Boys,89.81,11,George Villagomez,Sealy,86.73,142.88,77.11,142.88,362.87,Single-ply,SBD,M
Boys,89.81,12,Cody Watson,San Marcos Baptist,88.72,83.91,81.65,129.27,294.84,Single-ply,SBD,M
Boys,89.81,DQ,Austin Block,Karnes City,88.27,,,,,Single-ply,SBD,M
Boys,89.81,DQ,Victor Martinez,Buda Hays,87.77,,,,,Single-ply,SBD,M
Boys,99.79,1,Pj Hall,Seguin,98.61,215.46,122.47,235.87,573.79,Single-ply,SBD,M
Boys,99.79,DQ,Jordan Huckaby,Lockhart,98.25,,,,,Single-ply,SBD,M
Boys,99.79,3,Chris Carpenter,Seguin,91.99,199.58,131.54,201.85,532.97,Single-ply,SBD,M
Boys,109.77,4,Deaundre Turner,Lockhart,99.97,201.85,108.86,217.72,528.44,Single-ply,SBD,M
Boys,99.79,5,Ian Coleman,Universal City Randolph,98.7,210.92,117.93,172.37,501.22,Single-ply,SBD,M
Boys,99.79,6,Coy Condel,Gonzales,95.71,170.1,90.72,192.78,453.59,Single-ply,SBD,M
Boys,99.79,7,Tyler Farris,Universal City Randolph,95.98,167.83,92.99,190.51,451.32,Single-ply,SBD,M
Boys,99.79,8,Liam Murphy,Universal City Randolph,98.61,170.1,95.25,156.49,421.84,Single-ply,SBD,M
Boys,99.79,9,David Delacruz,Poth,97.89,83.91,63.5,106.59,254.01,Single-ply,SBD,M
Boys,99.79,DQ,Josh Pesina,Buda Hays,96.16,,,,,Single-ply,SBD,M
Boys,124.74,1,Anthony Fish,Poth,109.95,206.38,117.93,197.31,521.63,Single-ply,SBD,M
Boys,109.77,2,Lupe Cabrera,Gonzales,108.14,170.1,124.74,192.78,487.61,Single-ply,SBD,M
Boys,109.77,3,Cesar Juarez,Geronimo Navarro,105.69,181.44,108.86,192.78,483.08,Single-ply,SBD,M
Boys,109.77,4,Hunter Ullrich,Seguin,105.96,172.37,115.67,185.97,474,Single-ply,SBD,M
Boys,109.77,5,Mason Harrell,Johnson City,107.05,92.99,95.25,124.74,312.98,Single-ply,SBD,M
Boys,109.77,6,Dalton Wade,San Marcos Baptist,100.33,108.86,68.04,124.74,301.64,Single-ply,SBD,M
Boys,109.77,DQ,Lucas Janysek,Karnes City,105.41,,,,,Single-ply,SBD,M
Boys,124.74,1,Andrew Contreras,Lockhart,123.56,226.8,122.47,201.85,551.11,Single-ply,SBD,M
Boys,124.74,2,John Mendoza,Karnes City,112.85,192.78,129.27,226.8,548.85,Single-ply,SBD,M
Boys,124.74,3,Roman Esparza,Geronimo Navarro,113.85,215.46,108.86,219.99,544.31,Single-ply,SBD,M
Boys,124.74,4,Clayton Haley,Johnson City,115.12,158.76,136.08,111.13,405.97,Single-ply,SBD,M
Boys,124.74+,1,Ryne Lehman,Lockhart,132.45,197.31,149.69,217.72,564.72,Single-ply,SBD,M
Boys,124.74+,2,Cody Jurek,Gonzales,131,158.76,124.74,208.65,492.15,Single-ply,SBD,M
Boys,124.74+,3,Ruben Hernandez #3,Geronimo Navarro,145.15,183.7,117.93,165.56,467.2,Single-ply,SBD,M
Boys,124.74+,4,Richard Theile,Gonzales,138.89,174.63,90.72,170.1,435.45,Single-ply,SBD,M
Boys,124.74+,5,Jody Lilley,Sealy,127.46,142.88,113.4,174.63,430.91,Single-ply,SBD,M
Boys,124.74+,DQ,Luis Medina,Sealy,125.55,,,,,Single-ply,SBD,M
