Division,WeightClassKg,Place,Name,Team,BodyweightKg,Best3SquatKg,Best3BenchKg,Best3DeadliftKg,TotalKg,Equipment,Event,Sex
Boys,55.79,1,Adrian Brackens,Forney,51.89,124.74,72.57,124.74,322.05,Single-ply,SBD,M
Boys,51.71,2,Javier Garcia,Lancaster,50.26,88.45,70.31,122.47,281.23,Single-ply,SBD,M
Boys,51.71,3,Mike Brown,Lancaster,51.71,99.79,61.23,113.4,274.42,Single-ply,SBD,M
Boys,51.71,4,Daniel Dudley,Rockwall,48.72,102.06,47.63,113.4,263.08,Single-ply,SBD,M
Boys,51.71,5,Freddy Reyes,Greenville,50.35,115.67,45.36,102.06,263.08,Single-ply,SBD,M
Boys,51.71,6,Cade Phillips,Terrell,49.26,,43.09,,43.09,Single-ply,B,M
Boys,55.79,1,Dillan Cromeens,Nevada Community,55.79,149.69,81.65,158.76,390.09,Single-ply,SBD,M
Boys,55.79,2,Joseph Rico,Forney,55.61,138.35,86.18,151.95,376.48,Single-ply,SBD,M
Boys,55.79,3,Jose Guajardo,Greenville,52.98,120.2,77.11,129.27,326.59,Single-ply,SBD,M
Boys,59.87,4,Nick Wunsch,Wills Point,56.02,122.47,68.04,117.93,308.44,Single-ply,SBD,M
Boys,55.79,5,Victor Ejiasi,North Forney,53.98,99.79,56.7,131.54,288.03,Single-ply,SBD,M
Boys,55.79,6,Maverick Cunigan,Wills Point,54.88,106.59,54.43,120.2,281.23,Single-ply,SBD,M
Boys,55.79,7,Brennan Mallewick,Wills Point,52.98,97.52,45.36,99.79,242.67,Single-ply,SBD,M
Boys,59.87,1,Devon Harris,North Forney,56.25,188.24,111.13,190.51,489.88,Single-ply,SBD,M
Boys,59.87,2,Matt Castillo,North Mesquite,59.15,163.29,92.99,197.31,453.59,Single-ply,SBD,M
Boys,67.13,3,Ta'Montre Mitchell,Greenville,60.06,179.17,95.25,154.22,428.64,Single-ply,SBD,M
Boys,67.13,4,Matt Hernandez,Wills Point,59.96,149.69,86.18,163.29,399.16,Single-ply,SBD,M
Boys,59.87,5,Jacob McLean,Scurry-Rosser,59.42,145.15,70.31,145.15,360.61,Single-ply,SBD,M
Boys,59.87,6,Stone Bankston,Scurry-Rosser,59.69,95.25,54.43,122.47,272.16,Single-ply,SBD,M
Boys,74.84,1,Alex Ramsey,Royse City,67.31,204.12,122.47,190.51,517.1,Single-ply,SBD,M
Boys,67.13,2,Michael Dennehy,Terrell,66.04,161.03,99.79,174.63,435.45,Single-ply,SBD,M
Boys,67.13,3,Jonathan Johnson,Dallas Spruce,63.14,151.95,104.33,172.37,428.64,Single-ply,SBD,M
Boys,74.84,4,Denton Bridges,Terrell,67.22,158.76,99.79,163.29,421.84,Single-ply,SBD,M
Boys,67.13,5,Derrick Mosley,North Forney,65.77,163.29,102.06,154.22,419.57,Single-ply,SBD,M
Boys,67.13,6,Shonathan Sayers,Dallas Spruce,63.14,136.08,104.33,174.63,415.04,Single-ply,SBD,M
Boys,67.13,7,Brayden Holly,Greenville,65.59,158.76,86.18,149.69,394.63,Single-ply,SBD,M
Boys,67.13,8,Doty Baylie,Greenville,62.51,136.08,83.91,142.88,362.87,Single-ply,SBD,M
Boys,67.13,9,Casey Cranford,Wills Point,63.59,133.81,81.65,147.42,362.87,Single-ply,SBD,M
Boys,67.13,10,Emmanuel England,Lancaster,62.69,115.67,70.31,140.61,326.59,Single-ply,SBD,M
Boys,67.13,11,Gilberto Torres,Forney,60.69,115.67,61.23,145.15,322.05,Single-ply,SBD,M
Boys,74.84,1,Christian Varela,North Mesquite,73.57,192.78,122.47,240.4,555.65,Single-ply,SBD,M
Boys,74.84,2,Dylon Bonesteel,North Mesquite,74.12,204.12,122.47,183.7,510.29,Single-ply,SBD,M
Boys,74.84,3,Jakorian Johnson,Royse City,73.12,204.12,90.72,199.58,494.42,Single-ply,SBD,M
Boys,74.84,4,Jacob Mitchell,Greenville,72.85,181.44,106.59,181.44,469.47,Single-ply,SBD,M
Boys,74.84,5,Keelen Clark,Canton,74.48,163.29,104.33,167.83,435.45,Single-ply,SBD,M
Boys,74.84,6,Jake Glisch,Royse City,68.13,158.76,90.72,172.37,421.84,Single-ply,SBD,M
Boys,74.84,7,Dre Deleon,Nevada Community,72.94,136.08,83.91,154.22,374.21,Single-ply,SBD,M
Boys,74.84,8,Jesse Landess,Scurry-Rosser,73.75,149.69,88.45,136.08,374.21,Single-ply,SBD,M
Boys,74.84,9,Jonah Bush,Rockwall,72.39,117.93,88.45,142.88,349.27,Single-ply,SBD,M
Boys,74.84,DQ,Marquise Harris,Canton,68.04,,,,,Single-ply,SBD,M
Boys,82.1,1,Bryce Sanford,Canton,81.83,226.8,127.01,172.37,526.17,Single-ply,SBD,M
Boys,82.1,2,Nick Romo,North Mesquite,80.65,197.31,111.13,204.12,512.56,Single-ply,SBD,M
Boys,82.1,3,Chandler Tolbert,Royse City,78.93,185.97,120.2,188.24,494.42,Single-ply,SBD,M
Boys,82.1,4,Brandon Rodriguez,Terrell,80.74,181.44,111.13,195.04,487.61,Single-ply,SBD,M
Boys,82.1,5,Jimmy Landess,Scurry-Rosser,82.1,151.95,77.11,158.76,387.82,Single-ply,SBD,M
Boys,89.81,6,Josh Upton,Terrell,82.28,183.7,113.4,,297.1,Single-ply,SB,M
Boys,82.1,7,Ronnie Steed,Forney,75.39,124.74,,,124.74,Single-ply,S,M
Boys,99.79,1,Jarod Loftis,Royse City,89.99,254.01,131.54,249.48,635.03,Single-ply,SBD,M
Boys,89.81,2,Lapone Finley,North Forney,86.64,217.72,113.4,238.14,569.26,Single-ply,SBD,M
Boys,89.81,3,Ken Louden,North Mesquite,88.45,190.51,120.2,235.87,546.58,Single-ply,SBD,M
Boys,89.81,4,Denzel Lewis,Lancaster,85.91,192.78,122.47,229.06,544.31,Single-ply,SBD,M
Boys,99.79,5,Elijah Huntley,Royse City,89.9,204.12,131.54,183.7,519.36,Single-ply,SBD,M
Boys,89.81,6,Logan Thompson,Canton,89.18,199.58,122.47,192.78,514.83,Single-ply,SBD,M
Boys,89.81,7,Jayson Day,Scurry-Rosser,88.81,195.04,115.67,199.58,510.29,Single-ply,SBD,M
Boys,89.81,8,Chance Hamilton,Greenville,89.72,181.44,117.93,204.12,503.49,Single-ply,SBD,M
Boys,89.81,9,Austin Cooper,Greenville,87.36,199.58,113.4,183.7,496.68,Single-ply,SBD,M
Boys,89.81,10,Elijah Banks,North Mesquite,88.45,167.83,127.01,190.51,485.34,Single-ply,SBD,M
Boys,89.81,11,Daelin Young,North Mesquite,86.45,185.97,92.99,204.12,483.08,Single-ply,SBD,M
Boys,89.81,12,Will Smith,Rockwall,88.09,142.88,97.52,161.03,401.43,Single-ply,SBD,M
Boys,89.81,13,Collin Kranock,Wills Point,86.91,129.27,90.72,161.03,381.02,Single-ply,SBD,M
Boys,89.81,14,Gabriel Harrison,Lancaster,84.82,213.19,,163.29,376.48,Single-ply,SD,M
Boys,89.81,15,Drew Coleman,Forney,88.27,124.74,72.57,172.37,369.68,Single-ply,SBD,M
Boys,89.81,DQ,Daniel Grigsby,North Forney,89.72,,,,,Single-ply,SBD,M
Boys,99.79,1,Terry Jackson,North Forney,98.79,260.82,151.95,242.67,655.44,Single-ply,SBD,M
Boys,99.79,2,Thomas Johnson,Royse City,91.9,260.82,142.88,215.46,619.15,Single-ply,SBD,M
Boys,99.79,3,Brandon Morris,Scurry-Rosser,94.8,233.6,124.74,222.26,580.6,Single-ply,SBD,M
Boys,99.79,4,Cipriano Gonzales,Greenville,93.26,215.46,145.15,190.51,551.11,Single-ply,SBD,M
Boys,99.79,5,Quamyas White,Terrell,90.54,204.12,124.74,197.31,526.17,Single-ply,SBD,M
Boys,99.79,6,Chris Hinckley,Rockwall,97.52,192.78,129.27,204.12,526.17,Single-ply,SBD,M
Boys,99.79,7,Antonio Harris,Terrell,98.88,195.04,124.74,197.31,517.1,Single-ply,SBD,M
Boys,99.79,8,Quadarrion George,North Forney,94.53,190.51,113.4,188.24,492.15,Single-ply,SBD,M
Boys,99.79,9,Austin Kocian,Terrell,92.53,183.7,99.79,192.78,476.27,Single-ply,SBD,M
Boys,99.79,10,Lathan Fink,Terrell,94.71,183.7,99.79,192.78,476.27,Single-ply,SBD,M
Boys,99.79,11,Will Barnes,North Forney,97.34,197.31,104.33,163.29,464.93,Single-ply,SBD,M
Boys,99.79,12,Jb Medley,Canton,96.43,158.76,97.52,204.12,460.4,Single-ply,SBD,M
Boys,99.79,13,Cole Ketchum,Wills Point,97.16,170.1,97.52,163.29,430.91,Single-ply,SBD,M
Boys,99.79,14,Trevor Dyson,Lancaster,95.25,147.42,102.06,156.49,405.97,Single-ply,SBD,M
Boys,99.79,15,Colton Henderson,Terrell,92.99,229.06,149.69,,378.75,Single-ply,SB,M
Boys,109.77,1,Jalon Scott,North Mesquite,103.33,254.01,145.15,238.14,637.3,Single-ply,SBD,M
Boys,124.74,2,Jackson Bolin,Rockwall,109.86,213.19,176.9,235.87,625.96,Single-ply,SBD,M
Boys,109.77,3,Andrew Hughes,Royse City,106.05,226.8,174.63,188.24,589.67,Single-ply,SBD,M
Boys,109.77,4,Codey Huggins,Wills Point,108.14,229.06,104.33,217.72,551.11,Single-ply,SBD,M
Boys,109.77,5,Jose Reyes,Royse City,109.59,233.6,151.95,165.56,551.11,Single-ply,SBD,M
Boys,109.77,6,Alex Belteton,Royse City,107.59,215.46,136.08,192.78,544.31,Single-ply,SBD,M
Boys,109.77,7,Luke Termin,Rockwall,105.69,188.24,113.4,210.92,512.56,Single-ply,SBD,M
Boys,109.77,8,Hunter Smith,Greenville,105.05,190.51,115.67,197.31,503.49,Single-ply,SBD,M
Boys,109.77,9,Robert Perry,Rockwall,107.23,183.7,124.74,190.51,498.95,Single-ply,SBD,M
Boys,109.77,10,Zach Gray,Wills Point,109.41,190.51,111.13,165.56,467.2,Single-ply,SBD,M
Boys,109.77,11,Lane Cryer,Scurry-Rosser,102.78,167.83,106.59,176.9,451.32,Single-ply,SBD,M
Boys,109.77,12,Taylor Hughes,Terrell,105.6,151.95,90.72,163.29,405.97,Single-ply,SBD,M
Boys,109.77,13,Jared Norman,Wills Point,106.59,145.15,83.91,156.49,385.55,Single-ply,SBD,M
Boys,124.74,1,Ke'Adric Nelson,Canton,112.85,272.16,117.93,260.82,650.91,Single-ply,SBD,M
Boys,124.74,2,Amine Elhaili,Rockwall,124.38,231.33,138.35,238.14,607.81,Single-ply,SBD,M
Boys,124.74,3,James Brown,Royse City,118.57,272.16,133.81,181.44,587.4,Single-ply,SBD,M
Boys,124.74,4,Terrance Walker,North Forney,123.38,217.72,151.95,213.19,582.87,Single-ply,SBD,M
Boys,124.74,5,Dillion Stevens,Greenville,119.11,219.99,138.35,215.46,573.79,Single-ply,SBD,M
Boys,124.74,6,Nickelas Blain,Caddo Mills,123.2,235.87,156.49,181.44,573.79,Single-ply,SBD,M
Boys,124.74,7,Matt Price,Forney,124.47,226.8,104.33,217.72,548.85,Single-ply,SBD,M
Boys,124.74,8,Mitchell Wheat,Greenville,121.65,226.8,124.74,192.78,544.31,Single-ply,SBD,M
Boys,124.74,9,Brandon Wiggleton,North Mesquite,114.85,190.51,124.74,217.72,532.97,Single-ply,SBD,M
Boys,124.74,10,Justin Cook,Lancaster,111.77,158.76,74.84,142.88,376.48,Single-ply,SBD,M
Boys,124.74+,1,Trevor Adams,North Forney,130,233.6,122.47,204.12,560.19,Single-ply,SBD,M
Boys,124.74+,2,Aldren Kamara,North Mesquite,140.07,231.33,122.47,204.12,557.92,Single-ply,SBD,M
Boys,124.74+,3,Jesse Luna,Wills Point,151.95,238.14,113.4,197.31,548.85,Single-ply,SBD,M
Boys,124.74+,4,Eric Roberts,Terrell,127.01,226.8,129.27,181.44,537.51,Single-ply,SBD,M
Boys,124.74+,5,Brice Chambers,North Mesquite,126.37,204.12,113.4,204.12,521.63,Single-ply,SBD,M
Boys,124.74+,6,Keenan Ivory,Canton,151.32,226.8,83.91,183.7,494.42,Single-ply,SBD,M
Boys,124.74+,7,Aaron Vernon,Dallas Spruce,149.69,181.44,117.93,179.17,478.54,Single-ply,SBD,M
Boys,124.74+,8,Raiquan Bennett,Lancaster,129.36,142.88,113.4,154.22,410.5,Single-ply,SBD,M
Boys,,NS,Rj Carranza,Nevada Community,,,,,,Single-ply,SBD,M
Boys,,NS,Brad Curtis,Canton,,,,,,Single-ply,SBD,M
Boys,,NS,Grayson Addudell,Canton,,,,,,Single-ply,SBD,M
Boys,,NS,Ryan Perry,Rockwall,,,,,,Single-ply,SBD,M
Boys,,NS,Hakim Daniels-Smith,North Forney,,,,,,Single-ply,SBD,M
