Division,WeightClassKg,Place,Name,Team,BodyweightKg,Best3SquatKg,Best3BenchKg,Best3DeadliftKg,TotalKg,Equipment,Event,Sex
Boys,51.71,1,Bernardo Cruz,Eldorado,51.71,117.93,65.77,122.47,306.17,Single-ply,SBD,M
Boys,55.79,2,Michael Hosch,McCamey,51.8,102.06,63.5,124.74,290.3,Single-ply,SBD,M
Boys,51.71,3,Henry Ramos,Sonora,48.81,102.06,56.7,113.4,272.16,Single-ply,SBD,M
Boys,51.71,4,Adrian Rodriquez,McCamey,50.17,68.04,52.16,113.4,233.6,Single-ply,SBD,M
Boys,55.79,1,Nick Gomez,McCamey,52.71,115.67,77.11,129.27,322.05,Single-ply,SBD,M
Boys,55.79,2,Gabriel Rodriquez,McCamey,54.7,99.79,58.97,124.74,283.5,Single-ply,SBD,M
Boys,59.87,1,Glenn Crowder,Iraan,59.38,133.81,68.04,170.1,371.95,Single-ply,SBD,M
Boys,59.87,2,Anthony Jones,San Angelo Grape Creek,58.88,136.08,70.31,133.81,340.19,Single-ply,SBD,M
Boys,67.13,1,John Jurado,Ozona,65,215.46,97.52,204.12,517.1,Single-ply,SBD,M
Boys,67.13,2,Austin Ramirez,Iraan,66.9,172.37,92.99,199.58,464.93,Single-ply,SBD,M
Boys,67.13,3,Oscar Narvaez,Mertzon Irion County,64.55,176.9,88.45,176.9,442.25,Single-ply,SBD,M
Boys,67.13,4,Felix Guerra,Sonora,64.82,154.22,95.25,154.22,403.7,Single-ply,SBD,M
Boys,67.13,5,Javier Garcia,Eldorado,61.78,154.22,86.18,145.15,385.55,Single-ply,SBD,M
Boys,67.13,6,Raymond Parsons,San Angelo Grape Creek,66.9,140.61,86.18,158.76,385.55,Single-ply,SBD,M
Boys,67.13,7,Salvador Lopez,Sonora,63.55,147.42,81.65,154.22,383.29,Single-ply,SBD,M
Boys,67.13,8,Michael DeLeon,McCamey,62.96,136.08,79.38,136.08,351.53,Single-ply,SBD,M
Boys,67.13,9,Victor Castro #1,Eldorado,61.78,111.13,61.23,147.42,319.78,Single-ply,SBD,M
Boys,67.13,10,Alberto Rodriguez,Ozona,60.87,106.59,49.9,108.86,265.35,Single-ply,SBD,M
Boys,74.84,1,Michael Vargas,Ozona,68.54,242.67,127.01,226.8,596.47,Single-ply,SBD,M
Boys,74.84,2,Luke Parker,Christoval,74.12,210.92,108.86,204.12,523.9,Single-ply,SBD,M
Boys,74.84,3,Kelly Kennedy,San Angelo Grape Creek,68.63,133.81,77.11,138.35,349.27,Single-ply,SBD,M
Boys,74.84,4,Jacob Mettlen,Eldorado,74.71,99.79,81.65,161.03,342.46,Single-ply,SBD,M
Boys,82.1,1,Rikkie Ruschenberg,San Angelo Grape Creek,79.42,226.8,111.13,210.92,548.85,Single-ply,SBD,M
Boys,82.1,2,Aliq DeLeon,McCamey,82.01,188.24,113.4,188.24,489.88,Single-ply,SBD,M
Boys,89.81,3,Fabian Gomez,Eldorado,82.33,183.7,108.86,190.51,483.08,Single-ply,SBD,M
Boys,82.1,4,Kevin O'Dell,San Angelo Grape Creek,78.79,172.37,106.59,167.83,446.79,Single-ply,SBD,M
Boys,82.1,5,Chris Amador,Mertzon Irion County,80.97,174.63,90.72,129.27,394.63,Single-ply,SBD,M
Boys,82.1,DQ,Jonathan Keene,McCamey,77.84,,,,,Single-ply,SBD,M
Boys,82.1,DQ,Sam Jacobs,Christoval,76.61,174.63,92.99,,,Single-ply,SBD,M
Boys,82.1,DQ,Tristan Onofre,Iraan,78.24,113.4,,,,Single-ply,SBD,M
Boys,89.81,1,Josh Neri,Mertzon Irion County,87.36,204.12,131.54,210.92,546.58,Single-ply,SBD,M
Boys,89.81,2,Ryder Sawyer,Iraan,84.5,197.31,111.13,188.24,496.68,Single-ply,SBD,M
Boys,89.81,3,Pecos Silva,Christoval,89.04,181.44,120.2,195.04,496.68,Single-ply,SBD,M
Boys,89.81,4,Daniel Lombrana,Ozona,83.28,197.31,102.06,190.51,489.88,Single-ply,SBD,M
Boys,89.81,5,Alvin Watson,Iraan,88.18,142.88,72.57,147.42,362.87,Single-ply,SBD,M
Boys,99.79,1,Kevin Dean,Eldorado,98.29,188.24,111.13,204.12,503.49,Single-ply,SBD,M
Boys,99.79,2,Alex Perez,San Angelo Grape Creek,99.02,199.58,102.06,201.85,503.49,Single-ply,SBD,M
Boys,99.79,3,Juan McKee,McCamey,97.89,181.44,108.86,142.88,433.18,Single-ply,SBD,M
Boys,99.79,DQ,Travis Carter,Iraan,93.62,131.54,,,,Single-ply,SBD,M
Boys,99.79,DQ,Robert Reyes,Iraan,96.07,226.8,,,,Single-ply,SBD,M
Boys,109.77,1,Josue Damian,Ozona,106.82,278.96,136.08,247.21,662.24,Single-ply,SBD,M
Boys,109.77,2,Adrian Hernandez,San Angelo Grape Creek,105.73,231.33,127.01,219.99,578.33,Single-ply,SBD,M
Boys,109.77,3,Wade Pierce,Iraan,100.38,204.12,142.88,226.8,573.79,Single-ply,SBD,M
Boys,109.77,4,Ethan Patlan,Sonora,102.83,190.51,145.15,190.51,526.17,Single-ply,SBD,M
Boys,109.77,5,Hl James,Christoval,108.27,204.12,106.59,208.65,519.36,Single-ply,SBD,M
Boys,109.77,6,Michael Ortiz,Iraan,106.46,181.44,102.06,192.78,476.27,Single-ply,SBD,M
Boys,109.77,7,Bryndon Robles,Sonora,106.96,165.56,113.4,147.42,426.38,Single-ply,SBD,M
Boys,109.77,8,Robert Vance,San Angelo Grape Creek,108.77,106.59,83.91,106.59,297.1,Single-ply,SBD,M
Boys,109.77,DQ,Angel DeLuna,Sonora,105.19,215.46,,,,Single-ply,SBD,M
Boys,124.74,1,Kelton Bales,Iraan,120.93,265.35,131.54,217.72,614.62,Single-ply,SBD,M
Boys,124.74,2,Antonio Perez,San Angelo Grape Creek,119.75,199.58,170.1,210.92,580.6,Single-ply,SBD,M
Boys,124.74,3,Zack Taylor,Ozona,115.71,226.8,124.74,181.44,532.97,Single-ply,SBD,M
Boys,,NS,Johathon Focha,Ozona,,,,,,Single-ply,SBD,M
Boys,,NS,Preston McCutcheon,Ozona,,,,,,Single-ply,SBD,M
Boys,,NS,James Bradley,Ozona,,,,,,Single-ply,SBD,M
Boys,,NS,Matthew Salisbury,San Angelo Grape Creek,,,,,,Single-ply,SBD,M
Boys,,NS,Josh Galindo,Sonora,,,,,,Single-ply,SBD,M
Boys,,NS,Viator Gomez,Mertzon Irion County,,,,,,Single-ply,SBD,M
Boys,,NS,Ty Wilson,Mertzon Irion County,,,,,,Single-ply,SBD,M
Boys,,NS,Daniel Gonzales,Ozona,,,,,,Single-ply,SBD,M
