Division,WeightClassKg,Place,Name,Team,BodyweightKg,Best3SquatKg,Best3BenchKg,Best3DeadliftKg,TotalKg,Equipment,Event,Sex
Boys,55.79,1,Brandon Deleon,Kyle Lehman,51.89,106.59,68.04,120.2,294.84,Single-ply,SBD,M
Boys,51.71,2,Justin Davis,Buda Hays,50.26,102.06,77.11,108.86,288.03,Single-ply,SBD,M
Boys,51.71,3,Luis Rios,Geronimo Navarro,44.54,86.18,65.77,120.2,272.16,Single-ply,SBD,M
Boys,51.71,4,Tim Mena,Del Valle,51.71,79.38,58.97,117.93,256.28,Single-ply,SBD,M
Boys,51.71,5,Jose Ramirez,Kyle Lehman,48.08,79.38,43.09,106.59,229.06,Single-ply,SBD,M
Boys,55.79,1,Josh Ramirez,Kyle Lehman,54.79,117.93,77.11,151.95,347,Single-ply,SBD,M
Boys,55.79,2,Blake Alford,Kyle Lehman,54.07,117.93,68.04,136.08,322.05,Single-ply,SBD,M
Boys,55.79,3,Tim Hernandez,Del Valle,55.61,127.01,68.04,124.74,319.78,Single-ply,SBD,M
Boys,55.79,4,Creighton McFarlin,Dripping Springs,54.07,122.47,56.7,122.47,301.64,Single-ply,SBD,M
Boys,55.79,5,Ellis Perry,Lockhart,55.34,88.45,65.77,124.74,278.96,Single-ply,SBD,M
Boys,55.79,DQ,Josh Fantauzzi,Buda Hays,54.61,158.76,92.99,,,Single-ply,SBD,M
Boys,59.87,1,Pedro Carreon,Geronimo Navarro,59.87,158.76,111.13,188.24,458.13,Single-ply,SBD,M
Boys,59.87,2,Chris Jackson,Lockhart,59.6,151.95,104.33,181.44,437.72,Single-ply,SBD,M
Boys,59.87,3,Tim Martinez,Del Valle,59.51,131.54,70.31,161.03,362.87,Single-ply,SBD,M
Boys,59.87,4,Kevin Machie,Dripping Springs,59.15,136.08,68.04,149.69,353.8,Single-ply,SBD,M
Boys,59.87,5,Adam Adair,Buda Hays,59.6,111.13,77.11,136.08,324.32,Single-ply,SBD,M
Boys,59.87,6,Brandon Abercrombie,Del Valle,57.52,111.13,70.31,133.81,315.25,Single-ply,SBD,M
Boys,67.13,DQ,Brandon Alford,Kyle Lehman,62.32,,,,,Single-ply,SBD,M
Boys,67.13,2,Matt Maldonado,Del Valle,65.41,167.83,108.86,188.24,464.93,Single-ply,SBD,M
Boys,67.13,3,Taylor Hough,Buda Hays,66.68,170.1,113.4,181.44,464.93,Single-ply,SBD,M
Boys,74.84,4,Tanner Robinson,Lockhart,67.22,167.83,97.52,181.44,446.79,Single-ply,SBD,M
Boys,67.13,5,Evan DeLeon,Geronimo Navarro,65.05,140.61,92.99,185.97,419.57,Single-ply,SBD,M
Boys,67.13,6,Ty Smith,Dripping Springs,65.5,154.22,81.65,176.9,412.77,Single-ply,SBD,M
Boys,67.13,7,Jared Self,Buda Hays,65.59,131.54,83.91,149.69,365.14,Single-ply,SBD,M
Boys,67.13,8,Mason Salinas,Buda Hays,65.41,129.27,83.91,142.88,356.07,Single-ply,SBD,M
Boys,67.13,9,Tim Stevens,Del Valle,66.86,131.54,74.84,145.15,351.53,Single-ply,SBD,M
Boys,67.13,10,Marcus Benford,Buda Hays,66.41,115.67,81.65,142.88,340.19,Single-ply,SBD,M
Boys,67.13,11,Gunner Brown,Lockhart,67.04,106.59,63.5,142.88,312.98,Single-ply,SBD,M
Boys,67.13,DQ,Taven Mayberry,Buda Hays,67.04,124.74,,,,Single-ply,SBD,M
Boys,74.84,1,David Wren,Dripping Springs,73.66,181.44,122.47,217.72,521.63,Single-ply,SBD,M
Boys,82.1,2,Hayden Eskew,Buda Hays,74.93,183.7,142.88,192.78,519.36,Single-ply,SBD,M
Boys,74.84,3,Easton Bauer,Dripping Springs,73.39,158.76,102.06,206.38,467.2,Single-ply,SBD,M
Boys,74.84,4,Jay Leal,Geronimo Navarro,72.12,174.63,99.79,190.51,464.93,Single-ply,SBD,M
Boys,74.84,5,Devin Jennings,Buda Hays,74.12,158.76,95.25,174.63,428.64,Single-ply,SBD,M
Boys,74.84,6,Mike Castillo,Geronimo Navarro,74.12,147.42,108.86,161.03,417.3,Single-ply,SBD,M
Boys,74.84,7,Thorn Spears,Buda Hays,74.66,149.69,95.25,149.69,394.63,Single-ply,SBD,M
Boys,74.84,8,Marshall Benson,San Marcos Baptist,70.76,142.88,83.91,149.69,376.48,Single-ply,SBD,M
Boys,74.84,9,Micheal Trejo,San Marcos Baptist,70.4,113.4,92.99,133.81,340.19,Single-ply,SBD,M
Boys,74.84,10,Tom Brotherton,San Marcos Baptist,74.03,102.06,77.11,127.01,306.17,Single-ply,SBD,M
Boys,74.84,11,Tim Rangel,Del Valle,71.94,74.84,61.23,111.13,247.21,Single-ply,SBD,M
Boys,74.84,DQ,Jacob Rodriguez,Geronimo Navarro,72.03,136.08,102.06,,,Single-ply,SBD,M
Boys,74.84,DQ,Austin Hay,San Marcos Baptist,70.49,108.86,,,,Single-ply,SBD,M
Boys,82.1,1,Omar Pereyra,Dripping Springs,81.19,226.8,136.08,233.6,596.47,Single-ply,SBD,M
Boys,82.1,2,Mark Trevino,Kyle Lehman,82.1,195.04,131.54,199.58,526.17,Single-ply,SBD,M
Boys,82.1,3,Zach Foreman,Dripping Springs,81.92,188.24,111.13,204.12,503.49,Single-ply,SBD,M
Boys,82.1,4,Kelly McBride,Del Valle,78.29,158.76,97.52,201.85,458.13,Single-ply,SBD,M
Boys,82.1,5,David Burns,Dripping Springs,78.02,174.63,97.52,181.44,453.59,Single-ply,SBD,M
Boys,82.1,6,Valentin Cantu,Kyle Lehman,78.74,174.63,83.91,181.44,439.98,Single-ply,SBD,M
Boys,82.1,7,Brandon Caballero,Buda Hays,81.83,158.76,95.25,174.63,428.64,Single-ply,SBD,M
Boys,82.1,8,Clark Flinn,Geronimo Navarro,81.01,156.49,97.52,142.88,396.89,Single-ply,SBD,M
Boys,82.1,9,Justin Hatfield,Geronimo Navarro,81.01,149.69,90.72,154.22,394.63,Single-ply,SBD,M
Boys,82.1,10,Austin Isaac,Geronimo Navarro,76.38,140.61,86.18,142.88,369.68,Single-ply,SBD,M
Boys,82.1,11,Marcos Johnson,Lockhart,76.84,131.54,83.91,149.69,365.14,Single-ply,SBD,M
Boys,89.81,12,Gabe Rodriguez,Del Valle,82.28,120.2,92.99,136.08,349.27,Single-ply,SBD,M
Boys,82.1,13,S Castro,Del Valle,78.02,83.91,61.23,136.08,281.23,Single-ply,SBD,M
Boys,89.81,DQ,Ethan Martin,Kyle Lehman,86.36,,,,,Single-ply,SBD,M
Boys,89.81,2,Marlin O'Neal,Dripping Springs,89.09,201.85,127.01,226.8,555.65,Single-ply,SBD,M
Boys,99.79,3,Steven Kittle,Dripping Springs,89.9,190.51,120.2,219.99,530.7,Single-ply,SBD,M
Boys,89.81,4,Curtis Hawkins,Lockhart,89.27,195.04,111.13,195.04,501.22,Single-ply,SBD,M
Boys,89.81,5,Tanner Brown,Lockhart,85.82,181.44,102.06,213.19,496.68,Single-ply,SBD,M
Boys,89.81,6,Justin Torres,Lockhart,88.27,167.83,97.52,172.37,437.72,Single-ply,SBD,M
Boys,99.79,1,Drew Peterson,Dripping Springs,90.08,226.8,140.61,233.6,601.01,Single-ply,SBD,M
Boys,99.79,2,Rihl Dougherty,Dripping Springs,96.16,210.92,136.08,204.12,551.11,Single-ply,SBD,M
Boys,99.79,3,Levi Mair,Lockhart,98.25,215.46,127.01,201.85,544.31,Single-ply,SBD,M
Boys,99.79,4,Mike Nap,Dripping Springs,98.07,197.31,120.2,215.46,532.97,Single-ply,SBD,M
Boys,99.79,5,Javier Esparza,Geronimo Navarro,90.9,161.03,106.59,190.51,458.13,Single-ply,SBD,M
Boys,99.79,6,Conner Roe,Geronimo Navarro,93.08,163.29,120.2,158.76,442.25,Single-ply,SBD,M
Boys,99.79,7,Yang Yang,San Marcos Baptist,93.8,97.52,34.02,90.72,222.26,Single-ply,SBD,M
Boys,109.77,1,Jordan Huckaby,Lockhart,101.7,210.92,151.95,231.33,594.21,Single-ply,SBD,M
Boys,109.77,2,Aurelio Garcia,Lockhart,108.95,226.8,133.81,226.8,587.4,Single-ply,SBD,M
Boys,109.77,3,Cesar Juarez,Geronimo Navarro,108.14,204.12,117.93,199.58,521.63,Single-ply,SBD,M
Boys,109.77,4,Bailey Rhoads,Buda Hays,107.95,190.51,115.67,210.92,517.1,Single-ply,SBD,M
Boys,109.77,5,David Velasquez,Geronimo Navarro,106.87,206.38,104.33,167.83,478.54,Single-ply,SBD,M
Boys,109.77,6,Justin Diaz,Buda Hays,102.15,149.69,102.06,183.7,435.45,Single-ply,SBD,M
Boys,109.77,7,Kc Candaleria,Del Valle,104.96,138.35,92.99,170.1,401.43,Single-ply,SBD,M
Boys,109.77,DQ,Conner Lanfear,Buda Hays,106.14,138.35,,,,Single-ply,SBD,M
Boys,124.74,1,Ray Sedwick,Lockhart,123.74,249.48,158.76,244.94,653.17,Single-ply,SBD,M
Boys,124.74,2,Jose Lira,Kyle Lehman,121.47,213.19,136.08,204.12,553.38,Single-ply,SBD,M
Boys,124.74,3,Gama Valdez,Buda Hays,114.58,188.24,129.27,149.69,467.2,Single-ply,SBD,M
Boys,124.74,4,Reed Darragh,Buda Hays,118.12,149.69,111.13,192.78,453.59,Single-ply,SBD,M
Boys,124.74,5,Will Trevillion,Buda Hays,119.2,140.61,99.79,183.7,424.11,Single-ply,SBD,M
Boys,124.74,6,Min Jae Jeong,San Marcos Baptist,115.39,136.08,70.31,136.08,342.46,Single-ply,SBD,M
Boys,124.74+,DQ,Kenny Higgins,Kyle Lehman,133.81,,,,,Single-ply,SBD,M
Boys,124.74+,2,Bobby Limon,Kyle Lehman,133.81,226.8,149.69,231.33,607.81,Single-ply,SBD,M
Boys,124.74+,3,Ryne Lehman,Lockhart,136.26,222.26,154.22,213.19,589.67,Single-ply,SBD,M
