Division,WeightClassKg,Place,Name,Team,BodyweightKg,Best3SquatKg,Best3BenchKg,Best3DeadliftKg,TotalKg,Equipment,Event,Sex
Boys,51.71,1,Cesar Ledesma,Burleson,50.89,176.9,102.06,183.7,462.66,Single-ply,SBD,M
Boys,51.71,2,Istvan Castilleja,Buda Hays,51.17,158.76,92.99,167.83,419.57,Single-ply,SBD,M
Boys,51.71,3,Jose Rios,Dripping Springs,51.17,165.56,86.18,158.76,410.5,Single-ply,SBD,M
Boys,51.71,4,Erick Samayoa,Burleson,51.71,136.08,79.38,185.97,401.43,Single-ply,SBD,M
Boys,51.71,5,Mauricio Rangel Cruz,Buda Hays,50.44,136.08,86.18,154.22,376.48,Single-ply,SBD,M
Boys,51.71,6,Tommy Hession,College Station,50.17,142.88,65.77,138.35,347,Single-ply,SBD,M
Boys,51.71,7,Dylan Quintero,Burleson Centennial,51.71,120.2,72.57,151.95,344.73,Single-ply,SBD,M
Boys,51.71,8,Justin Moss,Burleson,51.07,133.81,74.84,133.81,342.46,Single-ply,SBD,M
Boys,51.71,9,Nate Garza,Georgetown,51.62,136.08,70.31,136.08,342.46,Single-ply,SBD,M
Boys,51.71,10,Sterling Dukett,Kyle Lehman,51.44,115.67,70.31,136.08,322.05,Single-ply,SBD,M
Boys,51.71,11,Matthew Smith,Burleson,51.62,122.47,63.5,122.47,308.44,Single-ply,SBD,M
Boys,51.71,DQ,Tyler Morrow,Copperas Cove,49.17,,,,,Single-ply,SBD,M
Boys,55.79,1,Jeremiah Thompson,Manor,55.7,170.1,111.13,170.1,451.32,Single-ply,SBD,M
Boys,55.79,2,Journey Thompson,Manor,54.88,158.76,117.93,165.56,442.25,Single-ply,SBD,M
Boys,55.79,3,Bao Nguyen,Pflugerville,55.61,170.1,95.25,158.76,424.11,Single-ply,SBD,M
Boys,55.79,4,Caleb Burleson,College Station,54.88,147.42,97.52,149.69,394.63,Single-ply,SBD,M
Boys,55.79,5,Eduardo Renteria,Burleson,55.7,136.08,74.84,174.63,385.55,Single-ply,SBD,M
Boys,55.79,6,Cristian Villanueva,Kyle Lehman,55.79,122.47,97.52,140.61,360.61,Single-ply,SBD,M
Boys,55.79,7,Andrew Medina,Belton,55.07,133.81,70.31,145.15,349.27,Single-ply,SBD,M
Boys,55.79,DQ,Rudy Pina,Del Valle,52.62,,,,,Single-ply,SBD,M
Boys,55.79,DQ,Elijah Lascurain,College Station A&M Cons,54.98,,,,,Single-ply,SBD,M
Boys,55.79,DQ,Max Castelli,Belton,55.07,,,,,Single-ply,SBD,M
Boys,55.79,DQ,Richard Willess,Belton,55.52,,,,,Single-ply,SBD,M
Boys,55.79,DQ,Faison Stroup,Waco University,55.52,,,,,Single-ply,SBD,M
Boys,59.87,1,Ivan Venegas,Dripping Springs,58.79,219.99,124.74,199.58,544.31,Single-ply,SBD,M
Boys,59.87,2,Jacob Vasquez,Kyle Lehman,59.42,195.04,92.99,210.92,498.95,Single-ply,SBD,M
Boys,59.87,3,Jacob Moss,Burleson,59.78,188.24,104.33,206.38,498.95,Single-ply,SBD,M
Boys,59.87,4,Hunter Ford,Burleson Centennial,59.87,181.44,92.99,197.31,471.74,Single-ply,SBD,M
Boys,59.87,5,Patrick Martis,Killeen Harker Heights,58.42,163.29,106.59,172.37,442.25,Single-ply,SBD,M
Boys,59.87,6,Junior Cox,Belton,58.42,163.29,108.86,165.56,437.72,Single-ply,SBD,M
Boys,59.87,7,Celestino Rubio,Bryan Rudder,58.51,176.9,79.38,181.44,437.72,Single-ply,SBD,M
Boys,59.87,8,Lane Blevins,Bryan,59.87,154.22,99.79,181.44,435.45,Single-ply,SBD,M
Boys,59.87,9,Tommy Johnson,Marble Falls,57.97,151.95,102.06,176.9,430.91,Single-ply,SBD,M
Boys,59.87,10,Kellen Hapes,College Station,58.88,161.03,92.99,158.76,412.77,Single-ply,SBD,M
Boys,59.87,11,Kyle Gascon,Belton,59.51,176.9,81.65,147.42,405.97,Single-ply,SBD,M
Boys,59.87,12,Rolando Valenzuela,Kyle Lehman,59.51,138.35,90.72,165.56,394.63,Single-ply,SBD,M
Boys,59.87,DQ,Marc Anthony Govea-Gonzales,Del Valle,58.51,158.76,,,,Single-ply,SBD,M
Boys,67.13,1,Ethan Haynes,Burleson,67.13,258.55,142.88,247.21,648.64,Single-ply,SBD,M
Boys,67.13,2,Treston Hudnall,Killeen Ellison,66.22,197.31,154.22,215.46,566.99,Single-ply,SBD,M
Boys,67.13,3,Ray Heiser,Kyle Lehman,66.41,199.58,129.27,233.6,562.45,Single-ply,SBD,M
Boys,67.13,4,Colton Love,College Station A&M Cons,65.68,208.65,97.52,206.38,512.56,Single-ply,SBD,M
Boys,67.13,5,Therrance Soto,San Marcos,62.87,183.7,106.59,215.46,505.76,Single-ply,SBD,M
Boys,67.13,6,Mekye Kao,College Station A&M Cons,66.22,188.24,120.2,195.04,503.49,Single-ply,SBD,M
Boys,67.13,7,Kiran Payton,Kyle Lehman,65.41,179.17,115.67,195.04,489.88,Single-ply,SBD,M
Boys,67.13,8,Patrick Frazho,Belton,65.41,185.97,106.59,190.51,483.08,Single-ply,SBD,M
Boys,67.13,9,Daniel Santana,San Marcos,67.13,188.24,99.79,185.97,474,Single-ply,SBD,M
Boys,67.13,10,Jacob Reece,Bastrop,66.5,176.9,108.86,185.97,471.74,Single-ply,SBD,M
Boys,67.13,11,Declan Trevethan,Buda Hays,66.77,183.7,97.52,190.51,471.74,Single-ply,SBD,M
Boys,67.13,DQ,Iver MaCaulay,Burleson,66.86,,,,,Single-ply,SBD,M
Boys,74.84,1,Juan Rios,Dripping Springs,71.67,272.16,151.95,251.74,675.85,Single-ply,SBD,M
Boys,74.84,2,Yakariel Young,Killeen Ellison,73.94,240.4,151.95,242.67,635.03,Single-ply,SBD,M
Boys,74.84,3,Christan Caballero,San Marcos,71.49,195.04,127.01,238.14,560.19,Single-ply,SBD,M
Boys,74.84,4,Cory Price,College Station A&M Cons,70.58,217.72,122.47,215.46,555.65,Single-ply,SBD,M
Boys,74.84,5,Juan Venegas,Dripping Springs,73.75,215.46,131.54,204.12,551.11,Single-ply,SBD,M
Boys,74.84,6,Samuel Garcia,Belton,73.94,195.04,129.27,226.8,551.11,Single-ply,SBD,M
Boys,74.84,7,Matthew Reiff,Pflugerville,72.94,213.19,122.47,208.65,544.31,Single-ply,SBD,M
Boys,74.84,8,Christian Castillo,Belton,71.58,217.72,117.93,206.38,542.04,Single-ply,SBD,M
Boys,74.84,9,Jason Leal,Buda Hays,72.57,199.58,124.74,208.65,532.97,Single-ply,SBD,M
Boys,74.84,10,Christian Alvarez,San Marcos,73.48,201.85,113.4,190.51,505.76,Single-ply,SBD,M
Boys,74.84,DQ,Angelo Sibile,Belton,73.3,,,,,Single-ply,SBD,M
Boys,74.84,DQ,Ruben Jarmillio,Manor,74.12,195.04,,,,Single-ply,SBD,M
Boys,82.1,1,Wesley Free,Cleburne,78.29,249.48,154.22,201.85,605.55,Single-ply,SBD,M
Boys,82.1,2,Devyn Raper,Belton,78.11,204.12,133.81,238.14,576.06,Single-ply,SBD,M
Boys,82.1,3,Josh Garza,Bastrop Cedar Creek,79.83,222.26,113.4,226.8,562.45,Single-ply,SBD,M
Boys,82.1,4,John Mueller,Burleson,81.01,213.19,127.01,222.26,562.45,Single-ply,SBD,M
Boys,82.1,5,Alvin Dunn,Bryan Rudder,77.66,222.26,106.59,222.26,551.11,Single-ply,SBD,M
Boys,82.1,6,James Ayers,Bryan Rudder,78.56,217.72,131.54,201.85,551.11,Single-ply,SBD,M
Boys,82.1,7,Isaiah Quinten-Jackson,Georgetown East View,77.84,190.51,129.27,226.8,546.58,Single-ply,SBD,M
Boys,82.1,8,Rodrigo Valdez,College Station,78.93,222.26,124.74,199.58,546.58,Single-ply,SBD,M
Boys,82.1,9,Josiiah Kilgo,Killeen Harker Heights,77.38,204.12,111.13,229.06,544.31,Single-ply,SBD,M
Boys,82.1,10,Braxton Bailey,Cleburne,79.83,210.92,129.27,190.51,530.7,Single-ply,SBD,M
Boys,82.1,DQ,Roman Anderson,Pflugerville Hendrickson,80.92,,,,,Single-ply,SBD,M
Boys,82.1,DQ,Craig Dawson,Waco Midway,82.01,249.48,156.49,,,Single-ply,SBD,M
Boys,89.81,1,Brek Galbreath,Joshua,88.36,258.55,185.97,272.16,716.68,Single-ply,SBD,M
Boys,89.81,2,James Fullbright,Waco Midway,87.63,272.16,145.15,249.48,666.78,Single-ply,SBD,M
Boys,89.81,3,Hunter Cunningham,Burleson,88.99,247.21,149.69,249.48,646.37,Single-ply,SBD,M
Boys,89.81,4,Nathan Bryson,Kyle Lehman,88.81,256.28,174.63,210.92,641.83,Single-ply,SBD,M
Boys,89.81,5,Nick McDaniel,Bryan,88.72,254.01,138.35,242.67,635.03,Single-ply,SBD,M
Boys,89.81,6,Joey Rainbolt,Joshua,87.91,235.87,142.88,240.4,619.15,Single-ply,SBD,M
Boys,89.81,7,Kenny Long,Burleson Centennial,86.64,251.74,136.08,213.19,601.01,Single-ply,SBD,M
Boys,89.81,8,Sean Dudo,College Station,87.82,213.19,151.95,208.65,573.79,Single-ply,SBD,M
Boys,89.81,9,Keaton Kaulfus,Belton,88.54,215.46,142.88,204.12,562.45,Single-ply,SBD,M
Boys,89.81,DQ,Chris Aguirre,Buda Hays,87.91,242.67,,,,Single-ply,SBD,M
Boys,89.81,DQ,Courtney Lee,Manor,87.27,,,,,Single-ply,SBD,M
Boys,89.81,DQ,Jaden Moreno,Pflugerville Connally,88.9,,,,,Single-ply,SBD,M
Boys,99.79,1,Michael Kornak,Burleson Centennial,97.7,276.69,142.88,263.08,682.66,Single-ply,SBD,M
Boys,99.79,2,Jace Chambers,Pflugerville Hendrickson,96.98,244.94,147.42,265.35,657.71,Single-ply,SBD,M
Boys,99.79,3,Jacob Turner,Bastrop Cedar Creek,98.88,276.69,147.42,233.6,657.71,Single-ply,SBD,M
Boys,99.79,4,Jawaun Howard,Belton,97.98,247.21,163.29,233.6,644.1,Single-ply,SBD,M
Boys,99.79,5,Seth Sanchez,Kyle Lehman,97.98,251.74,138.35,249.48,639.57,Single-ply,SBD,M
Boys,99.79,6,Devin Martinez,Belton,98.61,254.01,149.69,235.87,639.57,Single-ply,SBD,M
Boys,99.79,7,Alastair Robinson,Waco University,93.26,240.4,158.76,238.14,637.3,Single-ply,SBD,M
Boys,99.79,8,Justis Chaney,Joshua,96.71,235.87,158.76,242.67,637.3,Single-ply,SBD,M
Boys,99.79,9,Tajha Brooks,Manor,96.07,235.87,133.81,226.8,596.47,Single-ply,SBD,M
Boys,99.79,10,Adam Vineyard,Georgetown East View,98.61,249.48,136.08,204.12,589.67,Single-ply,SBD,M
Boys,99.79,DQ,Keeton Derouen,Granbury,93.08,238.14,129.27,,,Single-ply,SBD,M
Boys,109.77,1,Blake Edgington,Joshua,109.68,276.69,181.44,278.96,737.09,Single-ply,SBD,M
Boys,109.77,2,Jordan Hammonds,Kyle Lehman,107.5,294.84,158.76,242.67,696.26,Single-ply,SBD,M
Boys,109.77,3,Tyler Massingill,Burleson,109.32,267.62,154.22,251.74,673.58,Single-ply,SBD,M
Boys,109.77,4,Sammy Rodriguez,Temple,103.51,238.14,142.88,249.48,630.49,Single-ply,SBD,M
Boys,109.77,5,Luke Miles,College Station,107.77,238.14,136.08,238.14,612.35,Single-ply,SBD,M
Boys,109.77,6,Zac Hoyle,Copperas Cove,104.96,208.65,158.76,240.4,607.81,Single-ply,SBD,M
Boys,109.77,7,Harley Franklin,Elgin,104.33,219.99,129.27,254.01,603.28,Single-ply,SBD,M
Boys,109.77,8,David Sillero,Lockhart,109.13,226.8,158.76,204.12,589.67,Single-ply,SBD,M
Boys,109.77,9,Miguel Vivero,Georgetown East View,107.32,222.26,136.08,217.72,576.06,Single-ply,SBD,M
Boys,109.77,DQ,Ruben Veliz,Granbury,103.51,,,,,Single-ply,SBD,M
Boys,109.77,DQ,Vincent Ume-Ezeoke,Pflugerville,102.97,,,,,Single-ply,SBD,M
Boys,124.74,1,Clifford Chambers,Bryan Rudder,122.92,362.87,176.9,233.6,773.37,Single-ply,SBD,M
Boys,124.74,2,Ty Roaches,Kyle Lehman,122.47,303.91,188.24,251.74,743.89,Single-ply,SBD,M
Boys,124.74,3,Truce Tumlinson,College Station,111.04,294.84,163.29,249.48,707.6,Single-ply,SBD,M
Boys,124.74,4,Sidney Sherwood,Belton,123.92,294.84,201.85,206.38,703.07,Single-ply,SBD,M
Boys,124.74,5,Terrence Patterson,Burleson,123.1,249.48,181.44,263.08,694,Single-ply,SBD,M
Boys,124.74,6,Tyrone Wilson,Bastrop,121.2,258.55,163.29,260.82,682.66,Single-ply,SBD,M
Boys,124.74,7,Christian Holmes,Granbury,115.39,263.08,172.37,233.6,669.05,Single-ply,SBD,M
Boys,124.74,8,Steven Ansumana,Dripping Springs,110.4,231.33,138.35,290.3,659.98,Single-ply,SBD,M
Boys,124.74,9,John McKee,Pflugerville Connally,116.03,251.74,158.76,235.87,646.37,Single-ply,SBD,M
Boys,124.74,10,John Gorrell,Waco Midway,116.21,238.14,161.03,217.72,616.89,Single-ply,SBD,M
Boys,124.74,DQ,Skylar Beck,Granbury,124.47,263.08,172.37,,,Single-ply,SBD,M
Boys,124.74,DQ,Dorian Black,Killeen Harker Heights,119.84,,,,,Single-ply,SBD,M
Boys,124.74+,1,Jordan Hood,Elgin,139.98,317.51,183.7,276.69,777.91,Single-ply,SBD,M
Boys,124.74+,2,Aaron Shanahan,Copperas Cove,147.96,294.84,163.29,274.42,732.55,Single-ply,SBD,M
Boys,124.74+,3,Tyler Noles,Georgetown,140.8,294.84,204.12,226.8,725.75,Single-ply,SBD,M
Boys,124.74+,4,Shaylon Roberts,Pflugerville Hendrickson,176.08,281.23,201.85,242.67,725.75,Single-ply,SBD,M
Boys,124.74+,5,Isaiah Samparipa,Lockhart,157.03,285.76,176.9,204.12,666.78,Single-ply,SBD,M
Boys,124.74+,6,Eron Ortiz,Georgetown,155.67,249.48,149.69,226.8,625.96,Single-ply,SBD,M
Boys,124.74+,7,Chris Julson,Bastrop Cedar Creek,131.9,258.55,129.27,233.6,621.42,Single-ply,SBD,M
Boys,124.74+,8,Evan Baltazar,Burleson,131.63,249.48,115.67,251.74,616.89,Single-ply,SBD,M
Boys,124.74+,DQ,Petr Svoboda,Pflugerville Hendrickson,144.24,265.35,142.88,,,Single-ply,SBD,M
Boys,124.74+,DQ,Jake Long,Waco Midway,158.76,240.4,,,,Single-ply,SBD,M
Boys,124.74+,DQ,Chapman Rowe,Killeen Ellison,139.98,,,,,Single-ply,SBD,M
Boys,124.74+,DQ,Michael Rodriguez,Georgetown East View,140.16,235.87,147.42,,,Single-ply,SBD,M
