Division,WeightClassKg,Place,Name,Team,BodyweightKg,Best3SquatKg,Best3BenchKg,Best3DeadliftKg,TotalKg,Equipment,Event,Sex
Boys,51.71,1,Anthony Lara,Wolfforth Frenship,50.53,145.15,72.57,174.63,392.36,Single-ply,SBD,M
Boys,51.71,2,Bryan Quinteros,Lamesa,51.35,149.69,86.18,149.69,385.55,Single-ply,SBD,M
Boys,51.71,3,Santos Figueroa,Plainview,49.26,138.35,56.7,131.54,326.59,Single-ply,SBD,M
Boys,51.71,4,Nathan Flores,Friona,49.71,120.2,61.23,138.35,319.78,Single-ply,SBD,M
Boys,51.71,5,Derek Barron,Muleshoe,51.07,108.86,58.97,113.4,281.23,Single-ply,SBD,M
Boys,51.71,6,Ezaiah Martinez,Dimmitt,51.62,90.72,54.43,108.86,254.01,Single-ply,SBD,M
Boys,51.71,7,Payton Rhodes,Hart,50.08,83.91,52.16,90.72,226.8,Single-ply,SBD,M
Boys,51.71,8,Marcus Sapp,Floydada,42.82,79.38,36.29,90.72,206.38,Single-ply,SBD,M
Boys,51.71,9,Lincoln Wise,Bushland,47.45,86.18,40.82,77.11,204.12,Single-ply,SBD,M
Boys,51.71,DQ,Juan Trejo,Friona,50.17,161.03,72.57,,,Single-ply,SBD,M
Boys,55.79,1,Jose Hernandez,Seagraves,55.43,147.42,90.72,188.24,426.38,Single-ply,SBD,M
Boys,55.79,2,Benny Dominguez,Odessa,55.43,149.69,70.31,156.49,376.48,Single-ply,SBD,M
Boys,55.79,3,Tim Aynes,Lamesa,55.25,129.27,79.38,149.69,358.34,Single-ply,SBD,M
Boys,55.79,4,Josiah Rodriguez,Meadow,55.25,124.74,65.77,145.15,335.66,Single-ply,SBD,M
Boys,55.79,5,Brennan Riker,Post,52.16,131.54,70.31,120.2,322.05,Single-ply,SBD,M
Boys,55.79,6,Damian Mendoza,Dumas,55.52,113.4,61.23,142.88,317.51,Single-ply,SBD,M
Boys,55.79,7,Alejandro Diaz,Hart,53.34,102.06,45.36,117.93,265.35,Single-ply,SBD,M
Boys,59.87,1,Mario Hernandez,Friona,59.87,170.1,92.99,181.44,444.52,Single-ply,SBD,M
Boys,59.87,2,Cysco Barrera,Plainview,58.6,154.22,83.91,190.51,428.64,Single-ply,SBD,M
Boys,59.87,3,Marin Santiago,Friona,59.87,154.22,77.11,176.9,408.23,Single-ply,SBD,M
Boys,59.87,4,Adriel Nabarrette,Odessa,58.33,147.42,81.65,158.76,387.82,Single-ply,SBD,M
Boys,59.87,5,Evan Judd,Dumas,59.24,140.61,77.11,147.42,365.14,Single-ply,SBD,M
Boys,59.87,6,Hayden Smith,New Home,57.52,124.74,65.77,142.88,333.39,Single-ply,SBD,M
Boys,59.87,7,Gilbert Pena,Dumas,57.79,113.4,68.04,147.42,328.85,Single-ply,SBD,M
Boys,59.87,8,Jacob Palimino,Lockney,58.69,120.2,58.97,136.08,315.25,Single-ply,SBD,M
Boys,59.87,9,Kyle Bruington,Floydada,57.33,102.06,70.31,136.08,308.44,Single-ply,SBD,M
Boys,59.87,10,Aaron Aguilar,Lamesa,59.6,102.06,72.57,133.81,308.44,Single-ply,SBD,M
Boys,59.87,11,Alberto Morales,Plains,59.78,95.25,61.23,111.13,267.62,Single-ply,SBD,M
Boys,59.87,12,Miguel Martinez,Muleshoe,57.15,83.91,61.23,113.4,258.55,Single-ply,SBD,M
Boys,59.87,13,Creed Howell,Ropesville Ropes,57.33,79.38,63.5,113.4,256.28,Single-ply,SBD,M
Boys,59.87,DQ,Andrew Gonzales,Floydada,58.24,124.74,,,,Single-ply,SBD,M
Boys,59.87,DQ,Jonathan Vidal,Denver City,57.79,124.74,,,,Single-ply,SBD,M
Boys,67.13,1,Luis Uruchutu,Canyon Randall,66.41,185.97,122.47,201.85,510.29,Single-ply,SBD,M
Boys,67.13,2,Jerry Simental,Seagraves,65.59,188.24,113.4,199.58,501.22,Single-ply,SBD,M
Boys,67.13,3,Miguel Vasquez,Farwell,64.23,185.97,120.2,192.78,498.95,Single-ply,SBD,M
Boys,67.13,4,Gus Garcia,Plainview,66.86,176.9,117.93,190.51,485.34,Single-ply,SBD,M
Boys,67.13,5,Brandon Sigala,Levelland,65.59,172.37,104.33,204.12,480.81,Single-ply,SBD,M
Boys,67.13,6,Ulises Estrada,Odessa,65.86,183.7,111.13,181.44,476.27,Single-ply,SBD,M
Boys,67.13,7,Chuy Garza,Brownfield,66.41,181.44,95.25,181.44,458.13,Single-ply,SBD,M
Boys,67.13,8,Bryan de la Torre,Bovina,63.32,167.83,90.72,183.7,442.25,Single-ply,SBD,M
Boys,67.13,9,Ricky Cuellar,Lockney,67.13,176.9,74.84,181.44,433.18,Single-ply,SBD,M
Boys,67.13,10,Kevin Phan,Plainview,60.51,156.49,90.72,179.17,426.38,Single-ply,SBD,M
Boys,67.13,11,Walker Voyles,Vega,67.04,170.1,81.65,170.1,421.84,Single-ply,SBD,M
Boys,67.13,12,Kade Tinsley,Bushland,61.6,154.22,81.65,167.83,403.7,Single-ply,SBD,M
Boys,67.13,13,John Olivas,Brownfield,62.96,151.95,86.18,165.56,403.7,Single-ply,SBD,M
Boys,67.13,14,Bo Franklin,Plains,65.59,151.95,90.72,161.03,403.7,Single-ply,SBD,M
Boys,67.13,15,Juan Castillo,Tulia,66.13,158.76,90.72,154.22,403.7,Single-ply,SBD,M
Boys,67.13,16,Mac Thompson,Ropesville Ropes,60.33,154.22,74.84,172.37,401.43,Single-ply,SBD,M
Boys,67.13,17,Justin Carrion,Muleshoe,66.86,145.15,79.38,167.83,392.36,Single-ply,SBD,M
Boys,67.13,18,Christian Valles,Andrews,66.22,158.76,88.45,142.88,390.09,Single-ply,SBD,M
Boys,67.13,19,Case Dickey,Wolfforth Frenship,63.5,145.15,77.11,156.49,378.75,Single-ply,SBD,M
Boys,67.13,20,Daniel Ramos,Andrews,64.95,154.22,70.31,154.22,378.75,Single-ply,SBD,M
Boys,67.13,21,Luis Zubiate,Seminole,64.86,149.69,72.57,154.22,376.48,Single-ply,SBD,M
Boys,67.13,22,Benito Hernandez,Odessa,60.42,136.08,79.38,158.76,374.21,Single-ply,SBD,M
Boys,67.13,23,Jeb Skiles,Vega,65.23,149.69,63.5,158.76,371.95,Single-ply,SBD,M
Boys,67.13,24,Gabriel Zubiate,Seminole,63.96,142.88,74.84,149.69,367.41,Single-ply,SBD,M
Boys,67.13,25,Callen Cannon,Sudan,66.22,131.54,86.18,149.69,367.41,Single-ply,SBD,M
Boys,67.13,26,Jeremiah Diaz,Friona,64.5,142.88,65.77,156.49,365.14,Single-ply,SBD,M
Boys,67.13,27,Slade Edwards,Seminole,61.87,140.61,72.57,138.35,351.53,Single-ply,SBD,M
Boys,67.13,28,Uriel Rodriguez,Denver City,67.04,142.88,72.57,127.01,342.46,Single-ply,SBD,M
Boys,67.13,29,Brayden Riley,Canyon Randall,59.96,108.86,79.38,142.88,331.12,Single-ply,SBD,M
Boys,67.13,30,John Wall,Dimmitt,65.5,117.93,83.91,129.27,331.12,Single-ply,SBD,M
Boys,67.13,31,Nate Lujan,Plains,61.6,102.06,72.57,147.42,322.05,Single-ply,SBD,M
Boys,67.13,32,Uriel Ibanez,Dumas,60.51,117.93,65.77,127.01,310.71,Single-ply,SBD,M
Boys,67.13,33,Heath Flores,New Home,61.87,120.2,68.04,115.67,303.91,Single-ply,SBD,M
Boys,67.13,34,Montana Williams,Post,65.86,102.06,81.65,117.93,301.64,Single-ply,SBD,M
Boys,67.13,35,JR Trevino,Lamesa,62.51,113.4,56.7,129.27,299.37,Single-ply,SBD,M
Boys,67.13,36,Jake Mahaney,Wolfforth Frenship,66.41,104.33,56.7,115.67,276.69,Single-ply,SBD,M
Boys,67.13,37,Jose Flores,Seagraves,66.5,106.59,58.97,106.59,272.16,Single-ply,SBD,M
Boys,67.13,DQ,Eric McGee,Dumas,63.5,136.08,,,,Single-ply,SBD,M
Boys,74.84,1,Jonathan Chavira,Dumas,73.75,208.65,136.08,226.8,571.53,Single-ply,SBD,M
Boys,74.84,2,Slade Harris,Canyon Randall,72.39,197.31,122.47,206.38,526.17,Single-ply,SBD,M
Boys,74.84,3,Larry Steger,Odessa,74.66,199.58,131.54,183.7,514.83,Single-ply,SBD,M
Boys,74.84,4,Jezreel Sanchez,Odessa,74.75,183.7,102.06,195.04,480.81,Single-ply,SBD,M
Boys,74.84,5,Arnie Martinez,Floydada,71.4,163.29,111.13,204.12,478.54,Single-ply,SBD,M
Boys,74.84,6,Dagan Barela,Plainview,67.86,183.7,102.06,181.44,467.2,Single-ply,SBD,M
Boys,74.84,7,Sebastian Perez,Vega,71.21,172.37,90.72,190.51,453.59,Single-ply,SBD,M
Boys,74.84,8,Devin Mora,Andrews,71.94,190.51,106.59,151.95,449.06,Single-ply,SBD,M
Boys,74.84,9,Devin Doerksen,Seminole,68.67,167.83,92.99,179.17,439.98,Single-ply,SBD,M
Boys,74.84,10,Skyler Davis,Levelland,74.84,147.42,95.25,197.31,439.98,Single-ply,SBD,M
Boys,74.84,11,Chris Rodriquez,Lamesa,74.21,154.22,102.06,181.44,437.72,Single-ply,SBD,M
Boys,74.84,12,Kingsley Rodriguez,Seagraves,71.4,167.83,97.52,167.83,433.18,Single-ply,SBD,M
Boys,74.84,13,Isaac Garza,Levelland,73.48,147.42,111.13,174.63,433.18,Single-ply,SBD,M
Boys,74.84,14,Aaron Granados,Levelland,71.49,167.83,88.45,174.63,430.91,Single-ply,SBD,M
Boys,74.84,15,Alex Licerio,Friona,69.58,142.88,88.45,161.03,392.36,Single-ply,SBD,M
Boys,74.84,16,Jordan Conde,Dumas,74.39,145.15,90.72,154.22,390.09,Single-ply,SBD,M
Boys,74.84,17,Alex Carmona,Floydada,67.49,154.22,81.65,149.69,385.55,Single-ply,SBD,M
Boys,74.84,18,Abel Tinajero,Sudan,69.94,138.35,92.99,145.15,376.48,Single-ply,SBD,M
Boys,74.84,19,Cade Howell,Ropesville Ropes,74.48,156.49,90.72,127.01,374.21,Single-ply,SBD,M
Boys,74.84,20,Hector Borunda,Dumas,67.4,142.88,81.65,145.15,369.68,Single-ply,SBD,M
Boys,74.84,21,Silia Urrutia,Lockney,73.48,147.42,70.31,147.42,365.14,Single-ply,SBD,M
Boys,74.84,22,Kathan Valenzuela,Tulia,73.94,140.61,65.77,145.15,351.53,Single-ply,SBD,M
Boys,74.84,23,Johnny Valentine,Meadow,67.86,83.91,81.65,149.69,315.25,Single-ply,SBD,M
Boys,74.84,24,Aldo Mendoza,Post,68.49,104.33,74.84,115.67,294.84,Single-ply,SBD,M
Boys,74.84,25,Caleb Riojas,New Home,72.12,106.59,58.97,127.01,292.57,Single-ply,SBD,M
Boys,74.84,26,Nick Quintana,Post,72.21,111.13,61.23,117.93,290.3,Single-ply,SBD,M
Boys,74.84,27,Jonah Gonzales,Plains,69.31,92.99,56.7,129.27,278.96,Single-ply,SBD,M
Boys,74.84,DQ,Michael Dean #4,Post,69.31,129.27,,,,Single-ply,SBD,M
Boys,74.84,DQ,Jett Ballard,New Home,71.12,145.15,,,,Single-ply,SBD,M
Boys,74.84,DQ,Ransom Edwards,Seminole,69.67,,,,,Single-ply,SBD,M
Boys,74.84,DQ,Whit Smithson,New Home,67.86,,,,,Single-ply,SBD,M
Boys,82.1,1,Esau Flores,Andrews,80.92,204.12,102.06,208.65,514.83,Single-ply,SBD,M
Boys,82.1,2,Usbaldo Zarate,Dalhart,78.38,192.78,111.13,195.04,498.95,Single-ply,SBD,M
Boys,82.1,3,Pete Lazcano,Post,81.83,190.51,111.13,197.31,498.95,Single-ply,SBD,M
Boys,82.1,4,Ayden Pacheco,Andrews,75.66,195.04,106.59,195.04,496.68,Single-ply,SBD,M
Boys,82.1,5,Manual Ramos,Bovina,77.56,170.1,124.74,190.51,485.34,Single-ply,SBD,M
Boys,82.1,6,Keanu Villarreal,Lockney,81.47,179.17,122.47,165.56,467.2,Single-ply,SBD,M
Boys,82.1,7,Hunter Graves,Post,76.93,176.9,97.52,185.97,460.4,Single-ply,SBD,M
Boys,82.1,8,Cameron Enriquez,Dimmitt,78.2,172.37,106.59,181.44,460.4,Single-ply,SBD,M
Boys,82.1,9,Logan Terrell,Bushland,78.56,145.15,115.67,192.78,453.59,Single-ply,SBD,M
Boys,82.1,10,Keagan Knight,Dalhart,75.3,181.44,90.72,170.1,442.25,Single-ply,SBD,M
Boys,82.1,11,Shawn Marquez,Lockney,76.66,163.29,95.25,174.63,433.18,Single-ply,SBD,M
Boys,82.1,12,Tru Gibson,Bushland,79.11,170.1,86.18,170.1,426.38,Single-ply,SBD,M
Boys,82.1,13,Misael Castaneda,Levelland,79.92,158.76,90.72,174.63,424.11,Single-ply,SBD,M
Boys,82.1,14,Alex Conley,Sudan,77.84,163.29,108.86,149.69,421.84,Single-ply,SBD,M
Boys,82.1,15,Rogelio Palacios,Friona,75.3,165.56,83.91,151.95,401.43,Single-ply,SBD,M
Boys,82.1,16,Triston Fred,Sudan,79.2,149.69,77.11,158.76,385.55,Single-ply,SBD,M
Boys,82.1,17,Irvin Jurado,Odessa,78.56,149.69,81.65,136.08,367.41,Single-ply,SBD,M
Boys,82.1,18,Jesus Huerta,Sudan,80.38,140.61,83.91,142.88,367.41,Single-ply,SBD,M
Boys,82.1,19,Damon Boyd,Sudan,80.65,131.54,74.84,136.08,342.46,Single-ply,SBD,M
Boys,82.1,20,Ryan Flores,Meadow,75.57,92.99,63.5,122.47,278.96,Single-ply,SBD,M
Boys,82.1,DQ,Nathan Mojica,New Home,77.29,145.15,,,,Single-ply,SBD,M
Boys,89.81,1,Caleb Frausto,Canyon Randall,88.18,206.38,154.22,217.72,578.33,Single-ply,SBD,M
Boys,89.81,2,Isaac Castillo,Plainview,85,219.99,136.08,197.31,553.38,Single-ply,SBD,M
Boys,89.81,3,Caden Lafever,Canyon Randall,85.37,190.51,133.81,213.19,537.51,Single-ply,SBD,M
Boys,89.81,4,Tobi Banire,Wolfforth Frenship,83.73,215.46,97.52,210.92,523.9,Single-ply,SBD,M
Boys,89.81,5,Joe Caro,Seminole,87.45,188.24,106.59,215.46,510.29,Single-ply,SBD,M
Boys,89.81,6,Jacob Eugenis,Wolfforth Frenship,82.83,192.78,95.25,210.92,498.95,Single-ply,SBD,M
Boys,89.81,7,Justin Gonzales,Andrews,87,197.31,129.27,165.56,492.15,Single-ply,SBD,M
Boys,89.81,8,Cardell Wickware,Floydada,88.72,174.63,140.61,174.63,489.88,Single-ply,SBD,M
Boys,89.81,9,Chris Correa,Brownfield,84.01,181.44,113.4,192.78,487.61,Single-ply,SBD,M
Boys,89.81,10,Julian Rios,Wolfforth Frenship,83.82,183.7,106.59,195.04,485.34,Single-ply,SBD,M
Boys,89.81,11,Julian Flores,Wolfforth Frenship,85.09,167.83,127.01,190.51,485.34,Single-ply,SBD,M
Boys,89.81,12,Gary Brooks,Odessa,89.72,183.7,115.67,183.7,483.08,Single-ply,SBD,M
Boys,89.81,13,Preston Love,Bushland,88.99,195.04,102.06,183.7,480.81,Single-ply,SBD,M
Boys,89.81,14,Chris Martinez,Dimmitt,86.64,190.51,104.33,181.44,476.27,Single-ply,SBD,M
Boys,89.81,15,Andrew Santiago,Canyon Randall,85.91,165.56,113.4,172.37,451.32,Single-ply,SBD,M
Boys,89.81,16,Clayton Culp,Lamesa,83.91,156.49,92.99,176.9,426.38,Single-ply,SBD,M
Boys,89.81,17,Jacob Ruiz,Brownfield,89.36,156.49,104.33,165.56,426.38,Single-ply,SBD,M
Boys,89.81,18,Corbin McDowell,Tulia,83.69,167.83,86.18,161.03,415.04,Single-ply,SBD,M
Boys,89.81,19,Nick Flores,Lamesa,89.09,158.76,92.99,158.76,410.5,Single-ply,SBD,M
Boys,89.81,20,Cole Boren,Post,83.73,167.83,95.25,142.88,405.97,Single-ply,SBD,M
Boys,89.81,21,Jaden Diaz,Post,89.63,140.61,97.52,163.29,401.43,Single-ply,SBD,M
Boys,89.81,22,Brian Davila,Sudan,89.72,140.61,92.99,161.03,394.63,Single-ply,SBD,M
Boys,89.81,23,Andrew Cigarroa,Friona,88.27,147.42,83.91,158.76,390.09,Single-ply,SBD,M
Boys,89.81,24,Nathan Fletcher,Levelland,88.09,147.42,102.06,136.08,385.55,Single-ply,SBD,M
Boys,89.81,25,Gael Davila,Dumas,88.36,147.42,90.72,147.42,385.55,Single-ply,SBD,M
Boys,89.81,26,Jesus Martinez,Seminole,83.73,131.54,86.18,140.61,358.34,Single-ply,SBD,M
Boys,89.81,27,Luis Ochoa,Seagraves,88.9,111.13,77.11,120.2,308.44,Single-ply,SBD,M
Boys,89.81,28,Zeke Diaz,Plains,83.01,106.59,68.04,127.01,301.64,Single-ply,SBD,M
Boys,99.79,1,Isaiah Williams,Wolfforth Frenship,98.88,238.14,147.42,260.82,646.37,Single-ply,SBD,M
Boys,99.79,2,Ian Alvidrez,Seminole,92.71,235.87,145.15,240.4,621.42,Single-ply,SBD,M
Boys,99.79,3,Khaled Abu-Alghanam,Odessa Permian,99.16,247.21,151.95,217.72,616.89,Single-ply,SBD,M
Boys,99.79,4,Sean Ramirez,Odessa Permian,90.26,231.33,151.95,229.06,612.35,Single-ply,SBD,M
Boys,99.79,5,Christian Perez,Levelland,92.17,242.67,133.81,226.8,603.28,Single-ply,SBD,M
Boys,99.79,6,D'Shae Casias,Plainview,99.7,247.21,136.08,215.46,598.74,Single-ply,SBD,M
Boys,99.79,7,Jesse Flores,Levelland,91.63,226.8,163.29,199.58,589.67,Single-ply,SBD,M
Boys,99.79,8,Brison Smith,Odessa,99.06,229.06,147.42,210.92,587.4,Single-ply,SBD,M
Boys,99.79,9,Lorenzo Coy-Galindo,Wolfforth Frenship,97.43,226.8,95.25,226.8,548.85,Single-ply,SBD,M
Boys,99.79,10,Jesus Jaramillo,Friona,98.25,208.65,115.67,210.92,535.24,Single-ply,SBD,M
Boys,99.79,11,Damian Pena,Denver City,93.35,195.04,120.2,215.46,530.7,Single-ply,SBD,M
Boys,99.79,12,Logan Philips,Odessa Permian,94.62,197.31,136.08,195.04,528.44,Single-ply,SBD,M
Boys,99.79,13,Ariel Delgado,Seminole,94.8,204.12,106.59,217.72,528.44,Single-ply,SBD,M
Boys,99.79,14,Shelby Sanderson,Canyon Randall,97.16,192.78,127.01,204.12,523.9,Single-ply,SBD,M
Boys,99.79,15,Octavio Frausto,Andrews,90.9,204.12,115.67,201.85,521.63,Single-ply,SBD,M
Boys,99.79,16,Francisco Nave,Odessa,95.62,210.92,120.2,185.97,517.1,Single-ply,SBD,M
Boys,99.79,17,Juan Barron,Tulia,99.79,217.72,95.25,204.12,517.1,Single-ply,SBD,M
Boys,99.79,18,Esteban Morales,Dumas,96.25,190.51,108.86,188.24,487.61,Single-ply,SBD,M
Boys,99.79,19,Andrew Rodriguez,Bushland,96.98,181.44,113.4,188.24,483.08,Single-ply,SBD,M
Boys,99.79,20,Ryan Rodriguez,Muleshoe,91.63,170.1,104.33,201.85,476.27,Single-ply,SBD,M
Boys,99.79,21,Luke Terrell,Bushland,94.17,151.95,111.13,190.51,453.59,Single-ply,SBD,M
Boys,99.79,22,Joe Garcia,Brownfield,95.62,183.7,88.45,181.44,453.59,Single-ply,SBD,M
Boys,99.79,23,Miguel Lara,Lockney,99.79,183.7,83.91,174.63,442.25,Single-ply,SBD,M
Boys,99.79,24,Carlo Sanchez,Dumas,96.71,181.44,90.72,156.49,428.64,Single-ply,SBD,M
Boys,99.79,25,Colby Buckner,Andrews,95.89,172.37,97.52,154.22,424.11,Single-ply,SBD,M
Boys,99.79,26,Jonathon Rodriquez,Lamesa,92.62,156.49,95.25,156.49,408.23,Single-ply,SBD,M
Boys,99.79,27,Cayman Smith,New Home,93.08,138.35,54.43,140.61,333.39,Single-ply,SBD,M
Boys,99.79,28,Marc Ramos,Meadow,99.7,90.72,68.04,115.67,274.42,Single-ply,SBD,M
Boys,99.79,DQ,Toby Sanchez,Levelland,93.08,165.56,,,,Single-ply,SBD,M
Boys,99.79,DQ,Jonathan Ledesma,Brownfield,95.62,115.67,,,,Single-ply,SBD,M
Boys,99.79,DQ,Mike Delefuente,Floydada,99.79,,,,,Single-ply,SBD,M
Boys,109.77,1,O'Ryan Farley,Odessa Permian,109.59,249.48,170.1,254.01,673.58,Single-ply,SBD,M
Boys,109.77,2,Valente Perez,Post,104.96,285.76,136.08,249.48,671.32,Single-ply,SBD,M
Boys,109.77,3,Alexis Gonzalez,Denver City,107.59,238.14,176.9,238.14,653.17,Single-ply,SBD,M
Boys,109.77,4,Diego Garcia,Brownfield,107.32,242.67,151.95,238.14,632.76,Single-ply,SBD,M
Boys,109.77,5,Braeden Robinson,Wolfforth Frenship,104.24,226.8,127.01,249.48,603.28,Single-ply,SBD,M
Boys,109.77,6,Adrian Ramirez,Plainview,106.41,249.48,120.2,226.8,596.47,Single-ply,SBD,M
Boys,109.77,7,Ethan Martinez,Lamesa,106.23,247.21,145.15,197.31,589.67,Single-ply,SBD,M
Boys,109.77,8,Bryan Martinez,Plainview,107.41,235.87,145.15,199.58,580.6,Single-ply,SBD,M
Boys,109.77,9,Cam Anderson,Wolfforth Frenship,102.15,192.78,113.4,226.8,532.97,Single-ply,SBD,M
Boys,109.77,10,Joel Estrella,Andrews,107.23,204.12,122.47,199.58,526.17,Single-ply,SBD,M
Boys,109.77,11,Steven Bazan,Lockney,107.77,226.8,108.86,188.24,523.9,Single-ply,SBD,M
Boys,109.77,12,Alexander Lozano,Denver City,102.97,185.97,127.01,195.04,508.02,Single-ply,SBD,M
Boys,109.77,13,Marco Urbina,Tulia,101.51,199.58,117.93,183.7,501.22,Single-ply,SBD,M
Boys,109.77,14,Chris Delatorre,Dumas,100.61,181.44,102.06,197.31,480.81,Single-ply,SBD,M
Boys,109.77,15,Alan Mendoza,Seagraves,105.14,181.44,106.59,188.24,476.27,Single-ply,SBD,M
Boys,109.77,16,Cadence Balencia,Odessa Permian,109.04,165.56,122.47,174.63,462.66,Single-ply,SBD,M
Boys,109.77,17,Tyler Underwood,Brownfield,104.24,158.76,136.08,158.76,453.59,Single-ply,SBD,M
Boys,109.77,18,Isaac Carreaga,Muleshoe,104.42,185.97,106.59,158.76,451.32,Single-ply,SBD,M
Boys,109.77,19,Elias Aguirre,Muleshoe,107.77,149.69,124.74,158.76,433.18,Single-ply,SBD,M
Boys,109.77,20,Juan Lara,Friona,101.7,156.49,77.11,142.88,376.48,Single-ply,SBD,M
Boys,109.77,21,Anthony Cruse,Post,103.15,129.27,102.06,142.88,374.21,Single-ply,SBD,M
Boys,109.77,22,Bobby Villegas,Tulia,105.05,142.88,72.57,149.69,365.14,Single-ply,SBD,M
Boys,109.77,DQ,Brenden Eminger,Canyon,103.87,260.82,,,,Single-ply,SBD,M
Boys,124.74,1,Octavius Vera,Plainview,112.94,306.17,151.95,254.01,712.14,Single-ply,SBD,M
Boys,124.74,2,Nathan Sanchez,Odessa,119.02,242.67,142.88,249.48,635.03,Single-ply,SBD,M
Boys,124.74,3,Moses Rodriquez,Lamesa,111.77,249.48,149.69,229.06,628.23,Single-ply,SBD,M
Boys,124.74,4,Ivan Esquivel,Denver City,110.22,247.21,149.69,222.26,619.15,Single-ply,SBD,M
Boys,124.74,5,Tim Dominguez,Plainview,111.04,226.8,129.27,222.26,578.33,Single-ply,SBD,M
Boys,124.74,6,Kendall Ptacnik,Canyon Randall,121.47,213.19,147.42,213.19,573.79,Single-ply,SBD,M
Boys,124.74,7,Pete Vargas,Wolfforth Frenship,118.57,235.87,120.2,208.65,564.72,Single-ply,SBD,M
Boys,124.74,8,Javier Olvera,Floydada,119.29,210.92,142.88,204.12,557.92,Single-ply,SBD,M
Boys,124.74,9,Zach Morgan,Wolfforth Frenship,114.21,217.72,115.67,222.26,555.65,Single-ply,SBD,M
Boys,124.74,10,Isaiah Montes,Sudan,114.85,213.19,133.81,206.38,553.38,Single-ply,SBD,M
Boys,124.74,11,Cooper Lackie,Dalhart,123.56,217.72,140.61,192.78,551.11,Single-ply,SBD,M
Boys,124.74,12,Nathaniel Traylor,Dumas,119.93,235.87,117.93,190.51,544.31,Single-ply,SBD,M
Boys,124.74,13,Jeremiah Gonzales,Levelland,117.48,217.72,113.4,206.38,537.51,Single-ply,SBD,M
Boys,124.74,14,Jaime Lopez,Wolfforth Frenship,119.57,176.9,131.54,213.19,521.63,Single-ply,SBD,M
Boys,124.74,15,Brendan Herring,Dalhart,119.84,217.72,124.74,172.37,514.83,Single-ply,SBD,M
Boys,124.74,16,Cody Mays,Vega,112.31,197.31,104.33,210.92,512.56,Single-ply,SBD,M
Boys,124.74,17,David Muñoz,Canyon Randall,112.58,190.51,124.74,192.78,508.02,Single-ply,SBD,M
Boys,124.74,18,Taye Perez,Post,116.85,190.51,106.59,188.24,485.34,Single-ply,SBD,M
Boys,124.74,19,Paul Freeman,Odessa Permian,123.38,183.7,124.74,170.1,478.54,Single-ply,SBD,M
Boys,124.74,20,Jacob Johnston,Floydada,115.85,181.44,106.59,188.24,476.27,Single-ply,SBD,M
Boys,124.74,21,Joe Jimenez,Brownfield,116.75,192.78,97.52,185.97,476.27,Single-ply,SBD,M
Boys,124.74,22,Jerik Reed,Tulia,123.47,188.24,102.06,147.42,437.72,Single-ply,SBD,M
Boys,124.74,DQ,Bryson White,Odessa Permian,114.76,235.87,142.88,,,Single-ply,SBD,M
Boys,124.74,DQ,Omar Hernandez,Dumas,118.3,226.8,131.54,,,Single-ply,SBD,M
Boys,124.74,DQ,Ivien Gonzales,Lamesa,123.65,269.89,,,,Single-ply,SBD,M
Boys,124.74,DQ,Emmanuel Lopez,Meadow,112.31,113.4,,,,Single-ply,SBD,M
Boys,124.74+,1,Jaden Massey,Dalhart,149.87,294.84,192.78,229.06,716.68,Single-ply,SBD,M
Boys,124.74+,2,Jeremiah Cope,Wolfforth Frenship,137.53,281.23,174.63,249.48,705.34,Single-ply,SBD,M
Boys,124.74+,3,James Bruce,Odessa Permian,130.45,231.33,108.86,192.78,532.97,Single-ply,SBD,M
Boys,124.74+,4,Dominick Longoria,Seagraves,158.21,204.12,113.4,204.12,521.63,Single-ply,SBD,M
Boys,124.74+,5,Donoven Campos,Levelland,126.1,188.24,115.67,190.51,494.42,Single-ply,SBD,M
Boys,124.74+,6,Javen Diaz,Post,132.99,199.58,102.06,170.1,471.74,Single-ply,SBD,M
Boys,124.74+,7,Caleb Vasquez,Andrews,125.37,147.42,108.86,181.44,437.72,Single-ply,SBD,M
Boys,124.74+,8,Sean Castillo,Brownfield,153.68,181.44,79.38,156.49,417.3,Single-ply,SBD,M
Boys,124.74+,9,Jeff Davis,Brownfield,148.05,161.03,108.86,145.15,415.04,Single-ply,SBD,M
Boys,124.74+,10,Rodrigo Gomez,Odessa Permian,128.91,172.37,97.52,142.88,412.77,Single-ply,SBD,M
Boys,124.74+,11,John Davis,Bushland,140.33,136.08,79.38,117.93,333.39,Single-ply,SBD,M
Boys,124.74+,DQ,Trevor Kellar,Andrews,127.37,142.88,,,,Single-ply,SBD,M
Boys,124.74+,DQ,Eli Hernandez,Dumas,125.28,247.21,,,,Single-ply,SBD,M
