Place,Name,Sex,BirthDate,Age,Country,State,Equipment,Division,BodyweightKg,WeightClassKg,Squat1Kg,Squat2Kg,Squat3Kg,Best3SquatKg,Bench1Kg,Bench2Kg,Bench3Kg,Best3BenchKg,Deadlift1Kg,Deadlift2Kg,Deadlift3Kg,Best3DeadliftKg,TotalKg,Event
1,Joanne Lohrasbpour,F,1987-07-29,31,USA,CA,Raw,FR-O,46.4,47,80,85,-90,85,40,45,-47.5,45,107.5,115,120,120,250,SBD
NS,Kathryn Lundgren,F,1991-09-24,,USA,CA,Raw,FR-O,,,,,,,,,,,,,,,,SBD
1,Y Phun,F,1996-06-20,22,USA,CA,Raw,FR-Jr,51.3,52,85,95,102.5,102.5,37.5,42.5,45,45,102.5,110,120,120,267.5,SBD
1,Heatheranne Allegro,F,1989-08-29,29,USA,CA,Raw,FR-O,51.4,52,102.5,110,-117.5,110,55,-60,60,60,112.5,117.5,122.5,122.5,292.5,SBD
2,Cary Luu,F,1989-02-25,29,USA,CA,Raw,FR-O,49.3,52,70,-77.5,85,85,35,40,-45,40,80,87.5,95,95,220,SBD
3,Yeefong Shum,F,1992-02-22,,USA,CA,Raw,FR-O,51,52,60,65,-70,65,37.5,40,42.5,42.5,90,95,100,100,207.5,SBD
4,Justine Samocha,F,1990-08-14,28,USA,CA,Raw,FR-O,49.7,52,65,70,-72.5,70,30,32.5,35,35,85,92.5,100,100,205,SBD
1,Melissa Garza #2,F,1995-08-09,23,USA,CA,Raw,FR-Jr,56.7,57,120,132.5,-142.5,132.5,55,60,65,65,130,140,145,145,342.5,SBD
1,Genevieve Rohe,F,1985-09-18,33,USA,CA,Raw,FR-O,56.9,57,80,85,87.5,87.5,45,47.5,-52.5,47.5,87.5,95,97.5,97.5,232.5,SBD
1,Linda Chungchootairong,F,1984-02-26,34,USA,CA,Raw,FR-O,62.3,63,130,135,140,140,70,72.5,75,75,152.5,162.5,172.5,172.5,387.5,SBD
2,Julie Weatherwax,F,1985-07-22,33,USA,CA,Raw,FR-O,61.3,63,100,105,107.5,107.5,62.5,67.5,70,70,125,132.5,137.5,137.5,315,SBD
3,Alice Abraham,F,1981-12-17,,USA,CA,Raw,FR-O,61.4,63,82.5,90,92.5,92.5,45,50,-55,50,100,115,-120,115,257.5,SBD
DQ,Nicole Amsler,F,1969-01-28,50,USA,CA,Raw,FR-O,62,63,-90,-92.5,-92.5,,50,52.5,-55,52.5,-105,105,-110,105,,SBD
1,Arianna Tong,F,1995-08-25,23,USA,CA,Raw,FR-Jr,64.4,72,95,100,105,105,50,55,-60,55,115,122.5,-127.5,122.5,282.5,SBD
2,Arati Warrier,F,1995-04-25,23,USA,CA,Raw,FR-Jr,69.4,72,77.5,82.5,87.5,87.5,35,37.5,40,40,100,105,110,110,237.5,SBD
1,Suzette Bradley,F,1979-06-19,39,USA,CA,Raw,FR-M1a,71.4,72,115,122.5,127.5,127.5,70,75,-77.5,75,137.5,145,150,150,352.5,SBD
1,Sally Goldman,F,1963-09-01,55,USA,CA,Raw,FR-M2b,71.2,72,-120,120,127.5,127.5,72.5,77.5,-80,77.5,152.5,157.5,162.5,162.5,367.5,SBD
1,Ellen Seidel,F,1994-12-19,24,USA,CA,Raw,FR-O,71.5,72,142.5,150,155,155,102.5,107.5,110,110,-162.5,162.5,170,170,435,SBD
2,Melody Jue,F,1995-03-20,23,USA,CA,Raw,FR-O,70,72,120,132.5,142.5,142.5,75,-85,85,85,137.5,152.5,162.5,162.5,390,SBD
3,Suzette Bradley,F,1979-06-19,39,USA,CA,Raw,FR-O,71.4,72,115,122.5,127.5,127.5,70,75,-77.5,75,137.5,145,150,150,352.5,SBD
4,Khaliah Guice,F,1992-02-09,,USA,CA,Raw,FR-O,70,72,102.5,107.5,112.5,112.5,60,62.5,65,65,130,135,-137.5,135,312.5,SBD
5,Lioni Sherman,F,1987-09-15,31,USA,CA,Raw,FR-O,68.9,72,90,100,110,110,55,60,65,65,105,115,125,125,300,SBD
6,Eva Dorrough,F,1991-11-04,27,USA,CA,Raw,FR-O,64,72,105,110,115,115,57.5,60,-62.5,60,105,115,-120,115,290,SBD
1,Wendy Shaffer,F,1974-08-16,44,USA,CA,Raw,FR-M1a,99.4,84+,60,70,75,75,50,-55,55,55,95,102.5,110,110,240,SBD
1,Toni Gish,F,1968-12-10,50,USA,CA,Raw,FR-M2a,72.7,84,-117.5,117.5,120,120,72.5,77.5,-80,77.5,135,140,142.5,142.5,340,SBD
2,Rowena Moore,F,1966-03-01,52,USA,CA,Raw,FR-M2a,81.3,84,-120,125,127.5,127.5,50,52.5,-55,52.5,-125,130,135,135,315,SBD
1,Toni Gish,F,1968-12-10,50,USA,CA,Raw,FR-O,72.7,84,-117.5,117.5,120,120,72.5,77.5,-80,77.5,135,140,142.5,142.5,340,SBD
2,Georgia Andrews,F,1988-12-20,30,USA,CA,Raw,FR-O,82.7,84,105,110,117.5,117.5,55,57.5,60,60,117.5,125,130,130,307.5,SBD
3,Rachael Balliet,F,1985-08-29,33,USA,CA,Raw,FR-O,73.2,84,95,102.5,107.5,107.5,62.5,65,-70,65,107.5,115,120,120,292.5,SBD
4,Tanaya Joshi,F,1990-03-04,28,USA,CA,Raw,FR-O,83.1,84,70,-75,77.5,77.5,37.5,40,42.5,42.5,95,102.5,107.5,107.5,227.5,SBD
1,Christal Bundang,F,1988-02-22,31,USA,CA,Raw,FR-O,93.6,84+,105,112.5,-117.5,112.5,55,-60,60,60,120,127.5,135,135,307.5,SBD
1,Kayla Taylor,F,2001-06-28,17,USA,CA,Raw,FR-T2,144.9,84+,67.5,75,87.5,87.5,60,65,-85,65,90,95,102.5,102.5,255,SBD
NS,Aaron Liu,M,1995-02-09,,USA,CA,Raw,MR-O,,,,,,,,,,,,,,,,SBD
NS,John Roemer III,M,1991-07-14,,USA,CA,Raw,MR-O,,,,,,,,,,,,,,,,SBD
NS,Kartik Thakore,M,1987-10-24,,USA,CA,Raw,MR-O,,,,,,,,,,,,,,,,SBD
NS,Andrei Renzi Buado,M,2000-05-09,,USA,CA,Raw,MR-T3,,,,,,,,,,,,,,,,SBD
1,Justin Jang,M,1996-10-15,22,USA,CA,Raw,MR-Jr,72.2,74,155,165,-172.5,165,122.5,-130,130,130,175,187.5,200,200,495,SBD
2,Simon H Poon,M,1996-12-27,22,USA,CA,Raw,MR-Jr,72.7,74,135,-145,145,145,87.5,102.5,-105,102.5,195,212.5,232.5,232.5,480,SBD
3,Daryl Sew,M,1996-09-07,22,USA,CA,Raw,MR-Jr,73.1,74,-120,120,137.5,137.5,70,77.5,-85,77.5,135,150,160,160,375,SBD
1,Ojas Mhetar,M,1994-05-21,24,USA,CA,Raw,MR-O,73.1,74,152.5,162.5,-167.5,162.5,90,95,-100,95,185,190,195,195,452.5,SBD
2,Bryan Roxias,M,1985-09-06,33,USA,CA,Raw,MR-O,66.2,74,132.5,-137.5,-137.5,132.5,95,100,-102.5,100,202.5,-217.5,-217.5,202.5,435,SBD
1,John Larson,M,2001-09-25,17,USA,CA,Raw,MR-T2,73.1,74,120,127.5,137.5,137.5,90,97.5,102.5,102.5,-135,140,155,155,395,SBD
2,Eric Carlson,M,2002-04-18,16,USA,CA,Raw,MR-T2,66.4,74,112.5,120,-127.5,120,72.5,80,85,85,135,142.5,150,150,355,SBD
1,Alex Sowell,M,1996-07-24,22,USA,CA,Raw,MR-Jr,82.4,83,227.5,237.5,-240,237.5,127.5,135,-140,135,267.5,282.5,290,290,662.5,SBD
2,Dorian Raboy-McGowan,M,1999-01-14,20,USA,HI,Raw,MR-Jr,82.1,83,227.5,237.5,247.5,247.5,122.5,130,-135,130,242.5,252.5,260,260,637.5,SBD
3,Mason Romo,M,1995-10-17,23,USA,CA,Raw,MR-Jr,82.1,83,162.5,172.5,182.5,182.5,100,105,110,110,192.5,202.5,212.5,212.5,505,SBD
4,Zikang Tong,M,1996-08-07,22,USA,CA,Raw,MR-Jr,81.7,83,145,155,165,165,100,110,115,115,157.5,172.5,182.5,182.5,462.5,SBD
1,Joe Seiden,M,1992-02-14,27,USA,CA,Raw,MR-O,82,83,190,200,210,210,155,162.5,-167.5,162.5,230,240,250,250,622.5,SBD
2,Francisco Lievano,M,1989-12-22,29,USA,CA,Raw,MR-O,81.1,83,200,215,-225,215,130,-140,-140,130,240,245,250,250,595,SBD
3,Erik Nguyen,M,1994-04-30,,USA,CA,Raw,MR-O,82.1,83,197.5,207.5,215,215,122.5,130,-137.5,130,220,230,235,235,580,SBD
4,Brian Postadan,M,1981-04-29,37,USA,CA,Raw,MR-O,81,83,175,187.5,195,195,125,135,137.5,137.5,220,237.5,245,245,577.5,SBD
5,Christopher Oh,M,1991-09-29,27,USA,CA,Raw,MR-O,81.5,83,180,187.5,-195,187.5,122.5,130,135,135,230,245,-260,245,567.5,SBD
6,Jesus Gonzalez,M,1987-04-04,31,USA,CA,Raw,MR-O,81.4,83,190,-200,-200,190,122.5,-127.5,-127.5,122.5,205,212.5,217.5,217.5,530,SBD
7,Uche Megwalu,M,1981-12-20,37,USA,CA,Raw,MR-O,81.4,83,155,170,177.5,177.5,102.5,-112.5,-112.5,102.5,202.5,217.5,227.5,227.5,507.5,SBD
8,Michael Perez-Colunga,M,1994-09-30,24,USA,CA,Raw,MR-O,83,83,165,-175,-175,165,-100,-105,105,105,187.5,200,-210,200,470,SBD
9,Agustin Aliaga,M,1993-11-29,25,USA,CA,Raw,MR-O,79.8,83,-140,140,145,145,100,105,107.5,107.5,150,160,170,170,422.5,SBD
1,Curtis Malacrea,M,2000-06-16,18,USA,CA,Raw,MR-T3,80.6,83,155,165,172.5,172.5,95,100,-107.5,100,197.5,207.5,212.5,212.5,485,SBD
1,Zachary Yamamoto,M,1996-05-15,22,USA,CA,Raw,MR-Jr,92,93,252.5,262.5,-267.5,262.5,190,200,207.5,207.5,260,282.5,-287.5,282.5,752.5,SBD
2,Eric Luxenberg,M,1996-09-25,22,USA,CA,Raw,MR-Jr,91.9,93,-220,227.5,-240,227.5,140,147.5,150,150,232.5,-240,-250,232.5,610,SBD
3,Henry Yu,M,1996-05-26,22,USA,CA,Raw,MR-Jr,86.4,93,157.5,167.5,-177.5,167.5,112.5,120,-127.5,120,187.5,200,-205,200,487.5,SBD
1,Ajay Rayasam,M,1978-10-01,40,USA,CA,Raw,MR-M1a,93,93,140,167.5,175,175,100,110,115,115,185,200,-210,200,490,SBD
1,Deric Stockton,M,1969-01-02,50,USA,CA,Raw,MR-M2a,90.3,93,200,210,-215,210,115,120,-125,120,-205,205,-225,205,535,SBD
1,Matthew Boxberger,M,1959-02-19,60,USA,CA,Raw,MR-M3a,88.5,93,80,87.5,102.5,102.5,90,102.5,107.5,107.5,160,170,185,185,395,SBD
1,Zachary Yamamoto,M,1996-05-15,22,USA,CA,Raw,MR-O,92,93,252.5,262.5,-267.5,262.5,190,200,207.5,207.5,260,282.5,-287.5,282.5,752.5,SBD
2,Tyeler Loomis,M,1992-07-22,26,USA,CA,Raw,MR-O,91.9,93,215,225,227.5,227.5,120,125,-130,125,225,237.5,245,245,597.5,SBD
3,Hipolito Peña,M,1992-01-05,27,USA,CA,Raw,MR-O,89.8,93,177.5,185,190,190,120,127.5,132.5,132.5,190,200,212.5,212.5,535,SBD
4,Gavin Frazer,M,1994-04-11,24,USA,CA,Raw,MR-O,91.9,93,160,170,180,180,127.5,132.5,-140,132.5,197.5,205,210,210,522.5,SBD
5,Jacob Schmidt,M,1994-08-01,24,USA,CA,Raw,MR-O,90.1,93,-142.5,147.5,155,155,135,140,145,145,185,200,210,210,510,SBD
6,Erik Zarazua,M,1990-03-01,28,USA,CA,Raw,MR-O,92.5,93,155,165,172.5,172.5,-102.5,102.5,110,110,187.5,200,-207.5,200,482.5,SBD
7,Paul Ossenberg,M,1990-02-20,29,USA,CA,Raw,MR-O,90.8,93,142.5,150,160,160,107.5,112.5,115,115,165,177.5,187.5,187.5,462.5,SBD
8,Jeff Carrmichael,M,1992-07-28,26,USA,CA,Raw,MR-O,90.1,93,102.5,117.5,-137.5,117.5,95,102.5,107.5,107.5,145,165,182.5,182.5,407.5,SBD
9,Mikael Konutgan,M,1991-12-22,,USA,CA,Raw,MR-O,90.8,93,110,120,130,130,70,72.5,75,75,100,115,125,125,330,SBD
1,Eduardo Lopez,M,2000-05-13,18,USA,CA,Raw,MR-T3,85.9,93,185,195,205,205,127.5,132.5,137.5,137.5,235,245,255,255,597.5,SBD
2,Gerald Cahalan,M,1999-03-14,19,USA,NV,Raw,MR-T3,92.8,93,192.5,200,207.5,207.5,-117.5,117.5,-127.5,117.5,210,-220,-227.5,210,535,SBD
1,Quinton Beffa,M,1997-09-17,21,USA,CA,Raw,MR-Jr,95.3,105,222.5,237.5,250,250,127.5,-135,,127.5,-202.5,215,230,230,607.5,SBD
2,Dylan Jones,M,1999-03-10,19,USA,CA,Raw,MR-Jr,101.4,105,-175,187.5,197.5,197.5,142.5,150,157.5,157.5,207.5,232.5,247.5,247.5,602.5,SBD
3,Victor Pavlik,M,1996-06-22,22,USA,CA,Raw,MR-Jr,99.4,105,165,185,-190,185,135,140,-142.5,140,215,225,235,235,560,SBD
4,Jacob Morris,M,1996-06-14,22,USA,CA,Raw,MR-Jr,103.2,105,165,170,177.5,177.5,135,142.5,150,150,195,205,215,215,542.5,SBD
1,Benjamin Schweng,M,1974-09-17,44,USA,CA,Raw,MR-M1a,104.8,105,195,212.5,220,220,120,130,140,140,200,217.5,225,225,585,SBD
1,Jeff Bottjer,M,1969-06-09,49,USA,CA,Raw,MR-M1b,101.3,105,170,185,-187.5,185,130,-140,-140,130,210,232.5,-235,232.5,547.5,SBD
1,Victor Pavlik,M,1996-06-22,22,USA,CA,Raw,MR-O,99.4,105,165,185,-190,185,135,140,-142.5,140,215,225,235,235,560,SBD
2,Gil Lopez,M,1992-08-14,,USA,CA,Raw,MR-O,96.9,105,175,185,190,190,-122.5,-122.5,122.5,122.5,215,-227.5,-227.5,215,527.5,SBD
3,Daryn Sung-Lee,M,1990-12-29,28,USA,CA,Raw,MR-O,95,105,167.5,180,187.5,187.5,120,127.5,132.5,132.5,177.5,192.5,205,205,525,SBD
4,Ryan Edra,M,1982-06-08,36,USA,CA,Raw,MR-O,104.4,105,165,175,182.5,182.5,105,110,115,115,205,220,227.5,227.5,525,SBD
1,Kelsey Commerford,M,1998-08-05,20,USA,CA,Raw,MR-Jr,106.4,120,207.5,220,227.5,227.5,147.5,155,165,165,250,267.5,290,290,682.5,SBD
1,James Percy,M,1979-09-27,39,USA,CA,Raw,MR-M1a,110.2,120,197.5,210,222.5,222.5,155,165,170,170,235,250,260,260,652.5,SBD
2,Ryan Devita,M,1976-12-03,,USA,CA,Raw,MR-M1a,114.5,120,210,225,235,235,140,155,-165,155,225,230,240,240,630,SBD
1,Chris Haw,M,1986-11-22,32,USA,CA,Raw,MR-O,120,120,215,240,-257.5,240,155,-162.5,162.5,162.5,260,-282.5,-282.5,260,662.5,SBD
2,James Percy,M,1979-09-27,39,USA,CA,Raw,MR-O,110.2,120,197.5,210,222.5,222.5,155,165,170,170,235,250,260,260,652.5,SBD
3,Ryan Devita,M,1976-12-03,,USA,CA,Raw,MR-O,114.5,120,210,225,235,235,140,155,-165,155,225,230,240,240,630,SBD
4,Victor Delgadillo,M,1984-07-02,34,USA,CA,Raw,MR-O,119.3,120,-215,220,-230,220,120,127.5,137.5,137.5,212.5,220,232.5,232.5,590,SBD
5,Austin Hyland,M,1993-08-08,25,USA,CA,Raw,MR-O,119.5,120,175,190,205,205,132.5,-137.5,137.5,137.5,187.5,202.5,215,215,557.5,SBD
6,Wesley Zuber,M,1979-10-31,39,USA,CA,Raw,MR-O,117.8,120,-182.5,197.5,207.5,207.5,105,115,-125,115,205,222.5,232.5,232.5,555,SBD
7,Javier Martinez,M,1988-08-31,30,USA,CA,Raw,MR-O,105.7,120,185,197.5,210,210,107.5,115,125,125,185,197.5,210,210,545,SBD
1,Francis Anamos,M,1985-12-03,33,USA,CA,Raw,MR-O,132.2,120+,192.5,210,212.5,212.5,142.5,152.5,-160,152.5,215,237.5,247.5,247.5,612.5,SBD
1,Jonathan Sage,M,1982-12-17,36,USA,CA,Raw,MR-O,103.8,105,,,,,172.5,-177.5,-177.5,172.5,205,215,-227.5,215,387.5,BD
1,Justin Jang,M,1996-10-15,22,USA,CA,Raw,MR-Jr,72.2,74,,,,,122.5,-130,130,130,,,,,130,B
1,Alexander Stram,M,1985-12-27,33,USA,CA,Raw,MR-O,96.7,105,,,,,135,-137.5,-137.5,135,,,,,135,B
