Division,WeightClassKg,Place,Name,Team,BodyweightKg,Best3SquatKg,Best3BenchKg,Best3DeadliftKg,TotalKg,Equipment,Event,Sex
Boys,51.71,1,JT White,Cedar Hill,50.8,106.59,47.63,131.54,285.76,Single-ply,SBD,M
Boys,51.71,2,Shyrod Anderson,Cleburne,51.26,102.06,52.16,131.54,285.76,Single-ply,SBD,M
Boys,51.71,3,Cody Noller,Rio Vista,51.71,95.25,52.16,92.99,240.4,Single-ply,SBD,M
Boys,51.71,4,Dusty Miser,Whitney,48.99,90.72,45.36,97.52,233.6,Single-ply,SBD,M
Boys,51.71,5,Wyatt McClaren,Clifton,51.71,90.72,40.82,90.72,222.26,Single-ply,SBD,M
Boys,55.79,1,Josh Homesley,Rio Vista,55.79,156.49,77.11,156.49,390.09,Single-ply,SBD,M
Boys,55.79,2,Manny Aerola,Maypearl,55.34,117.93,79.38,140.61,337.93,Single-ply,SBD,M
Boys,55.79,3,Kenny Roca,Venus,55.79,131.54,63.5,113.4,308.44,Single-ply,SBD,M
Boys,55.79,4,Dakota Thomas,Clifton,55.79,106.59,63.5,136.08,306.17,Single-ply,SBD,M
Boys,55.79,5,Sean Worlow,Rio Vista,54.43,102.06,65.77,122.47,290.3,Single-ply,SBD,M
Boys,55.79,6,Jaime Luna,Palmer,53.52,102.06,52.16,117.93,272.16,Single-ply,SBD,M
Boys,55.79,7,Austin Gilbert,Whitney,55.79,92.99,52.16,127.01,272.16,Single-ply,SBD,M
Boys,55.79,8,Matthew Garcia,Midlothian,54.43,90.72,56.7,102.06,249.48,Single-ply,SBD,M
Boys,55.79,9,Trinton Crawford,Itasca,55.79,90.72,,108.86,199.58,Single-ply,SD,M
Boys,59.87,1,Vincent Sellers,Midlothian,59.42,183.7,97.52,174.63,455.86,Single-ply,SBD,M
Boys,59.87,2,Rene Rivas,Venus,59.87,147.42,83.91,156.49,387.82,Single-ply,SBD,M
Boys,59.87,3,Steven McElyea,Meridian,59.87,140.61,77.11,158.76,376.48,Single-ply,SBD,M
Boys,59.87,4,Alan Torres,Palmer,58.97,113.4,70.31,136.08,319.78,Single-ply,SBD,M
Boys,59.87,5,Brazos Sepert,Maypearl,58.97,113.4,63.5,136.08,312.98,Single-ply,SBD,M
Boys,59.87,6,Levi Mowles,Venus,59.87,108.86,63.5,124.74,297.1,Single-ply,SBD,M
Boys,59.87,7,K. Stewart,Cedar Hill,58.06,102.06,65.77,124.74,292.57,Single-ply,SBD,M
Boys,59.87,8,Salvador Perez,Palmer,57.15,106.59,61.23,120.2,288.03,Single-ply,SBD,M
Boys,59.87,9,Aditya Misra,Oakridge School,57.15,111.13,58.97,117.93,288.03,Single-ply,SBD,M
Boys,59.87,10,Collin Hofsted,Midlothian,57.61,104.33,63.5,111.13,278.96,Single-ply,SBD,M
Boys,59.87,11,Mike Owens,Milford,57.61,88.45,56.7,102.06,247.21,Single-ply,SBD,M
Boys,67.13,1,Greg Simpson,Cleburne,64.41,183.7,108.86,185.97,478.54,Single-ply,SBD,M
Boys,67.13,2,Michael Hammond,Whitney,67.13,181.44,111.13,176.9,469.47,Single-ply,SBD,M
Boys,67.13,3,Chris Sosebee,Whitney,66.68,174.63,104.33,167.83,446.79,Single-ply,SBD,M
Boys,67.13,4,Jeremy Seay,Meridian,66.68,170.1,111.13,154.22,435.45,Single-ply,SBD,M
Boys,67.13,5,Mark Allen New,Clifton,65.77,163.29,83.91,167.83,415.04,Single-ply,SBD,M
Boys,67.13,6,Stephen Lehew,Maypearl,67.13,147.42,108.86,151.95,408.23,Single-ply,SBD,M
Boys,67.13,7,Aaron Howell,Cleburne,64.86,142.88,99.79,147.42,390.09,Single-ply,SBD,M
Boys,67.13,8,Derek Bonner,Whitney,62.14,142.88,88.45,149.69,381.02,Single-ply,SBD,M
Boys,67.13,9,Jess Godwin,Meridian,66.68,140.61,79.38,149.69,369.68,Single-ply,SBD,M
Boys,67.13,10,Rick Webb,Clifton,64.86,136.08,77.11,147.42,360.61,Single-ply,SBD,M
Boys,67.13,11,Brad Crudup,Oakridge School,60.78,115.67,72.57,151.95,340.19,Single-ply,SBD,M
Boys,67.13,12,Chase Porter,Burleson,61.69,124.74,81.65,129.27,335.66,Single-ply,SBD,M
Boys,67.13,13,Jaen Lopez,Clifton,64.86,127.01,77.11,127.01,331.12,Single-ply,SBD,M
Boys,67.13,14,Trenton Jones,Meridian,65.32,120.2,79.38,129.27,328.85,Single-ply,SBD,M
Boys,67.13,15,Caleb Hollingsworth,Grandview,66.68,120.2,68.04,129.27,317.51,Single-ply,SBD,M
Boys,67.13,16,David Corbitt,Itasca,66.68,115.67,72.57,127.01,315.25,Single-ply,SBD,M
Boys,67.13,17,Zach Sanders,Rio Vista,65.77,120.2,61.23,131.54,312.98,Single-ply,SBD,M
Boys,67.13,18,Ty Justice,Whitney,61.69,127.01,56.7,124.74,308.44,Single-ply,SBD,M
Boys,67.13,19,Judge Wolfe,Palmer,60.78,88.45,52.16,122.47,263.08,Single-ply,SBD,M
Boys,67.13,20,Tye Stulir,Rio Vista,63.28,95.25,52.16,113.4,260.82,Single-ply,SBD,M
Boys,74.84,1,Jermell Garrett,Whitney,68.95,192.78,104.33,213.19,510.29,Single-ply,SBD,M
Boys,74.84,2,Austin Mears,Cleburne,74.39,181.44,122.47,183.7,487.61,Single-ply,SBD,M
Boys,74.84,3,Casey Graham,Godley,71.67,192.78,106.59,181.44,480.81,Single-ply,SBD,M
Boys,74.84,4,Ben Song,Oakridge School,68.04,174.63,113.4,183.7,471.74,Single-ply,SBD,M
Boys,74.84,5,Josh Tucker,Godley,74.84,181.44,90.72,181.44,453.59,Single-ply,SBD,M
Boys,74.84,6,Victor Gonzales,Midlothian,70.76,165.56,97.52,185.97,449.06,Single-ply,SBD,M
Boys,74.84,7,Luke Price,Palmer,71.67,170.1,102.06,163.29,435.45,Single-ply,SBD,M
Boys,74.84,8,Dakota Kundert,Burleson,69.85,156.49,113.4,158.76,428.64,Single-ply,SBD,M
Boys,74.84,9,Justin Seeton,Midlothian,73.48,158.76,92.99,172.37,424.11,Single-ply,SBD,M
Boys,74.84,10,Ryan Martin,Clifton,73.03,136.08,104.33,181.44,421.84,Single-ply,SBD,M
Boys,74.84,11,Douglas Wood,Rio Vista,72.57,158.76,108.86,149.69,417.3,Single-ply,SBD,M
Boys,74.84,12,Michael Eusepi,Venus,69.4,151.95,90.72,170.1,412.77,Single-ply,SBD,M
Boys,74.84,13,Jacob Lopez,Italy,74.84,149.69,97.52,158.76,405.97,Single-ply,SBD,M
Boys,74.84,14,Ben Pannell,Grandview,72.57,147.42,95.25,158.76,401.43,Single-ply,SBD,M
Boys,74.84,15,Tyler Robinson,Burleson,68.95,154.22,83.91,158.76,396.89,Single-ply,SBD,M
Boys,74.84,16,Robert Duby,Itasca,74.84,158.76,83.91,147.42,390.09,Single-ply,SBD,M
Boys,74.84,17,Lucas D'Agostino,Oakridge School,72.57,151.95,83.91,140.61,376.48,Single-ply,SBD,M
Boys,74.84,18,Kody Kittrell,Venus,73.94,122.47,86.18,149.69,358.34,Single-ply,SBD,M
Boys,74.84,19,Rhett Brawner,Godley,73.94,129.27,81.65,142.88,353.8,Single-ply,SBD,M
Boys,74.84,20,Hayden Mathews,Rio Vista,70.31,138.35,65.77,124.74,328.85,Single-ply,SBD,M
Boys,74.84,21,Jacob Stanley,Rio Vista,68.49,102.06,70.31,124.74,297.1,Single-ply,SBD,M
Boys,74.84,22,Cameron Fox,Oakridge School,68.95,97.52,65.77,115.67,278.96,Single-ply,SBD,M
Boys,74.84,23,Dontrell Thompson,Itasca,74.84,174.63,90.72,,265.35,Single-ply,SB,M
Boys,74.84,24,Russell Atchison,Rio Vista,72.8,151.95,72.57,,224.53,Single-ply,SB,M
Boys,74.84,25,Zach Friel,Rio Vista,74.62,65.77,52.16,104.33,222.26,Single-ply,SBD,M
Boys,74.84,26,Christian Cruz,Itasca,74.39,,61.23,102.06,163.29,Single-ply,BD,M
Boys,82.1,1,Kevin Anderson,Meridian,78.24,219.99,124.74,226.8,571.53,Single-ply,SBD,M
Boys,82.1,2,JT Taylor,Burleson,77.11,192.78,120.2,204.12,517.1,Single-ply,SBD,M
Boys,82.1,3,Chris Carnes,Burleson,81.65,192.78,131.54,181.44,505.76,Single-ply,SBD,M
Boys,82.1,4,Michael Glenn,Midlothian,81.87,201.85,102.06,192.78,496.68,Single-ply,SBD,M
Boys,82.1,5,Luc Leal,Maypearl,81.19,174.63,111.13,183.7,469.47,Single-ply,SBD,M
Boys,82.1,6,Zach Rollins,Rio Vista,81.65,151.95,111.13,192.78,455.86,Single-ply,SBD,M
Boys,82.1,7,Nick Christ,Cedar Hill,80.74,176.9,83.91,181.44,442.25,Single-ply,SBD,M
Boys,82.1,8,Kenneth Dickerson,Rio Vista,80.51,170.1,102.06,163.29,435.45,Single-ply,SBD,M
Boys,82.1,9,Carlos Cervantes,Rio Vista,78.02,165.56,92.99,165.56,424.11,Single-ply,SBD,M
Boys,82.1,10,Tyler Pfursich,Oakridge School,81.65,147.42,90.72,181.44,419.57,Single-ply,SBD,M
Boys,82.1,11,Quavious Henderson,Midlothian,80.97,133.81,111.13,167.83,412.77,Single-ply,SBD,M
Boys,82.1,12,Marion Simmons,Cedar Hill,77.11,145.15,88.45,163.29,396.89,Single-ply,SBD,M
Boys,82.1,13,Joseph Simpson,Maypearl,79.61,142.88,88.45,163.29,394.63,Single-ply,SBD,M
Boys,82.1,14,Dima Nayda,Itasca,81.87,131.54,79.38,181.44,392.36,Single-ply,SBD,M
Boys,82.1,15,Tyler Hall,Rio Vista,80.51,122.47,102.06,151.95,376.48,Single-ply,SBD,M
Boys,82.1,16,Isiah Lewis,Cedar Hill,77.11,154.22,74.84,145.15,374.21,Single-ply,SBD,M
Boys,82.1,17,Ben Adams,Cedar Hill,79.83,136.08,72.57,129.27,337.93,Single-ply,SBD,M
Boys,82.1,18,Tj Chapman,Rio Vista,78.24,122.47,72.57,124.74,319.78,Single-ply,SBD,M
Boys,82.1,19,Dustin Stewart,Cleburne,75.75,158.76,,,158.76,Single-ply,S,M
Boys,89.81,1,Roy Rodriguez,Clifton,85.96,213.19,113.4,208.65,535.24,Single-ply,SBD,M
Boys,89.81,2,Matthew Scarborough,Oakridge School,83.46,183.7,108.86,208.65,501.22,Single-ply,SBD,M
Boys,89.81,3,Wesley Hayes,Oakridge School,86.64,158.76,127.01,204.12,489.88,Single-ply,SBD,M
Boys,89.81,4,Jacob Allen,Rio Vista,85.28,179.17,113.4,192.78,485.34,Single-ply,SBD,M
Boys,89.81,5,John Blair,Cleburne,85.28,181.44,108.86,183.7,474,Single-ply,SBD,M
Boys,89.81,6,Josh Ashlock,Maypearl,89.13,176.9,99.79,192.78,469.47,Single-ply,SBD,M
Boys,89.81,7,Jacob Rose,Milford,88.22,142.88,102.06,170.1,415.04,Single-ply,SBD,M
Boys,89.81,8,Edward Gaffney,Cedar Hill,89.36,149.69,83.91,156.49,390.09,Single-ply,SBD,M
Boys,89.81,9,Robert Marshall,Itasca,84.82,147.42,61.23,142.88,351.53,Single-ply,SBD,M
Boys,89.81,10,Creek Killough,Rio Vista,89.36,124.74,83.91,124.74,333.39,Single-ply,SBD,M
Boys,89.81,11,Lawrance Cisneros,Burleson,88,,106.59,183.7,290.3,Single-ply,BD,M
Boys,89.81,12,Robert White,Itasca,88.68,133.81,,145.15,278.96,Single-ply,SD,M
Boys,89.81,13,Kyler Scherf,Milford,86.86,95.25,61.23,115.67,272.16,Single-ply,SBD,M
Boys,99.79,1,Dalton Bynum,Clifton,93.89,197.31,147.42,204.12,548.85,Single-ply,SBD,M
Boys,99.79,2,Whit Fagan,Oakridge School,97.98,201.85,124.74,204.12,530.7,Single-ply,SBD,M
Boys,99.79,3,Jesse Rios,Midlothian,94.57,192.78,115.67,195.04,503.49,Single-ply,SBD,M
Boys,99.79,4,Jerod Wilson,Rio Vista,94.12,181.44,124.74,195.04,501.22,Single-ply,SBD,M
Boys,99.79,5,Ethan Eastwood,Maypearl,90.72,174.63,113.4,188.24,476.27,Single-ply,SBD,M
Boys,99.79,6,Andrew Hultin,Godley,97.07,183.7,111.13,181.44,476.27,Single-ply,SBD,M
Boys,99.79,7,Tony Kirk,Midlothian,97.07,183.7,97.52,183.7,464.93,Single-ply,SBD,M
Boys,99.79,8,Vincent Panza,Midlothian,90.95,181.44,95.25,181.44,458.13,Single-ply,SBD,M
Boys,99.79,9,Hayden Houpt,Whitney,96.16,174.63,97.52,181.44,453.59,Single-ply,SBD,M
Boys,99.79,10,Ricky Grammer,Grandview,96.62,102.06,97.52,158.76,358.34,Single-ply,SBD,M
Boys,109.77,1,Scotty Allen,Meridian,107.73,215.46,138.35,219.99,573.79,Single-ply,SBD,M
Boys,109.77,2,Riley Hubert,Clifton,105.01,226.8,131.54,195.04,553.38,Single-ply,SBD,M
Boys,109.77,3,Greg Ormiston,Maypearl,102.06,213.19,115.67,213.19,542.04,Single-ply,SBD,M
Boys,109.77,4,Austin Brewer,Clifton,101.15,195.04,117.93,195.04,508.02,Single-ply,SBD,M
Boys,109.77,5,Sean Young,Cleburne,102.74,197.31,111.13,185.97,494.42,Single-ply,SBD,M
Boys,109.77,6,Scott Crudup,Oakridge School,105.69,192.78,113.4,185.97,492.15,Single-ply,SBD,M
Boys,109.77,7,Seferino Pina,Palmer,108.41,174.63,106.59,204.12,485.34,Single-ply,SBD,M
Boys,109.77,8,Cody Graff,Palmer,100.92,181.44,113.4,181.44,476.27,Single-ply,SBD,M
Boys,109.77,9,Walker Hargrove,Venus,109.77,174.63,115.67,158.76,449.06,Single-ply,SBD,M
Boys,109.77,10,Clayton McClaurin,Rio Vista,102.06,149.69,106.59,181.44,437.72,Single-ply,SBD,M
Boys,109.77,11,William Willis,Grandview,109.54,167.83,102.06,158.76,428.64,Single-ply,SBD,M
Boys,109.77,12,Dakota Larson,Venus,109.09,149.69,95.25,151.95,396.89,Single-ply,SBD,M
Boys,109.77,13,Eian Kinder,Godley,105.46,147.42,92.99,,240.4,Single-ply,SB,M
Boys,124.74,1,Will Dreyer,Clifton,116.8,254.01,181.44,260.82,696.26,Single-ply,SBD,M
Boys,124.74,2,Jesus Pinon,Meridian,123.6,242.67,174.63,249.48,666.78,Single-ply,SBD,M
Boys,124.74,3,Ryan Lidster,Godley,124.51,249.48,174.63,226.8,650.91,Single-ply,SBD,M
Boys,124.74,4,Heath LeMoine,Midlothian,122.24,233.6,127.01,192.78,553.38,Single-ply,SBD,M
Boys,124.74,5,Derek Baldswiler,Burleson,113.62,183.7,104.33,204.12,492.15,Single-ply,SBD,M
Boys,124.74,6,Feyi Oyewole,Oakridge School,117.03,170.1,127.01,190.51,487.61,Single-ply,SBD,M
Boys,124.74,7,Davis Scarborough,Grandview,117.93,170.1,124.74,181.44,476.27,Single-ply,SBD,M
Boys,124.74,8,Dylan Baldswiler,Burleson,116.35,188.24,115.67,170.1,474,Single-ply,SBD,M
Boys,124.74,9,Jace Borden,Cleburne,112.94,172.37,111.13,170.1,453.59,Single-ply,SBD,M
Boys,124.74,10,T Patterson,Rio Vista,118.39,165.56,111.13,170.1,446.79,Single-ply,SBD,M
Boys,124.74,11,Ap Pullins,Cedar Hill,119.75,165.56,97.52,183.7,446.79,Single-ply,SBD,M
Boys,124.74,12,Darvis Thompson,Cedar Hill,117.48,183.7,90.72,158.76,433.18,Single-ply,SBD,M
Boys,124.74,13,Raul Torres,Palmer,114.08,170.1,83.91,136.08,390.09,Single-ply,SBD,M
Boys,124.74,14,David Romero,Whitney,116.8,136.08,90.72,151.95,378.75,Single-ply,SBD,M
Boys,124.74+,1,Michael Lesley,Whitney,139.25,249.48,108.86,204.12,562.45,Single-ply,SBD,M
Boys,124.74+,2,Homer Vaughn,Cleburne,141.75,222.26,154.22,185.97,562.45,Single-ply,SBD,M
Boys,124.74+,3,Tanner Finley,Whitney,136.3,170.1,122.47,188.24,480.81,Single-ply,SBD,M
Boys,124.74+,4,Jeff Reynolds,Midlothian,142.43,174.63,111.13,176.9,462.66,Single-ply,SBD,M
Boys,124.74+,5,Willie Jones,Cedar Hill,134.26,158.76,117.93,127.01,403.7,Single-ply,SBD,M
